T15,T70,date,sensorName
18,42,2022-11-28 00:00:00.308,Lband
18,42,2022-11-28 00:01:00.248,Lband
18,42,2022-11-28 00:02:00.223,Lband
18,42,2022-11-28 00:03:00.298,Lband
18,42,2022-11-28 00:04:00.277,Lband
18,42,2022-11-28 00:05:00.235,Lband
18,42,2022-11-28 00:06:00.308,Lband
18,42,2022-11-28 00:07:00.298,Lband
18,42,2022-11-28 00:08:00.277,Lband
18,42,2022-11-28 00:09:00.308,Lband
18,42,2022-11-28 00:10:00.250,Lband
18,42,2022-11-28 00:11:00.232,Lband
18,42,2022-11-28 00:12:00.200,Lband
18,42,2022-11-28 00:13:00.310,Lband
18,42,2022-11-28 00:14:00.219,Lband
18,42,2022-11-28 00:15:00.288,Lband
18,42,2022-11-28 00:16:00.257,Lband
18,42,2022-11-28 00:17:00.244,Lband
18,42,2022-11-28 00:18:00.215,Lband
18,42,2022-11-28 00:19:00.257,Lband
18,42,2022-11-28 00:20:00.293,Lband
18,42,2022-11-28 00:21:00.280,Lband
18,42,2022-11-28 00:22:00.250,Lband
18,42,2022-11-28 00:23:00.254,Lband
18,42,2022-11-28 00:24:00.246,Lband
18,42,2022-11-28 00:25:00.231,Lband
18,42,2022-11-28 00:26:00.283,Lband
18,42,2022-11-28 00:27:00.297,Lband
18,42,2022-11-28 00:28:00.194,Lband
18,42,2022-11-28 00:29:00.404,Lband
18,42,2022-11-28 00:30:00.249,Lband
18,42,2022-11-28 00:31:00.305,Lband
18,42,2022-11-28 00:32:00.296,Lband
18,42,2022-11-28 00:33:00.246,Lband
18,42,2022-11-28 00:34:00.196,Lband
18,42,2022-11-28 00:35:00.268,Lband
18,42,2022-11-28 00:36:00.189,Lband
18,42,2022-11-28 00:37:00.213,Lband
18,42,2022-11-28 00:38:00.248,Lband
18,42,2022-11-28 00:39:00.296,Lband
18,42,2022-11-28 00:40:00.226,Lband
18,42,2022-11-28 00:41:00.303,Lband
18,42,2022-11-28 00:42:00.243,Lband
18,42,2022-11-28 00:43:00.169,Lband
18,42,2022-11-28 00:44:00.290,Lband
18,42,2022-11-28 00:45:00.274,Lband
18,42,2022-11-28 00:46:00.289,Lband
18,42,2022-11-28 00:47:00.196,Lband
18,42,2022-11-28 00:48:00.213,Lband
18,42,2022-11-28 00:49:00.247,Lband
18,42,2022-11-28 00:50:00.248,Lband
18,42,2022-11-28 00:51:00.303,Lband
18,42,2022-11-28 00:52:00.251,Lband
18,42,2022-11-28 00:53:00.231,Lband
18,42,2022-11-28 00:54:00.253,Lband
18,42,2022-11-28 00:55:00.285,Lband
18,42,2022-11-28 00:56:00.264,Lband
18,42,2022-11-28 00:57:00.297,Lband
18,42,2022-11-28 00:58:00.235,Lband
18,42,2022-11-28 00:59:00.231,Lband
18,42,2022-11-28 01:00:00.222,Lband
18,42,2022-11-28 01:01:00.257,Lband
17,42,2022-11-28 01:02:00.234,Lband
18,42,2022-11-28 01:03:00.291,Lband
18,42,2022-11-28 01:04:00.364,Lband
18,42,2022-11-28 01:05:00.287,Lband
18,42,2022-11-28 01:06:00.228,Lband
18,42,2022-11-28 01:07:00.249,Lband
18,42,2022-11-28 01:08:00.268,Lband
18,42,2022-11-28 01:09:00.281,Lband
18,42,2022-11-28 01:10:00.174,Lband
18,42,2022-11-28 01:11:00.243,Lband
18,42,2022-11-28 01:12:00.291,Lband
18,42,2022-11-28 01:13:00.235,Lband
18,42,2022-11-28 01:14:00.254,Lband
18,42,2022-11-28 01:15:00.289,Lband
18,42,2022-11-28 01:16:00.266,Lband
18,42,2022-11-28 01:17:00.208,Lband
18,42,2022-11-28 01:18:00.257,Lband
18,42,2022-11-28 01:19:00.286,Lband
18,42,2022-11-28 01:20:00.295,Lband
18,42,2022-11-28 01:21:00.207,Lband
18,42,2022-11-28 01:22:00.258,Lband
18,42,2022-11-28 01:23:00.262,Lband
18,42,2022-11-28 01:24:00.260,Lband
18,42,2022-11-28 01:25:00.275,Lband
18,42,2022-11-28 01:26:00.246,Lband
18,42,2022-11-28 01:27:00.277,Lband
18,42,2022-11-28 01:28:00.299,Lband
18,42,2022-11-28 01:29:00.440,Lband
18,42,2022-11-28 01:30:00.250,Lband
18,42,2022-11-28 01:31:00.239,Lband
18,42,2022-11-28 01:32:00.240,Lband
18,42,2022-11-28 01:33:00.174,Lband
18,42,2022-11-28 01:34:00.248,Lband
18,42,2022-11-28 01:35:00.297,Lband
18,42,2022-11-28 01:36:00.209,Lband
18,42,2022-11-28 01:37:00.289,Lband
18,42,2022-11-28 01:38:00.295,Lband
18,42,2022-11-28 01:39:00.276,Lband
18,42,2022-11-28 01:40:00.203,Lband
18,42,2022-11-28 01:41:00.359,Lband
18,42,2022-11-28 01:42:00.275,Lband
18,42,2022-11-28 01:43:00.197,Lband
18,42,2022-11-28 01:44:00.244,Lband
18,42,2022-11-28 01:45:00.239,Lband
18,42,2022-11-28 01:46:00.247,Lband
18,42,2022-11-28 01:47:00.224,Lband
18,42,2022-11-28 01:48:00.258,Lband
18,42,2022-11-28 01:49:00.236,Lband
18,42,2022-11-28 01:50:00.264,Lband
18,42,2022-11-28 01:51:00.354,Lband
18,42,2022-11-28 01:52:00.250,Lband
18,42,2022-11-28 01:53:00.347,Lband
18,42,2022-11-28 01:54:00.243,Lband
18,42,2022-11-28 01:55:00.322,Lband
18,42,2022-11-28 01:56:00.259,Lband
18,42,2022-11-28 01:57:00.279,Lband
18,42,2022-11-28 01:58:00.186,Lband
18,42,2022-11-28 01:59:00.221,Lband
18,42,2022-11-28 02:00:00.286,Lband
18,42,2022-11-28 02:01:00.201,Lband
18,42,2022-11-28 02:02:00.289,Lband
18,42,2022-11-28 02:03:00.233,Lband
18,42,2022-11-28 02:04:00.251,Lband
18,42,2022-11-28 02:05:00.255,Lband
18,42,2022-11-28 02:06:00.283,Lband
18,42,2022-11-28 02:07:00.282,Lband
18,42,2022-11-28 02:08:00.237,Lband
18,42,2022-11-28 02:09:00.299,Lband
18,42,2022-11-28 02:10:00.243,Lband
18,42,2022-11-28 02:11:00.294,Lband
18,42,2022-11-28 02:12:00.232,Lband
18,42,2022-11-28 02:13:00.305,Lband
18,42,2022-11-28 02:14:00.270,Lband
18,42,2022-11-28 02:15:00.380,Lband
18,42,2022-11-28 02:16:00.270,Lband
18,42,2022-11-28 02:17:00.243,Lband
18,42,2022-11-28 02:18:00.297,Lband
18,42,2022-11-28 02:19:00.229,Lband
18,42,2022-11-28 02:20:00.256,Lband
18,42,2022-11-28 02:21:00.201,Lband
18,42,2022-11-28 02:22:00.297,Lband
18,42,2022-11-28 02:23:00.290,Lband
18,42,2022-11-28 02:24:00.343,Lband
18,42,2022-11-28 02:25:00.264,Lband
18,42,2022-11-28 02:26:00.244,Lband
18,42,2022-11-28 02:27:00.297,Lband
18,42,2022-11-28 02:28:00.246,Lband
18,42,2022-11-28 02:29:00.244,Lband
18,42,2022-11-28 02:30:00.225,Lband
18,42,2022-11-28 02:31:00.218,Lband
18,42,2022-11-28 02:32:00.282,Lband
17,42,2022-11-28 02:33:00.243,Lband
18,42,2022-11-28 02:34:00.301,Lband
18,42,2022-11-28 02:35:00.218,Lband
18,42,2022-11-28 02:36:00.248,Lband
18,42,2022-11-28 02:37:00.247,Lband
18,42,2022-11-28 02:38:00.300,Lband
18,42,2022-11-28 02:39:00.269,Lband
18,42,2022-11-28 02:40:00.248,Lband
18,42,2022-11-28 02:41:00.342,Lband
18,42,2022-11-28 02:42:00.212,Lband
18,42,2022-11-28 02:43:00.258,Lband
18,42,2022-11-28 02:44:00.196,Lband
18,42,2022-11-28 02:45:00.253,Lband
18,42,2022-11-28 02:46:00.205,Lband
18,42,2022-11-28 02:47:00.289,Lband
18,42,2022-11-28 02:48:00.281,Lband
18,42,2022-11-28 02:49:00.224,Lband
18,42,2022-11-28 02:50:00.307,Lband
18,42,2022-11-28 02:51:00.237,Lband
18,42,2022-11-28 02:52:00.278,Lband
18,42,2022-11-28 02:53:00.267,Lband
18,42,2022-11-28 02:54:00.294,Lband
18,42,2022-11-28 02:55:00.246,Lband
18,42,2022-11-28 02:56:00.232,Lband
18,42,2022-11-28 02:57:00.249,Lband
18,42,2022-11-28 02:58:00.294,Lband
18,42,2022-11-28 02:59:00.283,Lband
18,42,2022-11-28 03:00:00.224,Lband
18,42,2022-11-28 03:01:00.243,Lband
18,42,2022-11-28 03:02:00.238,Lband
18,42,2022-11-28 03:03:00.305,Lband
18,42,2022-11-28 03:04:00.265,Lband
18,42,2022-11-28 03:05:00.255,Lband
18,42,2022-11-28 03:06:00.244,Lband
18,42,2022-11-28 03:07:00.279,Lband
18,42,2022-11-28 03:08:00.251,Lband
18,42,2022-11-28 03:09:00.189,Lband
18,42,2022-11-28 03:10:00.301,Lband
18,42,2022-11-28 03:11:00.298,Lband
18,42,2022-11-28 03:12:00.228,Lband
18,42,2022-11-28 03:13:00.197,Lband
18,42,2022-11-28 03:14:00.278,Lband
18,42,2022-11-28 03:15:00.199,Lband
18,42,2022-11-28 03:16:00.173,Lband
18,42,2022-11-28 03:17:00.208,Lband
18,42,2022-11-28 03:18:00.243,Lband
18,42,2022-11-28 03:19:00.195,Lband
18,42,2022-11-28 03:20:00.243,Lband
18,42,2022-11-28 03:21:00.210,Lband
18,42,2022-11-28 03:22:00.174,Lband
18,42,2022-11-28 03:23:00.181,Lband
18,42,2022-11-28 03:24:00.239,Lband
18,42,2022-11-28 03:25:00.184,Lband
18,42,2022-11-28 03:26:00.172,Lband
18,42,2022-11-28 03:27:00.177,Lband
18,42,2022-11-28 03:28:00.186,Lband
18,42,2022-11-28 03:29:00.204,Lband
18,42,2022-11-28 03:30:00.183,Lband
18,42,2022-11-28 03:31:00.211,Lband
18,42,2022-11-28 03:32:00.172,Lband
18,42,2022-11-28 03:33:00.215,Lband
17,42,2022-11-28 03:34:00.245,Lband
18,42,2022-11-28 03:35:00.299,Lband
18,42,2022-11-28 03:36:00.239,Lband
18,42,2022-11-28 03:37:00.259,Lband
18,42,2022-11-28 03:38:00.240,Lband
18,42,2022-11-28 03:39:00.255,Lband
18,42,2022-11-28 03:40:00.256,Lband
18,42,2022-11-28 03:41:00.232,Lband
18,42,2022-11-28 03:42:00.247,Lband
18,42,2022-11-28 03:43:00.292,Lband
18,42,2022-11-28 03:44:00.241,Lband
18,42,2022-11-28 03:45:00.298,Lband
18,42,2022-11-28 03:46:00.270,Lband
18,42,2022-11-28 03:47:00.245,Lband
18,42,2022-11-28 03:48:00.269,Lband
18,42,2022-11-28 03:49:00.193,Lband
18,42,2022-11-28 03:50:00.236,Lband
18,42,2022-11-28 03:51:00.285,Lband
18,42,2022-11-28 03:52:00.243,Lband
18,42,2022-11-28 03:53:00.239,Lband
18,42,2022-11-28 03:54:00.255,Lband
18,42,2022-11-28 03:55:00.188,Lband
18,42,2022-11-28 03:56:00.307,Lband
18,42,2022-11-28 03:57:00.229,Lband
18,42,2022-11-28 03:58:00.227,Lband
18,42,2022-11-28 03:59:00.305,Lband
18,42,2022-11-28 04:00:00.227,Lband
18,42,2022-11-28 04:01:00.234,Lband
18,42,2022-11-28 04:02:00.303,Lband
18,42,2022-11-28 04:03:00.285,Lband
18,42,2022-11-28 04:04:00.196,Lband
18,42,2022-11-28 04:05:00.223,Lband
18,42,2022-11-28 04:06:00.253,Lband
18,42,2022-11-28 04:07:00.228,Lband
18,42,2022-11-28 04:08:00.195,Lband
18,42,2022-11-28 04:09:00.287,Lband
18,42,2022-11-28 04:10:00.255,Lband
18,42,2022-11-28 04:11:00.260,Lband
18,42,2022-11-28 04:12:00.229,Lband
18,42,2022-11-28 04:13:00.298,Lband
18,42,2022-11-28 04:14:00.256,Lband
18,42,2022-11-28 04:15:00.278,Lband
18,42,2022-11-28 04:16:00.292,Lband
18,42,2022-11-28 04:17:00.345,Lband
18,42,2022-11-28 04:18:00.231,Lband
18,42,2022-11-28 04:19:00.287,Lband
18,42,2022-11-28 04:20:00.231,Lband
18,42,2022-11-28 04:21:00.245,Lband
18,42,2022-11-28 04:22:00.291,Lband
18,42,2022-11-28 04:23:00.260,Lband
18,42,2022-11-28 04:24:00.289,Lband
18,42,2022-11-28 04:25:00.252,Lband
18,42,2022-11-28 04:26:00.285,Lband
18,42,2022-11-28 04:27:00.259,Lband
18,42,2022-11-28 04:28:00.286,Lband
18,42,2022-11-28 04:29:00.272,Lband
17,42,2022-11-28 04:30:00.298,Lband
18,42,2022-11-28 04:31:00.187,Lband
18,42,2022-11-28 04:32:00.262,Lband
18,42,2022-11-28 04:33:00.250,Lband
18,42,2022-11-28 04:34:00.238,Lband
18,42,2022-11-28 04:35:00.304,Lband
18,42,2022-11-28 04:36:00.239,Lband
18,42,2022-11-28 04:37:00.214,Lband
18,42,2022-11-28 04:38:00.261,Lband
18,42,2022-11-28 04:39:00.348,Lband
18,42,2022-11-28 04:40:00.286,Lband
18,42,2022-11-28 04:41:00.301,Lband
18,42,2022-11-28 04:42:00.189,Lband
18,42,2022-11-28 04:43:00.311,Lband
18,42,2022-11-28 04:44:00.295,Lband
18,42,2022-11-28 04:45:00.284,Lband
18,42,2022-11-28 04:46:00.268,Lband
18,42,2022-11-28 04:47:00.312,Lband
18,42,2022-11-28 04:48:00.287,Lband
18,42,2022-11-28 04:49:00.237,Lband
18,42,2022-11-28 04:50:00.265,Lband
18,42,2022-11-28 04:51:00.302,Lband
18,42,2022-11-28 04:52:00.273,Lband
18,42,2022-11-28 04:53:00.304,Lband
18,42,2022-11-28 04:54:00.249,Lband
18,42,2022-11-28 04:55:00.286,Lband
18,42,2022-11-28 04:56:00.307,Lband
18,42,2022-11-28 04:57:00.231,Lband
18,42,2022-11-28 04:58:00.214,Lband
18,42,2022-11-28 04:59:00.246,Lband
18,42,2022-11-28 05:00:00.231,Lband
18,42,2022-11-28 05:01:00.229,Lband
18,42,2022-11-28 05:02:00.258,Lband
18,42,2022-11-28 05:03:00.280,Lband
18,42,2022-11-28 05:04:00.225,Lband
18,42,2022-11-28 05:05:00.286,Lband
18,42,2022-11-28 05:06:00.277,Lband
18,42,2022-11-28 05:07:00.308,Lband
18,42,2022-11-28 05:08:00.218,Lband
18,42,2022-11-28 05:09:00.298,Lband
18,42,2022-11-28 05:10:00.226,Lband
18,42,2022-11-28 05:11:00.248,Lband
18,42,2022-11-28 05:12:00.305,Lband
18,42,2022-11-28 05:13:00.224,Lband
18,42,2022-11-28 05:14:00.223,Lband
18,42,2022-11-28 05:15:00.195,Lband
18,42,2022-11-28 05:16:00.240,Lband
18,42,2022-11-28 05:17:00.262,Lband
18,42,2022-11-28 05:18:00.217,Lband
18,42,2022-11-28 05:19:00.241,Lband
18,42,2022-11-28 05:20:00.240,Lband
18,42,2022-11-28 05:21:00.280,Lband
18,42,2022-11-28 05:22:00.200,Lband
18,42,2022-11-28 05:23:00.296,Lband
17,42,2022-11-28 05:24:00.299,Lband
18,42,2022-11-28 05:25:00.257,Lband
18,42,2022-11-28 05:26:00.287,Lband
18,42,2022-11-28 05:27:00.255,Lband
18,42,2022-11-28 05:28:00.303,Lband
18,42,2022-11-28 05:29:00.296,Lband
18,42,2022-11-28 05:30:00.296,Lband
18,42,2022-11-28 05:31:00.397,Lband
18,42,2022-11-28 05:32:00.292,Lband
18,42,2022-11-28 05:33:00.244,Lband
18,42,2022-11-28 05:34:00.178,Lband
18,42,2022-11-28 05:35:00.393,Lband
18,42,2022-11-28 05:36:00.317,Lband
18,42,2022-11-28 05:37:00.212,Lband
18,42,2022-11-28 05:38:00.199,Lband
18,42,2022-11-28 05:39:00.244,Lband
18,42,2022-11-28 05:40:00.258,Lband
18,42,2022-11-28 05:41:00.177,Lband
18,42,2022-11-28 05:42:00.246,Lband
18,42,2022-11-28 05:43:00.302,Lband
18,42,2022-11-28 05:44:00.255,Lband
18,42,2022-11-28 05:45:00.241,Lband
18,42,2022-11-28 05:46:00.287,Lband
18,42,2022-11-28 05:47:00.228,Lband
18,42,2022-11-28 05:48:00.306,Lband
18,42,2022-11-28 05:49:00.205,Lband
18,42,2022-11-28 05:50:00.173,Lband
18,42,2022-11-28 05:51:00.286,Lband
18,42,2022-11-28 05:52:00.216,Lband
18,42,2022-11-28 05:53:00.195,Lband
18,42,2022-11-28 05:54:00.383,Lband
18,42,2022-11-28 05:55:00.297,Lband
18,42,2022-11-28 05:56:00.373,Lband
18,42,2022-11-28 05:57:00.298,Lband
18,42,2022-11-28 05:58:00.272,Lband
18,42,2022-11-28 05:59:00.300,Lband
18,42,2022-11-28 06:00:00.271,Lband
18,42,2022-11-28 06:01:00.183,Lband
18,42,2022-11-28 06:02:00.288,Lband
18,42,2022-11-28 06:03:00.359,Lband
18,42,2022-11-28 06:04:00.259,Lband
18,42,2022-11-28 06:05:00.177,Lband
18,42,2022-11-28 06:06:00.257,Lband
18,42,2022-11-28 06:07:00.238,Lband
18,42,2022-11-28 06:08:00.253,Lband
18,42,2022-11-28 06:09:00.227,Lband
18,42,2022-11-28 06:10:00.284,Lband
18,42,2022-11-28 06:11:00.282,Lband
18,42,2022-11-28 06:12:00.247,Lband
18,42,2022-11-28 06:13:00.226,Lband
18,42,2022-11-28 06:14:00.241,Lband
18,42,2022-11-28 06:15:00.364,Lband
18,42,2022-11-28 06:16:00.242,Lband
18,42,2022-11-28 06:17:00.361,Lband
18,42,2022-11-28 06:18:00.269,Lband
18,42,2022-11-28 06:19:00.252,Lband
18,42,2022-11-28 06:20:00.235,Lband
18,42,2022-11-28 06:21:00.209,Lband
18,42,2022-11-28 06:22:00.362,Lband
18,42,2022-11-28 06:23:00.199,Lband
18,42,2022-11-28 06:24:00.293,Lband
18,42,2022-11-28 06:25:00.278,Lband
18,42,2022-11-28 06:26:00.233,Lband
18,42,2022-11-28 06:27:00.281,Lband
18,42,2022-11-28 06:28:00.239,Lband
18,42,2022-11-28 06:29:00.173,Lband
18,42,2022-11-28 06:30:00.280,Lband
18,42,2022-11-28 06:31:00.246,Lband
18,42,2022-11-28 06:32:00.359,Lband
18,42,2022-11-28 06:33:00.189,Lband
18,42,2022-11-28 06:34:00.216,Lband
18,42,2022-11-28 06:35:00.199,Lband
18,42,2022-11-28 06:36:00.205,Lband
18,42,2022-11-28 06:37:00.239,Lband
18,42,2022-11-28 06:38:00.203,Lband
18,42,2022-11-28 06:39:00.243,Lband
18,42,2022-11-28 06:40:00.196,Lband
18,42,2022-11-28 06:41:00.224,Lband
18,42,2022-11-28 06:42:00.244,Lband
18,42,2022-11-28 06:43:00.269,Lband
18,42,2022-11-28 06:44:00.347,Lband
18,42,2022-11-28 06:45:00.238,Lband
18,42,2022-11-28 06:46:00.195,Lband
18,42,2022-11-28 06:47:00.252,Lband
18,42,2022-11-28 06:48:00.274,Lband
18,42,2022-11-28 06:49:00.260,Lband
18,42,2022-11-28 06:50:00.319,Lband
18,42,2022-11-28 06:51:00.241,Lband
18,42,2022-11-28 06:52:00.343,Lband
18,42,2022-11-28 06:53:00.185,Lband
18,42,2022-11-28 06:54:00.210,Lband
18,42,2022-11-28 06:55:00.252,Lband
18,42,2022-11-28 06:56:00.265,Lband
18,42,2022-11-28 06:57:00.227,Lband
18,42,2022-11-28 06:58:00.349,Lband
18,42,2022-11-28 06:59:00.251,Lband
18,42,2022-11-28 07:00:00.160,Lband
18,42,2022-11-28 07:01:00.338,Lband
18,42,2022-11-28 07:02:00.358,Lband
18,42,2022-11-28 07:03:00.199,Lband
18,42,2022-11-28 07:04:00.344,Lband
18,42,2022-11-28 07:05:00.248,Lband
18,42,2022-11-28 07:06:00.256,Lband
18,42,2022-11-28 07:07:00.229,Lband
18,42,2022-11-28 07:08:00.311,Lband
18,42,2022-11-28 07:09:00.235,Lband
18,42,2022-11-28 07:10:00.207,Lband
18,42,2022-11-28 07:11:00.321,Lband
18,42,2022-11-28 07:12:00.216,Lband
18,42,2022-11-28 07:13:00.354,Lband
18,42,2022-11-28 07:14:00.238,Lband
18,42,2022-11-28 07:15:00.305,Lband
18,42,2022-11-28 07:16:00.232,Lband
18,42,2022-11-28 07:17:00.314,Lband
18,42,2022-11-28 07:18:00.163,Lband
18,42,2022-11-28 07:19:00.335,Lband
18,42,2022-11-28 07:20:00.319,Lband
18,42,2022-11-28 07:21:00.301,Lband
18,42,2022-11-28 07:22:00.221,Lband
18,42,2022-11-28 07:23:00.325,Lband
18,42,2022-11-28 07:24:00.236,Lband
18,42,2022-11-28 07:25:00.259,Lband
18,42,2022-11-28 07:26:00.201,Lband
18,42,2022-11-28 07:27:00.302,Lband
18,42,2022-11-28 07:28:00.361,Lband
18,42,2022-11-28 07:29:00.303,Lband
18,42,2022-11-28 07:30:00.300,Lband
18,42,2022-11-28 07:31:00.182,Lband
18,42,2022-11-28 07:32:00.313,Lband
18,42,2022-11-28 07:33:00.187,Lband
18,42,2022-11-28 07:34:00.357,Lband
18,42,2022-11-28 07:35:00.245,Lband
18,42,2022-11-28 07:36:00.402,Lband
18,42,2022-11-28 07:37:00.202,Lband
18,42,2022-11-28 07:38:00.349,Lband
18,42,2022-11-28 07:39:00.232,Lband
18,42,2022-11-28 07:40:00.316,Lband
18,42,2022-11-28 07:41:00.223,Lband
18,42,2022-11-28 07:42:00.307,Lband
18,42,2022-11-28 07:43:00.316,Lband
18,42,2022-11-28 07:44:00.353,Lband
18,42,2022-11-28 07:45:00.348,Lband
18,42,2022-11-28 07:46:00.311,Lband
18,42,2022-11-28 07:47:00.233,Lband
18,42,2022-11-28 07:48:00.238,Lband
18,42,2022-11-28 07:49:00.239,Lband
18,42,2022-11-28 07:50:00.202,Lband
18,42,2022-11-28 07:51:00.240,Lband
18,42,2022-11-28 07:52:00.362,Lband
18,42,2022-11-28 07:53:00.342,Lband
18,42,2022-11-28 07:54:00.361,Lband
18,42,2022-11-28 07:55:00.170,Lband
18,42,2022-11-28 07:56:00.340,Lband
18,42,2022-11-28 07:57:00.197,Lband
18,42,2022-11-28 07:58:00.305,Lband
18,42,2022-11-28 07:59:00.304,Lband
18,42,2022-11-28 08:00:00.309,Lband
18,42,2022-11-28 08:01:00.233,Lband
18,42,2022-11-28 08:02:00.187,Lband
18,42,2022-11-28 08:03:00.293,Lband
18,42,2022-11-28 08:04:00.300,Lband
18,42,2022-11-28 08:05:00.345,Lband
18,42,2022-11-28 08:06:00.296,Lband
18,42,2022-11-28 08:07:00.305,Lband
18,42,2022-11-28 08:08:00.290,Lband
18,42,2022-11-28 08:09:00.193,Lband
18,42,2022-11-28 08:10:00.345,Lband
18,42,2022-11-28 08:11:00.328,Lband
18,42,2022-11-28 08:12:00.293,Lband
18,42,2022-11-28 08:13:00.351,Lband
18,42,2022-11-28 08:14:00.307,Lband
18,42,2022-11-28 08:15:00.294,Lband
18,42,2022-11-28 08:16:00.193,Lband
18,42,2022-11-28 08:17:00.267,Lband
18,42,2022-11-28 08:18:00.292,Lband
18,42,2022-11-28 08:19:00.328,Lband
18,42,2022-11-28 08:20:00.328,Lband
18,42,2022-11-28 08:21:00.163,Lband
18,42,2022-11-28 08:22:00.332,Lband
18,42,2022-11-28 08:23:00.296,Lband
18,42,2022-11-28 08:24:00.336,Lband
18,42,2022-11-28 08:25:00.339,Lband
18,42,2022-11-28 08:26:00.295,Lband
18,42,2022-11-28 08:27:00.320,Lband
18,42,2022-11-28 08:28:00.354,Lband
18,42,2022-11-28 08:29:00.312,Lband
18,42,2022-11-28 08:30:00.353,Lband
18,42,2022-11-28 08:31:00.349,Lband
18,42,2022-11-28 08:32:00.311,Lband
18,42,2022-11-28 08:33:00.349,Lband
18,42,2022-11-28 08:34:00.291,Lband
18,42,2022-11-28 08:35:00.298,Lband
18,42,2022-11-28 08:36:00.245,Lband
18,42,2022-11-28 08:37:00.283,Lband
18,42,2022-11-28 08:38:00.251,Lband
18,42,2022-11-28 08:39:00.302,Lband
18,42,2022-11-28 08:40:00.330,Lband
18,42,2022-11-28 08:41:00.255,Lband
18,42,2022-11-28 08:42:00.341,Lband
18,42,2022-11-28 08:43:00.277,Lband
18,42,2022-11-28 08:44:00.349,Lband
18,42,2022-11-28 08:45:00.293,Lband
18,42,2022-11-28 08:46:00.274,Lband
18,42,2022-11-28 08:47:00.341,Lband
18,42,2022-11-28 08:48:00.275,Lband
18,42,2022-11-28 08:49:00.448,Lband
18,42,2022-11-28 08:50:00.273,Lband
18,42,2022-11-28 08:51:00.274,Lband
18,42,2022-11-28 08:52:00.351,Lband
18,42,2022-11-28 08:53:00.315,Lband
18,42,2022-11-28 08:54:00.344,Lband
18,42,2022-11-28 08:55:00.288,Lband
18,42,2022-11-28 08:56:00.334,Lband
18,42,2022-11-28 08:57:00.328,Lband
18,42,2022-11-28 08:58:00.247,Lband
18,42,2022-11-28 08:59:00.294,Lband
18,42,2022-11-28 09:00:00.289,Lband
18,42,2022-11-28 09:01:00.287,Lband
18,42,2022-11-28 09:02:00.164,Lband
18,42,2022-11-28 09:03:00.287,Lband
18,42,2022-11-28 09:04:00.344,Lband
18,42,2022-11-28 09:05:00.299,Lband
18,42,2022-11-28 09:06:00.297,Lband
18,42,2022-11-28 09:07:00.297,Lband
18,42,2022-11-28 09:08:00.240,Lband
18,42,2022-11-28 09:09:00.311,Lband
18,42,2022-11-28 09:10:00.283,Lband
18,42,2022-11-28 09:11:00.274,Lband
18,42,2022-11-28 09:12:00.268,Lband
18,42,2022-11-28 09:13:00.305,Lband
18,42,2022-11-28 09:14:00.259,Lband
18,42,2022-11-28 09:15:00.344,Lband
18,42,2022-11-28 09:16:00.235,Lband
18,42,2022-11-28 09:17:00.213,Lband
18,42,2022-11-28 09:18:00.301,Lband
18,42,2022-11-28 09:19:00.268,Lband
18,42,2022-11-28 09:20:00.284,Lband
18,42,2022-11-28 09:21:00.268,Lband
18,42,2022-11-28 09:22:00.283,Lband
18,42,2022-11-28 09:23:00.290,Lband
18,42,2022-11-28 09:24:00.246,Lband
18,42,2022-11-28 09:25:00.300,Lband
18,42,2022-11-28 09:26:00.349,Lband
18,42,2022-11-28 09:27:00.335,Lband
18,42,2022-11-28 09:28:00.365,Lband
18,42,2022-11-28 09:29:00.312,Lband
18,42,2022-11-28 09:30:00.295,Lband
18,42,2022-11-28 09:31:00.261,Lband
18,42,2022-11-28 09:32:00.321,Lband
18,42,2022-11-28 09:33:00.225,Lband
18,42,2022-11-28 09:34:00.265,Lband
18,42,2022-11-28 09:35:00.241,Lband
18,42,2022-11-28 09:36:00.292,Lband
17,42,2022-11-28 09:37:00.278,Lband
18,42,2022-11-28 09:38:00.234,Lband
18,42,2022-11-28 09:39:00.309,Lband
18,42,2022-11-28 09:40:00.354,Lband
18,42,2022-11-28 09:41:00.400,Lband
18,42,2022-11-28 09:42:00.309,Lband
18,42,2022-11-28 09:43:00.319,Lband
18,42,2022-11-28 09:44:00.287,Lband
18,42,2022-11-28 09:45:00.305,Lband
18,42,2022-11-28 09:46:00.358,Lband
18,42,2022-11-28 09:47:00.317,Lband
18,42,2022-11-28 09:48:00.246,Lband
18,42,2022-11-28 09:49:00.280,Lband
18,42,2022-11-28 09:50:00.304,Lband
18,42,2022-11-28 09:51:00.308,Lband
18,42,2022-11-28 09:52:00.347,Lband
18,42,2022-11-28 09:53:00.348,Lband
18,42,2022-11-28 09:54:00.322,Lband
18,42,2022-11-28 09:55:00.366,Lband
18,42,2022-11-28 09:56:00.360,Lband
18,42,2022-11-28 09:57:00.346,Lband
18,42,2022-11-28 09:58:00.351,Lband
18,42,2022-11-28 09:59:00.267,Lband
18,42,2022-11-28 10:00:00.252,Lband
18,42,2022-11-28 10:01:00.297,Lband
18,42,2022-11-28 10:02:00.358,Lband
18,42,2022-11-28 10:03:00.399,Lband
18,42,2022-11-28 10:04:00.312,Lband
18,42,2022-11-28 10:05:00.351,Lband
18,42,2022-11-28 10:06:00.285,Lband
18,42,2022-11-28 10:07:00.354,Lband
18,42,2022-11-28 10:08:00.360,Lband
18,42,2022-11-28 10:09:00.364,Lband
18,42,2022-11-28 10:10:00.307,Lband
18,42,2022-11-28 10:11:00.345,Lband
18,42,2022-11-28 10:12:00.272,Lband
18,42,2022-11-28 10:13:00.248,Lband
18,42,2022-11-28 10:14:00.303,Lband
18,42,2022-11-28 10:15:00.220,Lband
18,42,2022-11-28 10:16:00.259,Lband
18,42,2022-11-28 10:17:00.300,Lband
18,42,2022-11-28 10:18:00.305,Lband
18,42,2022-11-28 10:19:00.304,Lband
18,42,2022-11-28 10:20:00.399,Lband
18,42,2022-11-28 10:21:00.146,Lband
18,41,2022-11-28 10:22:00.251,Lband
18,42,2022-11-28 10:23:00.316,Lband
18,42,2022-11-28 10:24:00.290,Lband
18,42,2022-11-28 10:25:00.230,Lband
18,42,2022-11-28 10:26:00.344,Lband
18,41,2022-11-28 10:27:00.241,Lband
18,41,2022-11-28 10:28:00.296,Lband
18,42,2022-11-28 10:29:00.344,Lband
18,42,2022-11-28 10:30:00.262,Lband
18,42,2022-11-28 10:31:00.353,Lband
18,42,2022-11-28 10:32:00.242,Lband
18,41,2022-11-28 10:33:00.274,Lband
18,41,2022-11-28 10:34:00.453,Lband
18,41,2022-11-28 10:35:00.385,Lband
18,41,2022-11-28 10:36:00.278,Lband
18,41,2022-11-28 10:37:00.297,Lband
18,41,2022-11-28 10:38:00.273,Lband
18,41,2022-11-28 10:39:00.356,Lband
18,41,2022-11-28 10:40:00.278,Lband
18,41,2022-11-28 10:41:00.290,Lband
18,41,2022-11-28 10:42:00.286,Lband
18,41,2022-11-28 10:43:00.331,Lband
18,41,2022-11-28 10:44:00.284,Lband
18,41,2022-11-28 10:45:00.229,Lband
18,41,2022-11-28 10:46:00.217,Lband
18,42,2022-11-28 10:47:00.276,Lband
18,41,2022-11-28 10:48:00.220,Lband
18,41,2022-11-28 10:49:00.239,Lband
18,41,2022-11-28 10:50:00.278,Lband
18,41,2022-11-28 10:51:00.295,Lband
18,41,2022-11-28 10:52:00.285,Lband
18,41,2022-11-28 10:53:00.314,Lband
18,41,2022-11-28 10:54:00.326,Lband
18,41,2022-11-28 10:55:00.258,Lband
18,41,2022-11-28 10:56:00.342,Lband
18,41,2022-11-28 10:57:00.301,Lband
18,41,2022-11-28 10:58:00.386,Lband
18,42,2022-11-28 10:59:00.295,Lband
18,41,2022-11-28 11:00:00.326,Lband
18,41,2022-11-28 11:01:00.317,Lband
18,41,2022-11-28 11:02:00.322,Lband
18,42,2022-11-28 11:03:00.390,Lband
18,41,2022-11-28 11:04:00.335,Lband
18,41,2022-11-28 11:05:00.326,Lband
18,41,2022-11-28 11:06:00.277,Lband
18,41,2022-11-28 11:07:00.297,Lband
18,41,2022-11-28 11:08:00.237,Lband
18,41,2022-11-28 11:09:00.224,Lband
18,41,2022-11-28 11:10:00.290,Lband
18,41,2022-11-28 11:11:00.266,Lband
18,41,2022-11-28 11:12:00.283,Lband
18,41,2022-11-28 11:13:00.268,Lband
18,41,2022-11-28 11:14:00.334,Lband
18,41,2022-11-28 11:15:00.316,Lband
18,41,2022-11-28 11:16:00.294,Lband
18,41,2022-11-28 11:17:00.332,Lband
18,41,2022-11-28 11:18:00.281,Lband
18,41,2022-11-28 11:19:00.300,Lband
18,41,2022-11-28 11:20:00.324,Lband
18,41,2022-11-28 11:21:00.354,Lband
18,41,2022-11-28 11:22:00.305,Lband
18,41,2022-11-28 11:23:00.313,Lband
18,41,2022-11-28 11:24:00.319,Lband
18,41,2022-11-28 11:25:00.334,Lband
18,41,2022-11-28 11:26:00.331,Lband
18,42,2022-11-28 11:27:00.321,Lband
18,41,2022-11-28 11:28:00.328,Lband
18,41,2022-11-28 11:29:00.330,Lband
18,41,2022-11-28 11:30:00.373,Lband
18,42,2022-11-28 11:31:00.384,Lband
18,41,2022-11-28 11:32:00.298,Lband
18,41,2022-11-28 11:33:00.244,Lband
18,41,2022-11-28 11:34:00.332,Lband
18,41,2022-11-28 11:35:00.290,Lband
18,41,2022-11-28 11:36:00.321,Lband
18,41,2022-11-28 11:37:00.272,Lband
18,41,2022-11-28 11:38:00.273,Lband
18,41,2022-11-28 11:39:00.287,Lband
18,41,2022-11-28 11:40:00.302,Lband
18,41,2022-11-28 11:41:00.278,Lband
18,41,2022-11-28 11:42:00.334,Lband
18,41,2022-11-28 11:43:00.299,Lband
18,41,2022-11-28 11:44:00.249,Lband
18,41,2022-11-28 11:45:00.257,Lband
18,41,2022-11-28 11:46:00.296,Lband
18,41,2022-11-28 11:47:00.301,Lband
18,41,2022-11-28 11:48:00.280,Lband
18,41,2022-11-28 11:49:00.287,Lband
18,41,2022-11-28 11:50:00.352,Lband
18,41,2022-11-28 11:51:00.258,Lband
18,41,2022-11-28 11:52:00.267,Lband
18,41,2022-11-28 11:53:00.251,Lband
18,41,2022-11-28 11:54:00.316,Lband
18,41,2022-11-28 11:55:00.307,Lband
18,41,2022-11-28 11:56:00.368,Lband
18,41,2022-11-28 11:57:00.416,Lband
18,41,2022-11-28 11:58:00.254,Lband
18,41,2022-11-28 11:59:00.276,Lband
18,42,2022-11-28 12:00:00.344,Lband
18,41,2022-11-28 12:01:00.281,Lband
18,41,2022-11-28 12:02:00.284,Lband
18,41,2022-11-28 12:03:00.311,Lband
18,41,2022-11-28 12:04:00.339,Lband
18,42,2022-11-28 12:05:00.309,Lband
18,41,2022-11-28 12:06:00.315,Lband
18,41,2022-11-28 12:07:00.337,Lband
18,41,2022-11-28 12:08:00.196,Lband
18,41,2022-11-28 12:09:00.183,Lband
18,41,2022-11-28 12:10:00.243,Lband
18,41,2022-11-28 12:11:00.319,Lband
18,41,2022-11-28 12:12:00.201,Lband
18,41,2022-11-28 12:13:00.358,Lband
18,41,2022-11-28 12:14:00.288,Lband
18,41,2022-11-28 12:15:00.277,Lband
18,41,2022-11-28 12:16:00.315,Lband
18,41,2022-11-28 12:17:00.312,Lband
18,41,2022-11-28 12:18:00.263,Lband
18,41,2022-11-28 12:19:00.324,Lband
18,41,2022-11-28 12:20:00.286,Lband
18,41,2022-11-28 12:21:00.221,Lband
18,41,2022-11-28 12:22:00.314,Lband
18,42,2022-11-28 12:23:00.277,Lband
18,41,2022-11-28 12:24:00.275,Lband
18,41,2022-11-28 12:25:00.325,Lband
18,42,2022-11-28 12:26:00.336,Lband
18,41,2022-11-28 12:27:00.360,Lband
18,41,2022-11-28 12:28:00.211,Lband
18,42,2022-11-28 12:29:00.345,Lband
18,41,2022-11-28 12:30:00.337,Lband
18,42,2022-11-28 12:31:00.313,Lband
18,41,2022-11-28 12:32:00.234,Lband
18,41,2022-11-28 12:33:00.370,Lband
18,41,2022-11-28 12:34:00.340,Lband
18,41,2022-11-28 12:35:00.272,Lband
18,42,2022-11-28 12:36:00.331,Lband
18,41,2022-11-28 12:37:00.227,Lband
18,41,2022-11-28 12:38:00.258,Lband
18,41,2022-11-28 12:39:00.308,Lband
18,41,2022-11-28 12:40:00.334,Lband
18,41,2022-11-28 12:41:00.282,Lband
18,41,2022-11-28 12:42:00.309,Lband
18,41,2022-11-28 12:43:00.307,Lband
18,41,2022-11-28 12:44:00.336,Lband
18,41,2022-11-28 12:45:00.274,Lband
18,42,2022-11-28 12:46:00.300,Lband
18,41,2022-11-28 12:47:00.271,Lband
18,41,2022-11-28 12:48:00.354,Lband
18,41,2022-11-28 12:49:00.257,Lband
18,41,2022-11-28 12:50:00.293,Lband
18,41,2022-11-28 12:51:00.218,Lband
18,42,2022-11-28 12:52:00.276,Lband
18,41,2022-11-28 12:53:00.321,Lband
18,41,2022-11-28 12:54:00.248,Lband
18,41,2022-11-28 12:55:00.282,Lband
18,41,2022-11-28 12:56:00.355,Lband
18,41,2022-11-28 12:57:00.394,Lband
18,42,2022-11-28 12:58:00.312,Lband
18,41,2022-11-28 12:59:00.342,Lband
18,41,2022-11-28 13:00:00.317,Lband
18,41,2022-11-28 13:01:00.353,Lband
18,41,2022-11-28 13:02:00.220,Lband
18,41,2022-11-28 13:03:00.334,Lband
18,41,2022-11-28 13:04:00.228,Lband
18,41,2022-11-28 13:05:00.270,Lband
18,41,2022-11-28 13:06:00.312,Lband
18,42,2022-11-28 13:07:00.367,Lband
18,41,2022-11-28 13:08:00.333,Lband
18,41,2022-11-28 13:09:00.270,Lband
18,42,2022-11-28 13:10:00.262,Lband
18,41,2022-11-28 13:11:00.305,Lband
18,41,2022-11-28 13:12:00.326,Lband
18,41,2022-11-28 13:13:00.328,Lband
18,41,2022-11-28 13:14:00.255,Lband
18,41,2022-11-28 13:15:00.370,Lband
18,41,2022-11-28 13:16:00.217,Lband
18,41,2022-11-28 13:17:00.292,Lband
18,41,2022-11-28 13:18:00.234,Lband
18,42,2022-11-28 13:19:00.307,Lband
18,41,2022-11-28 13:20:00.271,Lband
18,41,2022-11-28 13:21:00.260,Lband
18,41,2022-11-28 13:22:00.236,Lband
18,41,2022-11-28 13:23:00.359,Lband
18,41,2022-11-28 13:24:00.259,Lband
18,41,2022-11-28 13:25:00.283,Lband
18,42,2022-11-28 13:26:00.216,Lband
18,41,2022-11-28 13:27:00.264,Lband
18,41,2022-11-28 13:28:00.287,Lband
18,42,2022-11-28 13:29:00.294,Lband
18,42,2022-11-28 13:30:00.251,Lband
18,41,2022-11-28 13:31:00.335,Lband
18,41,2022-11-28 13:32:00.207,Lband
18,41,2022-11-28 13:33:00.216,Lband
18,41,2022-11-28 13:34:00.264,Lband
18,41,2022-11-28 13:35:00.233,Lband
18,42,2022-11-28 13:36:00.285,Lband
18,42,2022-11-28 13:37:00.217,Lband
18,41,2022-11-28 13:38:00.277,Lband
18,41,2022-11-28 13:39:00.228,Lband
18,41,2022-11-28 13:40:00.260,Lband
18,42,2022-11-28 13:41:00.263,Lband
18,42,2022-11-28 13:42:00.235,Lband
18,42,2022-11-28 13:43:00.343,Lband
18,41,2022-11-28 13:44:00.302,Lband
18,42,2022-11-28 13:45:00.268,Lband
18,42,2022-11-28 13:46:00.231,Lband
18,42,2022-11-28 13:47:00.286,Lband
18,41,2022-11-28 13:48:00.273,Lband
18,41,2022-11-28 13:49:00.234,Lband
18,41,2022-11-28 13:50:00.274,Lband
18,41,2022-11-28 13:51:00.226,Lband
18,41,2022-11-28 13:52:00.250,Lband
18,41,2022-11-28 13:53:00.221,Lband
18,41,2022-11-28 13:54:00.222,Lband
18,41,2022-11-28 13:55:00.289,Lband
18,41,2022-11-28 13:56:00.287,Lband
18,41,2022-11-28 13:57:00.292,Lband
18,41,2022-11-28 13:58:00.306,Lband
18,41,2022-11-28 13:59:00.291,Lband
18,41,2022-11-28 14:00:00.252,Lband
18,41,2022-11-28 14:01:00.227,Lband
18,41,2022-11-28 14:02:00.277,Lband
18,41,2022-11-28 14:03:00.219,Lband
18,41,2022-11-28 14:04:00.210,Lband
18,41,2022-11-28 14:05:00.220,Lband
18,41,2022-11-28 14:06:00.239,Lband
18,41,2022-11-28 14:07:00.251,Lband
18,41,2022-11-28 14:08:00.262,Lband
18,41,2022-11-28 14:09:00.215,Lband
18,41,2022-11-28 14:10:00.220,Lband
18,41,2022-11-28 14:11:00.288,Lband
18,41,2022-11-28 14:12:00.284,Lband
18,41,2022-11-28 14:13:00.212,Lband
18,41,2022-11-28 14:14:00.219,Lband
18,41,2022-11-28 14:15:00.251,Lband
18,41,2022-11-28 14:16:00.328,Lband
18,41,2022-11-28 14:17:00.270,Lband
18,41,2022-11-28 14:18:00.385,Lband
18,41,2022-11-28 14:19:00.262,Lband
18,41,2022-11-28 14:20:00.282,Lband
18,41,2022-11-28 14:21:00.245,Lband
18,41,2022-11-28 14:22:00.253,Lband
18,41,2022-11-28 14:23:00.207,Lband
18,41,2022-11-28 14:24:00.237,Lband
18,41,2022-11-28 14:25:00.248,Lband
18,41,2022-11-28 14:26:00.251,Lband
18,41,2022-11-28 14:27:00.267,Lband
18,41,2022-11-28 14:28:00.223,Lband
18,41,2022-11-28 14:29:00.258,Lband
18,41,2022-11-28 14:30:00.243,Lband
18,41,2022-11-28 14:31:00.211,Lband
18,41,2022-11-28 14:32:00.248,Lband
18,41,2022-11-28 14:33:00.308,Lband
18,41,2022-11-28 14:34:00.260,Lband
18,41,2022-11-28 14:35:00.307,Lband
18,41,2022-11-28 14:36:00.265,Lband
18,41,2022-11-28 14:37:00.203,Lband
18,41,2022-11-28 14:38:00.215,Lband
18,41,2022-11-28 14:39:00.254,Lband
18,41,2022-11-28 14:40:00.324,Lband
18,41,2022-11-28 14:41:00.304,Lband
18,41,2022-11-28 14:42:00.251,Lband
18,41,2022-11-28 14:43:00.235,Lband
18,41,2022-11-28 14:44:00.355,Lband
18,41,2022-11-28 14:45:00.248,Lband
18,41,2022-11-28 14:46:00.265,Lband
18,41,2022-11-28 14:47:00.239,Lband
18,41,2022-11-28 14:48:00.300,Lband
18,41,2022-11-28 14:49:00.279,Lband
18,41,2022-11-28 14:50:00.259,Lband
18,41,2022-11-28 14:51:00.314,Lband
18,41,2022-11-28 14:52:00.299,Lband
18,41,2022-11-28 14:53:00.213,Lband
18,41,2022-11-28 14:54:00.207,Lband
18,41,2022-11-28 14:55:00.271,Lband
18,41,2022-11-28 14:56:00.301,Lband
18,41,2022-11-28 14:57:00.309,Lband
18,41,2022-11-28 14:58:00.257,Lband
18,41,2022-11-28 14:59:00.236,Lband
18,41,2022-11-28 15:00:00.203,Lband
18,41,2022-11-28 15:01:00.246,Lband
18,41,2022-11-28 15:02:00.255,Lband
18,41,2022-11-28 15:03:00.297,Lband
18,41,2022-11-28 15:04:00.222,Lband
18,41,2022-11-28 15:05:00.270,Lband
18,41,2022-11-28 15:06:00.169,Lband
18,41,2022-11-28 15:07:00.244,Lband
18,41,2022-11-28 15:08:00.308,Lband
18,41,2022-11-28 15:09:00.336,Lband
18,41,2022-11-28 15:10:00.212,Lband
18,41,2022-11-28 15:11:00.221,Lband
18,41,2022-11-28 15:12:00.201,Lband
18,41,2022-11-28 15:13:00.202,Lband
18,41,2022-11-28 15:14:00.259,Lband
18,41,2022-11-28 15:15:00.234,Lband
18,41,2022-11-28 15:16:00.254,Lband
18,41,2022-11-28 15:17:00.282,Lband
18,41,2022-11-28 15:18:00.229,Lband
18,41,2022-11-28 15:19:00.240,Lband
18,41,2022-11-28 15:20:00.164,Lband
18,41,2022-11-28 15:21:00.264,Lband
18,41,2022-11-28 15:22:00.248,Lband
18,41,2022-11-28 15:23:00.225,Lband
18,41,2022-11-28 15:24:00.175,Lband
18,41,2022-11-28 15:25:00.261,Lband
18,41,2022-11-28 15:26:00.242,Lband
18,41,2022-11-28 15:27:00.299,Lband
18,41,2022-11-28 15:28:00.233,Lband
18,41,2022-11-28 15:29:00.228,Lband
18,41,2022-11-28 15:30:00.269,Lband
18,41,2022-11-28 15:31:00.308,Lband
18,41,2022-11-28 15:32:00.270,Lband
18,41,2022-11-28 15:33:00.303,Lband
18,41,2022-11-28 15:34:00.297,Lband
18,41,2022-11-28 15:35:00.219,Lband
18,41,2022-11-28 15:36:00.250,Lband
18,41,2022-11-28 15:37:00.328,Lband
18,41,2022-11-28 15:38:00.245,Lband
18,41,2022-11-28 15:39:00.330,Lband
18,41,2022-11-28 15:40:00.253,Lband
18,41,2022-11-28 15:41:00.253,Lband
18,41,2022-11-28 15:42:00.216,Lband
18,41,2022-11-28 15:43:00.351,Lband
18,41,2022-11-28 15:44:00.249,Lband
18,41,2022-11-28 15:45:00.225,Lband
18,41,2022-11-28 15:46:00.155,Lband
18,41,2022-11-28 15:47:00.187,Lband
18,41,2022-11-28 15:48:00.222,Lband
18,41,2022-11-28 15:49:00.295,Lband
18,41,2022-11-28 15:50:00.228,Lband
18,41,2022-11-28 15:51:00.292,Lband
18,41,2022-11-28 15:52:00.176,Lband
18,41,2022-11-28 15:53:00.243,Lband
18,41,2022-11-28 15:54:00.278,Lband
18,41,2022-11-28 15:55:00.299,Lband
18,41,2022-11-28 15:56:00.299,Lband
18,41,2022-11-28 15:57:00.173,Lband
18,41,2022-11-28 15:58:00.335,Lband
18,41,2022-11-28 15:59:00.148,Lband
18,41,2022-11-28 16:00:00.217,Lband
18,41,2022-11-28 16:01:00.242,Lband
18,41,2022-11-28 16:02:00.304,Lband
18,41,2022-11-28 16:03:00.202,Lband
18,41,2022-11-28 16:04:00.259,Lband
18,41,2022-11-28 16:05:00.227,Lband
18,41,2022-11-28 16:06:00.210,Lband
18,41,2022-11-28 16:07:00.261,Lband
18,41,2022-11-28 16:08:00.224,Lband
18,41,2022-11-28 16:09:00.207,Lband
18,41,2022-11-28 16:10:00.240,Lband
18,41,2022-11-28 16:11:00.264,Lband
18,41,2022-11-28 16:12:00.258,Lband
18,41,2022-11-28 16:13:00.197,Lband
18,41,2022-11-28 16:14:00.256,Lband
18,41,2022-11-28 16:15:00.302,Lband
18,41,2022-11-28 16:16:00.183,Lband
18,41,2022-11-28 16:17:00.284,Lband
18,41,2022-11-28 16:18:00.305,Lband
18,41,2022-11-28 16:19:00.231,Lband
18,41,2022-11-28 16:20:00.256,Lband
18,41,2022-11-28 16:21:00.307,Lband
18,41,2022-11-28 16:22:00.156,Lband
18,41,2022-11-28 16:23:00.232,Lband
18,41,2022-11-28 16:24:00.200,Lband
18,41,2022-11-28 16:25:00.248,Lband
18,41,2022-11-28 16:26:00.284,Lband
18,41,2022-11-28 16:27:00.315,Lband
18,41,2022-11-28 16:28:00.281,Lband
18,41,2022-11-28 16:29:00.264,Lband
18,41,2022-11-28 16:30:00.288,Lband
18,41,2022-11-28 16:31:00.239,Lband
18,41,2022-11-28 16:32:00.281,Lband
18,41,2022-11-28 16:33:00.227,Lband
18,41,2022-11-28 16:34:00.264,Lband
18,41,2022-11-28 16:35:00.302,Lband
18,41,2022-11-28 16:36:00.240,Lband
18,41,2022-11-28 16:37:00.267,Lband
18,41,2022-11-28 16:38:00.164,Lband
18,41,2022-11-28 16:39:00.155,Lband
18,41,2022-11-28 16:40:00.192,Lband
18,41,2022-11-28 16:41:00.259,Lband
18,41,2022-11-28 16:42:00.243,Lband
18,41,2022-11-28 16:43:00.244,Lband
18,41,2022-11-28 16:44:00.290,Lband
18,41,2022-11-28 16:45:00.282,Lband
18,41,2022-11-28 16:46:00.242,Lband
18,41,2022-11-28 16:47:00.233,Lband
18,41,2022-11-28 16:48:00.302,Lband
18,41,2022-11-28 16:49:00.214,Lband
18,41,2022-11-28 16:50:00.297,Lband
18,41,2022-11-28 16:51:00.247,Lband
18,41,2022-11-28 16:52:00.286,Lband
18,41,2022-11-28 16:53:00.223,Lband
18,41,2022-11-28 16:54:00.230,Lband
18,41,2022-11-28 16:55:00.262,Lband
18,41,2022-11-28 16:56:00.235,Lband
18,41,2022-11-28 16:57:00.325,Lband
18,41,2022-11-28 16:58:00.310,Lband
18,41,2022-11-28 16:59:00.410,Lband
18,41,2022-11-28 17:00:00.298,Lband
18,41,2022-11-28 17:01:00.259,Lband
18,41,2022-11-28 17:02:00.297,Lband
18,41,2022-11-28 17:03:00.281,Lband
18,41,2022-11-28 17:04:00.317,Lband
18,41,2022-11-28 17:05:00.240,Lband
18,41,2022-11-28 17:06:00.243,Lband
18,41,2022-11-28 17:07:00.262,Lband
18,41,2022-11-28 17:08:00.300,Lband
18,41,2022-11-28 17:09:00.197,Lband
18,41,2022-11-28 17:10:00.245,Lband
18,41,2022-11-28 17:11:00.193,Lband
18,41,2022-11-28 17:12:00.288,Lband
18,41,2022-11-28 17:13:00.216,Lband
18,41,2022-11-28 17:14:00.231,Lband
18,41,2022-11-28 17:15:00.194,Lband
18,41,2022-11-28 17:16:00.255,Lband
18,41,2022-11-28 17:17:00.281,Lband
18,41,2022-11-28 17:18:00.304,Lband
18,41,2022-11-28 17:19:00.288,Lband
18,41,2022-11-28 17:20:00.234,Lband
18,41,2022-11-28 17:21:00.251,Lband
18,41,2022-11-28 17:22:00.293,Lband
18,41,2022-11-28 17:23:00.250,Lband
18,41,2022-11-28 17:24:00.239,Lband
18,41,2022-11-28 17:25:00.261,Lband
18,41,2022-11-28 17:26:00.338,Lband
18,41,2022-11-28 17:27:00.291,Lband
18,41,2022-11-28 17:28:00.220,Lband
18,41,2022-11-28 17:29:00.251,Lband
18,41,2022-11-28 17:30:00.220,Lband
18,41,2022-11-28 17:31:00.239,Lband
18,41,2022-11-28 17:32:00.257,Lband
18,41,2022-11-28 17:33:00.208,Lband
18,41,2022-11-28 17:34:00.259,Lband
18,41,2022-11-28 17:35:00.220,Lband
18,41,2022-11-28 17:36:00.190,Lband
18,41,2022-11-28 17:37:00.243,Lband
18,41,2022-11-28 17:38:00.310,Lband
18,41,2022-11-28 17:39:00.247,Lband
18,41,2022-11-28 17:40:00.253,Lband
18,41,2022-11-28 17:41:00.236,Lband
18,41,2022-11-28 17:42:00.265,Lband
18,41,2022-11-28 17:43:00.245,Lband
18,41,2022-11-28 17:44:00.292,Lband
18,41,2022-11-28 17:45:00.270,Lband
18,40,2022-11-28 17:46:00.242,Lband
18,40,2022-11-28 17:47:00.253,Lband
18,40,2022-11-28 17:48:00.214,Lband
18,40,2022-11-28 17:49:00.242,Lband
18,40,2022-11-28 17:50:00.297,Lband
18,41,2022-11-28 17:51:00.233,Lband
18,41,2022-11-28 17:52:00.238,Lband
18,41,2022-11-28 17:53:00.295,Lband
18,41,2022-11-28 17:54:00.235,Lband
18,41,2022-11-28 17:55:00.295,Lband
18,41,2022-11-28 17:56:00.251,Lband
18,41,2022-11-28 17:57:00.252,Lband
18,41,2022-11-28 17:58:00.302,Lband
18,41,2022-11-28 17:59:00.166,Lband
18,41,2022-11-28 18:00:00.263,Lband
18,41,2022-11-28 18:01:00.156,Lband
18,41,2022-11-28 18:02:00.348,Lband
18,41,2022-11-28 18:03:00.233,Lband
18,41,2022-11-28 18:04:00.274,Lband
18,41,2022-11-28 18:05:00.309,Lband
18,41,2022-11-28 18:06:00.300,Lband
18,41,2022-11-28 18:07:00.258,Lband
18,41,2022-11-28 18:08:00.262,Lband
18,41,2022-11-28 18:09:00.293,Lband
18,41,2022-11-28 18:10:00.302,Lband
18,41,2022-11-28 18:11:00.301,Lband
18,41,2022-11-28 18:12:00.240,Lband
18,41,2022-11-28 18:13:00.258,Lband
18,41,2022-11-28 18:14:00.227,Lband
18,41,2022-11-28 18:15:00.303,Lband
18,41,2022-11-28 18:16:00.291,Lband
18,41,2022-11-28 18:17:00.201,Lband
18,41,2022-11-28 18:18:00.246,Lband
18,41,2022-11-28 18:19:00.291,Lband
18,41,2022-11-28 18:20:00.259,Lband
18,41,2022-11-28 18:21:00.297,Lband
18,41,2022-11-28 18:22:00.286,Lband
18,41,2022-11-28 18:23:00.238,Lband
18,41,2022-11-28 18:24:00.273,Lband
18,41,2022-11-28 18:25:00.312,Lband
18,41,2022-11-28 18:26:00.243,Lband
18,41,2022-11-28 18:27:00.293,Lband
18,41,2022-11-28 18:28:00.292,Lband
18,41,2022-11-28 18:29:00.246,Lband
18,41,2022-11-28 18:30:00.242,Lband
18,41,2022-11-28 18:31:00.284,Lband
18,41,2022-11-28 18:32:00.300,Lband
18,41,2022-11-28 18:33:00.224,Lband
18,41,2022-11-28 18:34:00.299,Lband
18,41,2022-11-28 18:35:00.276,Lband
18,41,2022-11-28 18:36:00.298,Lband
18,41,2022-11-28 18:37:00.288,Lband
18,41,2022-11-28 18:38:00.261,Lband
18,41,2022-11-28 18:39:00.215,Lband
18,41,2022-11-28 18:40:00.315,Lband
18,41,2022-11-28 18:41:00.298,Lband
18,41,2022-11-28 18:42:00.217,Lband
18,41,2022-11-28 18:43:00.318,Lband
18,41,2022-11-28 18:44:00.230,Lband
18,41,2022-11-28 18:45:00.214,Lband
18,41,2022-11-28 18:46:00.231,Lband
18,41,2022-11-28 18:47:00.293,Lband
18,41,2022-11-28 18:48:00.196,Lband
18,41,2022-11-28 18:49:00.234,Lband
18,41,2022-11-28 18:50:00.257,Lband
18,41,2022-11-28 18:51:00.278,Lband
18,41,2022-11-28 18:52:00.220,Lband
18,41,2022-11-28 18:53:00.280,Lband
18,41,2022-11-28 18:54:00.294,Lband
18,41,2022-11-28 18:55:00.311,Lband
18,41,2022-11-28 18:56:00.277,Lband
18,41,2022-11-28 18:57:00.239,Lband
18,41,2022-11-28 18:58:00.250,Lband
18,41,2022-11-28 18:59:00.227,Lband
18,41,2022-11-28 19:00:00.294,Lband
18,41,2022-11-28 19:01:00.280,Lband
18,41,2022-11-28 19:02:00.279,Lband
18,41,2022-11-28 19:03:00.241,Lband
18,41,2022-11-28 19:04:00.256,Lband
18,41,2022-11-28 19:05:00.283,Lband
18,41,2022-11-28 19:06:00.307,Lband
18,41,2022-11-28 19:07:00.276,Lband
18,41,2022-11-28 19:08:00.197,Lband
18,41,2022-11-28 19:09:00.291,Lband
18,41,2022-11-28 19:10:00.230,Lband
18,41,2022-11-28 19:11:00.244,Lband
18,41,2022-11-28 19:12:00.313,Lband
18,41,2022-11-28 19:13:00.294,Lband
18,41,2022-11-28 19:14:00.297,Lband
18,41,2022-11-28 19:15:00.249,Lband
18,41,2022-11-28 19:16:00.306,Lband
18,41,2022-11-28 19:17:00.240,Lband
18,41,2022-11-28 19:18:00.228,Lband
18,41,2022-11-28 19:19:00.218,Lband
18,41,2022-11-28 19:20:00.212,Lband
18,41,2022-11-28 19:21:00.165,Lband
18,41,2022-11-28 19:22:00.262,Lband
18,41,2022-11-28 19:23:00.299,Lband
18,41,2022-11-28 19:24:00.247,Lband
18,41,2022-11-28 19:25:00.356,Lband
18,41,2022-11-28 19:26:00.238,Lband
18,41,2022-11-28 19:27:00.280,Lband
18,41,2022-11-28 19:28:00.299,Lband
18,41,2022-11-28 19:29:00.277,Lband
18,41,2022-11-28 19:30:00.301,Lband
18,41,2022-11-28 19:31:00.254,Lband
18,41,2022-11-28 19:32:00.268,Lband
18,41,2022-11-28 19:33:00.256,Lband
18,41,2022-11-28 19:34:00.308,Lband
18,41,2022-11-28 19:35:00.277,Lband
18,41,2022-11-28 19:36:00.225,Lband
18,41,2022-11-28 19:37:00.207,Lband
18,41,2022-11-28 19:38:00.250,Lband
18,42,2022-11-28 19:39:00.226,Lband
18,42,2022-11-28 19:40:00.189,Lband
18,42,2022-11-28 19:41:00.291,Lband
18,42,2022-11-28 19:42:00.213,Lband
18,42,2022-11-28 19:43:00.196,Lband
18,42,2022-11-28 19:44:00.247,Lband
18,42,2022-11-28 19:45:00.273,Lband
18,42,2022-11-28 19:46:00.201,Lband
18,41,2022-11-28 19:47:00.180,Lband
18,42,2022-11-28 19:48:00.258,Lband
18,41,2022-11-28 19:49:00.251,Lband
18,41,2022-11-28 19:50:00.209,Lband
18,41,2022-11-28 19:51:00.296,Lband
18,41,2022-11-28 19:52:00.208,Lband
18,41,2022-11-28 19:53:00.318,Lband
18,41,2022-11-28 19:54:00.310,Lband
18,41,2022-11-28 19:55:00.160,Lband
18,42,2022-11-28 19:56:00.274,Lband
18,41,2022-11-28 19:57:00.300,Lband
18,41,2022-11-28 19:58:00.230,Lband
18,42,2022-11-28 19:59:00.298,Lband
18,42,2022-11-28 20:00:00.280,Lband
18,42,2022-11-28 20:01:00.305,Lband
18,42,2022-11-28 20:02:00.250,Lband
18,42,2022-11-28 20:03:00.259,Lband
18,41,2022-11-28 20:04:00.166,Lband
18,41,2022-11-28 20:05:00.246,Lband
18,41,2022-11-28 20:06:00.234,Lband
18,41,2022-11-28 20:07:00.200,Lband
18,41,2022-11-28 20:08:00.218,Lband
18,41,2022-11-28 20:09:00.288,Lband
18,41,2022-11-28 20:10:00.302,Lband
18,41,2022-11-28 20:11:00.285,Lband
18,41,2022-11-28 20:12:00.252,Lband
18,42,2022-11-28 20:13:00.294,Lband
18,42,2022-11-28 20:14:00.244,Lband
18,42,2022-11-28 20:15:00.244,Lband
18,42,2022-11-28 20:16:00.254,Lband
17,42,2022-11-28 20:17:00.283,Lband
18,41,2022-11-28 20:18:00.162,Lband
18,42,2022-11-28 20:19:00.229,Lband
18,42,2022-11-28 20:20:00.216,Lband
18,42,2022-11-28 20:21:00.240,Lband
18,42,2022-11-28 20:22:00.217,Lband
18,42,2022-11-28 20:23:00.259,Lband
18,42,2022-11-28 20:24:00.290,Lband
18,42,2022-11-28 20:25:00.272,Lband
18,41,2022-11-28 20:26:00.247,Lband
18,42,2022-11-28 20:27:00.304,Lband
18,42,2022-11-28 20:28:00.241,Lband
18,41,2022-11-28 20:29:00.270,Lband
18,41,2022-11-28 20:30:00.293,Lband
18,41,2022-11-28 20:31:00.277,Lband
18,42,2022-11-28 20:32:00.195,Lband
18,42,2022-11-28 20:33:00.244,Lband
18,42,2022-11-28 20:34:00.232,Lband
17,42,2022-11-28 20:35:00.183,Lband
18,42,2022-11-28 20:36:00.260,Lband
18,41,2022-11-28 20:37:00.245,Lband
18,42,2022-11-28 20:38:00.294,Lband
18,42,2022-11-28 20:39:00.232,Lband
17,42,2022-11-28 20:40:00.225,Lband
18,42,2022-11-28 20:41:00.261,Lband
18,42,2022-11-28 20:42:00.240,Lband
18,41,2022-11-28 20:43:00.223,Lband
18,42,2022-11-28 20:44:00.274,Lband
18,41,2022-11-28 20:45:00.149,Lband
18,42,2022-11-28 20:46:00.247,Lband
18,42,2022-11-28 20:47:00.269,Lband
18,42,2022-11-28 20:48:00.292,Lband
18,42,2022-11-28 20:49:00.200,Lband
18,42,2022-11-28 20:50:00.242,Lband
17,42,2022-11-28 20:51:00.407,Lband
18,42,2022-11-28 20:52:00.213,Lband
18,42,2022-11-28 20:53:00.301,Lband
18,41,2022-11-28 20:54:00.295,Lband
18,42,2022-11-28 20:55:00.313,Lband
18,42,2022-11-28 20:56:00.217,Lband
18,42,2022-11-28 20:57:00.250,Lband
18,42,2022-11-28 20:58:00.214,Lband
18,42,2022-11-28 20:59:00.293,Lband
18,42,2022-11-28 21:00:00.177,Lband
18,42,2022-11-28 21:01:00.208,Lband
18,42,2022-11-28 21:02:00.258,Lband
18,42,2022-11-28 21:03:00.228,Lband
18,42,2022-11-28 21:04:00.278,Lband
18,42,2022-11-28 21:05:00.250,Lband
18,42,2022-11-28 21:06:00.237,Lband
18,42,2022-11-28 21:07:00.272,Lband
18,42,2022-11-28 21:08:00.191,Lband
18,42,2022-11-28 21:09:00.253,Lband
18,42,2022-11-28 21:10:00.173,Lband
18,42,2022-11-28 21:11:00.227,Lband
18,42,2022-11-28 21:12:00.218,Lband
18,42,2022-11-28 21:13:00.254,Lband
18,42,2022-11-28 21:14:00.180,Lband
18,42,2022-11-28 21:15:00.196,Lband
18,42,2022-11-28 21:16:00.252,Lband
18,42,2022-11-28 21:17:00.299,Lband
18,42,2022-11-28 21:18:00.328,Lband
18,42,2022-11-28 21:19:00.245,Lband
18,42,2022-11-28 21:20:00.230,Lband
18,42,2022-11-28 21:21:00.234,Lband
18,42,2022-11-28 21:22:00.244,Lband
18,42,2022-11-28 21:23:00.257,Lband
18,42,2022-11-28 21:24:00.294,Lband
18,42,2022-11-28 21:25:00.234,Lband
18,42,2022-11-28 21:26:00.254,Lband
18,42,2022-11-28 21:27:00.251,Lband
18,42,2022-11-28 21:28:00.200,Lband
18,42,2022-11-28 21:29:00.234,Lband
18,42,2022-11-28 21:30:00.249,Lband
18,42,2022-11-28 21:31:00.235,Lband
18,42,2022-11-28 21:32:00.214,Lband
18,42,2022-11-28 21:33:00.268,Lband
18,42,2022-11-28 21:34:00.285,Lband
18,42,2022-11-28 21:35:00.264,Lband
18,42,2022-11-28 21:36:00.260,Lband
18,42,2022-11-28 21:37:00.230,Lband
18,42,2022-11-28 21:38:00.285,Lband
18,42,2022-11-28 21:39:00.277,Lband
18,42,2022-11-28 21:40:00.244,Lband
18,42,2022-11-28 21:41:00.182,Lband
18,42,2022-11-28 21:42:00.248,Lband
18,42,2022-11-28 21:43:00.222,Lband
18,42,2022-11-28 21:44:00.268,Lband
18,42,2022-11-28 21:45:00.315,Lband
18,42,2022-11-28 21:46:00.269,Lband
18,42,2022-11-28 21:47:00.345,Lband
18,42,2022-11-28 21:48:00.261,Lband
18,42,2022-11-28 21:49:00.308,Lband
18,42,2022-11-28 21:50:00.235,Lband
18,42,2022-11-28 21:51:00.241,Lband
18,42,2022-11-28 21:52:00.291,Lband
18,42,2022-11-28 21:53:00.173,Lband
18,42,2022-11-28 21:54:00.235,Lband
18,42,2022-11-28 21:55:00.208,Lband
18,42,2022-11-28 21:56:00.256,Lband
18,42,2022-11-28 21:57:00.216,Lband
18,42,2022-11-28 21:58:00.209,Lband
18,42,2022-11-28 21:59:00.282,Lband
18,42,2022-11-28 22:00:00.235,Lband
18,42,2022-11-28 22:01:00.245,Lband
18,42,2022-11-28 22:02:00.310,Lband
18,42,2022-11-28 22:03:00.255,Lband
18,42,2022-11-28 22:04:00.238,Lband
18,42,2022-11-28 22:05:00.197,Lband
18,42,2022-11-28 22:06:00.244,Lband
18,42,2022-11-28 22:07:00.241,Lband
18,42,2022-11-28 22:08:00.248,Lband
18,42,2022-11-28 22:09:00.255,Lband
18,42,2022-11-28 22:10:00.283,Lband
18,42,2022-11-28 22:11:00.250,Lband
18,42,2022-11-28 22:12:00.291,Lband
18,42,2022-11-28 22:13:00.196,Lband
18,42,2022-11-28 22:14:00.288,Lband
18,42,2022-11-28 22:15:00.179,Lband
18,42,2022-11-28 22:16:00.402,Lband
18,42,2022-11-28 22:17:00.292,Lband
18,42,2022-11-28 22:18:00.284,Lband
18,42,2022-11-28 22:19:00.303,Lband
18,42,2022-11-28 22:20:00.218,Lband
18,42,2022-11-28 22:21:00.311,Lband
18,42,2022-11-28 22:22:00.244,Lband
18,42,2022-11-28 22:23:00.205,Lband
18,42,2022-11-28 22:24:00.203,Lband
18,42,2022-11-28 22:25:00.247,Lband
18,42,2022-11-28 22:26:00.214,Lband
18,42,2022-11-28 22:27:00.275,Lband
18,42,2022-11-28 22:28:00.258,Lband
18,42,2022-11-28 22:29:00.285,Lband
18,42,2022-11-28 22:30:00.202,Lband
18,42,2022-11-28 22:31:00.234,Lband
18,42,2022-11-28 22:32:00.260,Lband
18,42,2022-11-28 22:33:00.244,Lband
18,42,2022-11-28 22:34:00.294,Lband
18,42,2022-11-28 22:35:00.257,Lband
18,42,2022-11-28 22:36:00.286,Lband
18,42,2022-11-28 22:37:00.245,Lband
18,42,2022-11-28 22:38:00.277,Lband
18,42,2022-11-28 22:39:00.297,Lband
18,42,2022-11-28 22:40:00.195,Lband
18,42,2022-11-28 22:41:00.299,Lband
18,42,2022-11-28 22:42:00.279,Lband
18,42,2022-11-28 22:43:00.306,Lband
18,42,2022-11-28 22:44:00.238,Lband
18,42,2022-11-28 22:45:00.292,Lband
18,42,2022-11-28 22:46:00.279,Lband
18,42,2022-11-28 22:47:00.182,Lband
18,42,2022-11-28 22:48:00.178,Lband
18,42,2022-11-28 22:49:00.360,Lband
18,42,2022-11-28 22:50:00.295,Lband
18,42,2022-11-28 22:51:00.249,Lband
18,42,2022-11-28 22:52:00.315,Lband
18,42,2022-11-28 22:53:00.237,Lband
18,42,2022-11-28 22:54:00.210,Lband
18,42,2022-11-28 22:55:00.307,Lband
18,42,2022-11-28 22:56:00.273,Lband
18,42,2022-11-28 22:57:00.270,Lband
18,42,2022-11-28 22:58:00.360,Lband
18,42,2022-11-28 22:59:00.311,Lband
18,41,2022-11-28 23:00:00.252,Lband
18,42,2022-11-28 23:01:00.222,Lband
18,42,2022-11-28 23:02:00.256,Lband
18,42,2022-11-28 23:03:00.238,Lband
18,42,2022-11-28 23:04:00.287,Lband
18,42,2022-11-28 23:05:00.278,Lband
18,42,2022-11-28 23:06:00.204,Lband
18,41,2022-11-28 23:07:00.250,Lband
18,42,2022-11-28 23:08:00.273,Lband
18,41,2022-11-28 23:09:00.159,Lband
18,41,2022-11-28 23:10:00.247,Lband
18,42,2022-11-28 23:11:00.249,Lband
18,42,2022-11-28 23:12:00.241,Lband
18,41,2022-11-28 23:13:00.283,Lband
18,42,2022-11-28 23:14:00.393,Lband
18,42,2022-11-28 23:15:00.193,Lband
18,42,2022-11-28 23:16:00.306,Lband
18,42,2022-11-28 23:17:00.244,Lband
18,41,2022-11-28 23:18:00.269,Lband
18,42,2022-11-28 23:19:00.301,Lband
18,42,2022-11-28 23:20:00.290,Lband
18,42,2022-11-28 23:21:00.232,Lband
18,41,2022-11-28 23:22:00.243,Lband
18,41,2022-11-28 23:23:00.216,Lband
18,42,2022-11-28 23:24:00.299,Lband
18,41,2022-11-28 23:25:00.236,Lband
18,42,2022-11-28 23:26:00.146,Lband
18,41,2022-11-28 23:27:00.307,Lband
18,41,2022-11-28 23:28:00.236,Lband
18,42,2022-11-28 23:29:00.215,Lband
18,42,2022-11-28 23:30:00.359,Lband
18,42,2022-11-28 23:31:00.295,Lband
18,42,2022-11-28 23:32:00.283,Lband
18,41,2022-11-28 23:33:00.244,Lband
18,41,2022-11-28 23:34:00.287,Lband
18,41,2022-11-28 23:35:00.263,Lband
18,41,2022-11-28 23:36:00.221,Lband
18,42,2022-11-28 23:37:00.272,Lband
18,42,2022-11-28 23:38:00.246,Lband
18,42,2022-11-28 23:39:00.210,Lband
18,42,2022-11-28 23:40:00.292,Lband
18,41,2022-11-28 23:41:00.233,Lband
18,41,2022-11-28 23:42:00.298,Lband
18,42,2022-11-28 23:43:00.324,Lband
18,42,2022-11-28 23:44:00.283,Lband
18,42,2022-11-28 23:45:00.309,Lband
18,42,2022-11-28 23:46:00.216,Lband
18,42,2022-11-28 23:47:00.259,Lband
18,42,2022-11-28 23:48:00.279,Lband
18,42,2022-11-28 23:49:00.301,Lband
18,42,2022-11-28 23:50:00.244,Lband
18,42,2022-11-28 23:51:00.263,Lband
18,42,2022-11-28 23:52:00.287,Lband
18,42,2022-11-28 23:53:00.215,Lband
18,42,2022-11-28 23:54:00.283,Lband
18,42,2022-11-28 23:55:00.318,Lband
18,42,2022-11-28 23:56:00.202,Lband
18,42,2022-11-28 23:57:00.212,Lband
18,42,2022-11-28 23:58:00.311,Lband
18,42,2022-11-28 23:59:00.214,Lband
