T15,T70,date,sensorName
16,43,2023-01-11 00:00:00.239,Lband
17,42,2023-01-11 00:01:00.308,Lband
16,43,2023-01-11 00:02:00.295,Lband
16,43,2023-01-11 00:03:00.226,Lband
17,43,2023-01-11 00:04:00.299,Lband
16,42,2023-01-11 00:05:00.251,Lband
16,43,2023-01-11 00:06:00.270,Lband
17,43,2023-01-11 00:07:00.185,Lband
17,43,2023-01-11 00:08:00.306,Lband
17,42,2023-01-11 00:09:00.297,Lband
16,43,2023-01-11 00:10:00.268,Lband
17,43,2023-01-11 00:11:00.252,Lband
17,43,2023-01-11 00:12:00.208,Lband
17,42,2023-01-11 00:13:00.297,Lband
16,42,2023-01-11 00:14:00.265,Lband
17,42,2023-01-11 00:15:00.201,Lband
17,42,2023-01-11 00:16:00.325,Lband
17,43,2023-01-11 00:17:00.307,Lband
17,42,2023-01-11 00:18:00.253,Lband
16,42,2023-01-11 00:19:00.207,Lband
16,42,2023-01-11 00:20:00.239,Lband
17,42,2023-01-11 00:21:00.261,Lband
16,42,2023-01-11 00:22:00.249,Lband
17,42,2023-01-11 00:23:00.252,Lband
17,42,2023-01-11 00:24:00.306,Lband
17,42,2023-01-11 00:25:00.229,Lband
17,42,2023-01-11 00:26:00.308,Lband
17,42,2023-01-11 00:27:00.251,Lband
16,42,2023-01-11 00:28:00.193,Lband
16,42,2023-01-11 00:29:00.254,Lband
16,42,2023-01-11 00:30:00.291,Lband
16,42,2023-01-11 00:31:00.167,Lband
16,43,2023-01-11 00:32:00.310,Lband
16,42,2023-01-11 00:33:00.229,Lband
17,42,2023-01-11 00:34:00.323,Lband
17,42,2023-01-11 00:35:00.246,Lband
17,42,2023-01-11 00:36:00.291,Lband
17,43,2023-01-11 00:37:00.203,Lband
16,42,2023-01-11 00:38:00.198,Lband
16,42,2023-01-11 00:39:00.241,Lband
16,42,2023-01-11 00:40:00.293,Lband
16,42,2023-01-11 00:41:00.241,Lband
16,42,2023-01-11 00:42:00.292,Lband
16,43,2023-01-11 00:43:00.240,Lband
16,42,2023-01-11 00:44:00.270,Lband
16,42,2023-01-11 00:45:00.265,Lband
16,42,2023-01-11 00:46:00.234,Lband
16,43,2023-01-11 00:47:00.250,Lband
16,42,2023-01-11 00:48:00.246,Lband
16,42,2023-01-11 00:49:00.307,Lband
16,42,2023-01-11 00:50:00.191,Lband
16,42,2023-01-11 00:51:00.272,Lband
16,42,2023-01-11 00:52:00.297,Lband
16,42,2023-01-11 00:53:00.242,Lband
16,42,2023-01-11 00:54:00.252,Lband
16,42,2023-01-11 00:55:00.219,Lband
16,42,2023-01-11 00:56:00.300,Lband
16,42,2023-01-11 00:57:00.163,Lband
16,42,2023-01-11 00:58:00.251,Lband
16,42,2023-01-11 00:59:00.303,Lband
16,42,2023-01-11 01:00:00.247,Lband
16,42,2023-01-11 01:01:00.207,Lband
16,42,2023-01-11 01:02:00.330,Lband
16,42,2023-01-11 01:03:00.210,Lband
16,42,2023-01-11 01:04:00.314,Lband
16,42,2023-01-11 01:05:00.206,Lband
16,42,2023-01-11 01:06:00.295,Lband
16,42,2023-01-11 01:07:00.264,Lband
16,42,2023-01-11 01:08:00.367,Lband
16,42,2023-01-11 01:09:00.198,Lband
16,42,2023-01-11 01:10:00.247,Lband
16,42,2023-01-11 01:11:00.254,Lband
17,42,2023-01-11 01:12:00.295,Lband
16,42,2023-01-11 01:13:00.294,Lband
16,42,2023-01-11 01:14:00.231,Lband
16,42,2023-01-11 01:15:00.309,Lband
16,43,2023-01-11 01:16:00.301,Lband
16,42,2023-01-11 01:17:00.304,Lband
16,43,2023-01-11 01:18:00.299,Lband
16,42,2023-01-11 01:19:00.248,Lband
16,42,2023-01-11 01:20:00.186,Lband
16,42,2023-01-11 01:21:00.431,Lband
16,42,2023-01-11 01:22:00.254,Lband
16,42,2023-01-11 01:23:00.262,Lband
16,42,2023-01-11 01:24:00.189,Lband
16,42,2023-01-11 01:25:00.348,Lband
16,42,2023-01-11 01:26:00.245,Lband
16,42,2023-01-11 01:27:00.313,Lband
16,42,2023-01-11 01:28:00.181,Lband
16,42,2023-01-11 01:29:00.252,Lband
16,42,2023-01-11 01:30:00.208,Lband
16,42,2023-01-11 01:31:00.308,Lband
16,42,2023-01-11 01:32:00.206,Lband
16,42,2023-01-11 01:33:00.298,Lband
16,42,2023-01-11 01:34:00.281,Lband
16,42,2023-01-11 01:35:00.308,Lband
16,42,2023-01-11 01:36:00.249,Lband
16,42,2023-01-11 01:37:00.313,Lband
16,42,2023-01-11 01:38:00.185,Lband
16,42,2023-01-11 01:39:00.280,Lband
16,42,2023-01-11 01:40:00.208,Lband
16,42,2023-01-11 01:41:00.199,Lband
16,42,2023-01-11 01:42:00.250,Lband
16,42,2023-01-11 01:43:00.260,Lband
16,42,2023-01-11 01:44:00.252,Lband
16,42,2023-01-11 01:45:00.250,Lband
16,42,2023-01-11 01:46:00.237,Lband
16,42,2023-01-11 01:47:00.290,Lband
16,42,2023-01-11 01:48:00.234,Lband
16,42,2023-01-11 01:49:00.216,Lband
16,42,2023-01-11 01:50:00.283,Lband
16,42,2023-01-11 01:51:00.207,Lband
16,42,2023-01-11 01:52:00.277,Lband
16,42,2023-01-11 01:53:00.252,Lband
16,42,2023-01-11 01:54:00.323,Lband
16,42,2023-01-11 01:55:00.301,Lband
16,42,2023-01-11 01:56:00.233,Lband
16,42,2023-01-11 01:57:00.299,Lband
16,42,2023-01-11 01:58:00.258,Lband
16,42,2023-01-11 01:59:00.262,Lband
16,42,2023-01-11 02:00:00.191,Lband
16,42,2023-01-11 02:01:00.250,Lband
16,42,2023-01-11 02:02:00.226,Lband
16,42,2023-01-11 02:03:00.258,Lband
16,42,2023-01-11 02:04:00.290,Lband
16,42,2023-01-11 02:05:00.257,Lband
16,42,2023-01-11 02:06:00.255,Lband
16,42,2023-01-11 02:07:00.212,Lband
16,42,2023-01-11 02:08:00.242,Lband
16,42,2023-01-11 02:09:00.260,Lband
16,42,2023-01-11 02:10:00.187,Lband
16,42,2023-01-11 02:11:00.315,Lband
16,42,2023-01-11 02:12:00.307,Lband
16,42,2023-01-11 02:13:00.244,Lband
16,42,2023-01-11 02:14:00.254,Lband
16,42,2023-01-11 02:15:00.261,Lband
16,42,2023-01-11 02:16:00.258,Lband
16,42,2023-01-11 02:17:00.298,Lband
16,42,2023-01-11 02:18:00.275,Lband
16,42,2023-01-11 02:19:00.205,Lband
16,42,2023-01-11 02:20:00.345,Lband
16,42,2023-01-11 02:21:00.181,Lband
16,42,2023-01-11 02:22:00.199,Lband
16,42,2023-01-11 02:23:00.242,Lband
16,42,2023-01-11 02:24:00.303,Lband
16,42,2023-01-11 02:25:00.196,Lband
16,42,2023-01-11 02:26:00.262,Lband
16,42,2023-01-11 02:27:00.229,Lband
16,42,2023-01-11 02:28:00.243,Lband
16,42,2023-01-11 02:29:00.262,Lband
16,42,2023-01-11 02:30:00.256,Lband
16,42,2023-01-11 02:31:00.259,Lband
16,42,2023-01-11 02:32:00.204,Lband
16,42,2023-01-11 02:33:00.314,Lband
16,42,2023-01-11 02:34:00.215,Lband
16,42,2023-01-11 02:35:00.234,Lband
16,42,2023-01-11 02:36:00.208,Lband
16,42,2023-01-11 02:37:00.295,Lband
16,42,2023-01-11 02:38:00.248,Lband
16,42,2023-01-11 02:39:00.201,Lband
16,42,2023-01-11 02:40:00.217,Lband
16,42,2023-01-11 02:41:00.240,Lband
16,42,2023-01-11 02:42:00.280,Lband
16,42,2023-01-11 02:43:00.210,Lband
16,42,2023-01-11 02:44:00.297,Lband
16,42,2023-01-11 02:45:00.250,Lband
16,42,2023-01-11 02:46:00.300,Lband
16,42,2023-01-11 02:47:00.175,Lband
16,42,2023-01-11 02:48:00.257,Lband
16,42,2023-01-11 02:49:00.313,Lband
16,42,2023-01-11 02:50:00.189,Lband
16,42,2023-01-11 02:51:00.208,Lband
16,42,2023-01-11 02:52:00.199,Lband
16,42,2023-01-11 02:53:00.314,Lband
16,42,2023-01-11 02:54:00.192,Lband
16,42,2023-01-11 02:55:00.278,Lband
16,42,2023-01-11 02:56:00.250,Lband
16,42,2023-01-11 02:57:00.319,Lband
16,42,2023-01-11 02:58:00.262,Lband
16,42,2023-01-11 02:59:00.193,Lband
16,42,2023-01-11 03:00:00.252,Lband
16,42,2023-01-11 03:01:00.256,Lband
16,42,2023-01-11 03:02:00.171,Lband
16,42,2023-01-11 03:03:00.297,Lband
16,42,2023-01-11 03:04:00.251,Lband
16,42,2023-01-11 03:05:00.253,Lband
16,42,2023-01-11 03:06:00.252,Lband
16,42,2023-01-11 03:07:00.285,Lband
16,42,2023-01-11 03:08:00.242,Lband
16,42,2023-01-11 03:09:00.296,Lband
16,42,2023-01-11 03:10:00.202,Lband
16,42,2023-01-11 03:11:00.187,Lband
16,42,2023-01-11 03:12:00.289,Lband
16,42,2023-01-11 03:13:00.274,Lband
16,42,2023-01-11 03:14:00.252,Lband
16,42,2023-01-11 03:15:00.260,Lband
16,42,2023-01-11 03:16:00.304,Lband
16,42,2023-01-11 03:17:00.197,Lband
16,42,2023-01-11 03:18:00.243,Lband
16,42,2023-01-11 03:19:00.467,Lband
16,42,2023-01-11 03:20:00.243,Lband
16,42,2023-01-11 03:21:00.251,Lband
16,42,2023-01-11 03:22:00.233,Lband
16,42,2023-01-11 03:23:00.262,Lband
16,42,2023-01-11 03:24:00.319,Lband
16,42,2023-01-11 03:25:00.217,Lband
16,42,2023-01-11 03:26:00.216,Lband
16,42,2023-01-11 03:27:00.255,Lband
16,42,2023-01-11 03:28:00.247,Lband
16,42,2023-01-11 03:29:00.259,Lband
16,42,2023-01-11 03:30:00.224,Lband
16,42,2023-01-11 03:31:00.223,Lband
16,42,2023-01-11 03:32:00.259,Lband
16,42,2023-01-11 03:33:00.244,Lband
16,42,2023-01-11 03:34:00.305,Lband
16,42,2023-01-11 03:35:00.283,Lband
16,42,2023-01-11 03:36:00.268,Lband
16,42,2023-01-11 03:37:00.195,Lband
16,42,2023-01-11 03:38:00.255,Lband
16,42,2023-01-11 03:39:00.236,Lband
16,42,2023-01-11 03:40:00.205,Lband
16,42,2023-01-11 03:41:00.254,Lband
16,42,2023-01-11 03:42:00.242,Lband
16,42,2023-01-11 03:43:00.283,Lband
16,42,2023-01-11 03:44:00.268,Lband
16,42,2023-01-11 03:45:00.239,Lband
16,42,2023-01-11 03:46:00.251,Lband
16,42,2023-01-11 03:47:00.291,Lband
16,42,2023-01-11 03:48:00.355,Lband
16,42,2023-01-11 03:49:00.281,Lband
16,42,2023-01-11 03:50:00.315,Lband
16,42,2023-01-11 03:51:00.256,Lband
16,42,2023-01-11 03:52:00.219,Lband
16,42,2023-01-11 03:53:00.195,Lband
16,42,2023-01-11 03:54:00.364,Lband
16,42,2023-01-11 03:55:00.211,Lband
16,42,2023-01-11 03:56:00.309,Lband
16,42,2023-01-11 03:57:00.236,Lband
16,42,2023-01-11 03:58:00.301,Lband
16,42,2023-01-11 03:59:00.254,Lband
16,42,2023-01-11 04:00:00.298,Lband
16,42,2023-01-11 04:01:00.203,Lband
16,42,2023-01-11 04:02:00.238,Lband
16,42,2023-01-11 04:03:00.195,Lband
16,42,2023-01-11 04:04:00.292,Lband
16,42,2023-01-11 04:05:00.260,Lband
16,42,2023-01-11 04:06:00.354,Lband
16,42,2023-01-11 04:07:00.211,Lband
16,42,2023-01-11 04:08:00.265,Lband
16,42,2023-01-11 04:09:00.255,Lband
16,42,2023-01-11 04:10:00.241,Lband
16,42,2023-01-11 04:11:00.297,Lband
16,42,2023-01-11 04:12:00.261,Lband
16,42,2023-01-11 04:13:00.230,Lband
16,42,2023-01-11 04:14:00.208,Lband
16,42,2023-01-11 04:15:00.311,Lband
16,42,2023-01-11 04:16:00.196,Lband
16,42,2023-01-11 04:17:00.344,Lband
16,42,2023-01-11 04:18:00.200,Lband
16,42,2023-01-11 04:19:00.299,Lband
16,42,2023-01-11 04:20:00.194,Lband
16,42,2023-01-11 04:21:00.276,Lband
16,42,2023-01-11 04:22:00.282,Lband
16,42,2023-01-11 04:23:00.199,Lband
16,42,2023-01-11 04:24:00.252,Lband
16,42,2023-01-11 04:25:00.304,Lband
16,42,2023-01-11 04:26:00.194,Lband
16,42,2023-01-11 04:27:00.229,Lband
16,42,2023-01-11 04:28:00.209,Lband
16,42,2023-01-11 04:29:00.279,Lband
16,42,2023-01-11 04:30:00.260,Lband
16,42,2023-01-11 04:31:00.297,Lband
16,42,2023-01-11 04:32:00.212,Lband
16,42,2023-01-11 04:33:00.260,Lband
16,42,2023-01-11 04:34:00.236,Lband
16,42,2023-01-11 04:35:00.221,Lband
16,42,2023-01-11 04:36:00.243,Lband
16,42,2023-01-11 04:37:00.261,Lband
16,42,2023-01-11 04:38:00.246,Lband
16,42,2023-01-11 04:39:00.253,Lband
16,42,2023-01-11 04:40:00.237,Lband
16,42,2023-01-11 04:41:00.253,Lband
16,42,2023-01-11 04:42:00.240,Lband
16,42,2023-01-11 04:43:00.253,Lband
16,42,2023-01-11 04:44:00.302,Lband
16,42,2023-01-11 04:45:00.218,Lband
16,42,2023-01-11 04:46:00.330,Lband
16,42,2023-01-11 04:47:00.224,Lband
16,42,2023-01-11 04:48:00.212,Lband
16,42,2023-01-11 04:49:00.284,Lband
16,42,2023-01-11 04:50:00.262,Lband
16,42,2023-01-11 04:51:00.224,Lband
16,42,2023-01-11 04:52:00.315,Lband
16,42,2023-01-11 04:53:00.237,Lband
16,42,2023-01-11 04:54:00.179,Lband
16,42,2023-01-11 04:55:00.270,Lband
16,42,2023-01-11 04:56:00.255,Lband
16,42,2023-01-11 04:57:00.184,Lband
16,42,2023-01-11 04:58:00.254,Lband
16,42,2023-01-11 04:59:00.243,Lband
16,42,2023-01-11 05:00:00.273,Lband
16,42,2023-01-11 05:01:00.312,Lband
16,42,2023-01-11 05:02:00.200,Lband
16,42,2023-01-11 05:03:00.250,Lband
16,42,2023-01-11 05:04:00.266,Lband
16,42,2023-01-11 05:05:00.200,Lband
16,42,2023-01-11 05:06:00.297,Lband
16,42,2023-01-11 05:07:00.216,Lband
16,42,2023-01-11 05:08:00.200,Lband
16,42,2023-01-11 05:09:00.212,Lband
16,42,2023-01-11 05:10:00.252,Lband
16,42,2023-01-11 05:11:00.300,Lband
16,42,2023-01-11 05:12:00.307,Lband
16,42,2023-01-11 05:13:00.353,Lband
16,42,2023-01-11 05:14:00.219,Lband
16,42,2023-01-11 05:15:00.244,Lband
16,42,2023-01-11 05:16:00.356,Lband
16,42,2023-01-11 05:17:00.258,Lband
16,42,2023-01-11 05:18:00.291,Lband
16,42,2023-01-11 05:19:00.260,Lband
16,42,2023-01-11 05:20:00.226,Lband
16,42,2023-01-11 05:21:00.299,Lband
16,42,2023-01-11 05:22:00.216,Lband
16,42,2023-01-11 05:23:00.184,Lband
16,42,2023-01-11 05:24:00.254,Lband
16,42,2023-01-11 05:25:00.214,Lband
16,42,2023-01-11 05:26:00.255,Lband
16,42,2023-01-11 05:27:00.306,Lband
16,42,2023-01-11 05:28:00.276,Lband
16,42,2023-01-11 05:29:00.251,Lband
16,42,2023-01-11 05:30:00.309,Lband
16,42,2023-01-11 05:31:00.217,Lband
16,42,2023-01-11 05:32:00.258,Lband
16,42,2023-01-11 05:33:00.190,Lband
16,42,2023-01-11 05:34:00.302,Lband
16,42,2023-01-11 05:35:00.243,Lband
16,42,2023-01-11 05:36:00.265,Lband
16,42,2023-01-11 05:37:00.257,Lband
16,42,2023-01-11 05:38:00.239,Lband
16,42,2023-01-11 05:39:00.244,Lband
16,42,2023-01-11 05:40:00.316,Lband
16,42,2023-01-11 05:41:00.208,Lband
16,42,2023-01-11 05:42:00.308,Lband
16,42,2023-01-11 05:43:00.225,Lband
16,42,2023-01-11 05:44:00.309,Lband
16,42,2023-01-11 05:45:00.239,Lband
16,42,2023-01-11 05:46:00.228,Lband
16,42,2023-01-11 05:47:00.243,Lband
16,42,2023-01-11 05:48:00.309,Lband
16,42,2023-01-11 05:49:00.219,Lband
16,42,2023-01-11 05:50:00.264,Lband
16,42,2023-01-11 05:51:00.284,Lband
16,42,2023-01-11 05:52:00.297,Lband
16,42,2023-01-11 05:53:00.236,Lband
16,42,2023-01-11 05:54:00.264,Lband
16,42,2023-01-11 05:55:00.279,Lband
16,42,2023-01-11 05:56:00.298,Lband
16,42,2023-01-11 05:57:00.201,Lband
16,42,2023-01-11 05:58:00.308,Lband
16,42,2023-01-11 05:59:00.247,Lband
16,42,2023-01-11 06:00:00.276,Lband
16,42,2023-01-11 06:01:00.253,Lband
16,42,2023-01-11 06:02:00.199,Lband
16,42,2023-01-11 06:03:00.212,Lband
16,42,2023-01-11 06:04:00.253,Lband
16,42,2023-01-11 06:05:00.310,Lband
16,42,2023-01-11 06:06:00.243,Lband
16,42,2023-01-11 06:07:00.237,Lband
16,42,2023-01-11 06:08:00.313,Lband
16,42,2023-01-11 06:09:00.254,Lband
16,42,2023-01-11 06:10:00.230,Lband
16,42,2023-01-11 06:11:00.299,Lband
16,42,2023-01-11 06:12:00.184,Lband
16,42,2023-01-11 06:13:00.230,Lband
16,42,2023-01-11 06:14:00.239,Lband
16,42,2023-01-11 06:15:00.342,Lband
16,42,2023-01-11 06:16:00.306,Lband
16,42,2023-01-11 06:17:00.221,Lband
16,42,2023-01-11 06:18:00.293,Lband
16,42,2023-01-11 06:19:00.243,Lband
16,42,2023-01-11 06:20:00.296,Lband
16,42,2023-01-11 06:21:00.234,Lband
16,42,2023-01-11 06:22:00.301,Lband
16,42,2023-01-11 06:23:00.251,Lband
16,42,2023-01-11 06:24:00.275,Lband
16,42,2023-01-11 06:25:00.287,Lband
16,42,2023-01-11 06:26:00.202,Lband
16,42,2023-01-11 06:27:00.283,Lband
16,42,2023-01-11 06:28:00.304,Lband
16,42,2023-01-11 06:29:00.216,Lband
16,42,2023-01-11 06:30:00.237,Lband
16,42,2023-01-11 06:31:00.292,Lband
16,42,2023-01-11 06:32:00.306,Lband
16,42,2023-01-11 06:33:00.211,Lband
16,42,2023-01-11 06:34:00.261,Lband
16,42,2023-01-11 06:35:00.187,Lband
16,42,2023-01-11 06:36:00.227,Lband
16,42,2023-01-11 06:37:00.306,Lband
16,42,2023-01-11 06:38:00.230,Lband
16,42,2023-01-11 06:39:00.246,Lband
16,42,2023-01-11 06:40:00.291,Lband
16,42,2023-01-11 06:41:00.252,Lband
16,42,2023-01-11 06:42:00.272,Lband
16,42,2023-01-11 06:43:00.248,Lband
16,42,2023-01-11 06:44:00.176,Lband
16,42,2023-01-11 06:45:00.353,Lband
16,42,2023-01-11 06:46:00.244,Lband
16,42,2023-01-11 06:47:00.297,Lband
16,42,2023-01-11 06:48:00.253,Lband
16,42,2023-01-11 06:49:00.272,Lband
16,42,2023-01-11 06:50:00.314,Lband
16,42,2023-01-11 06:51:00.164,Lband
16,42,2023-01-11 06:52:00.255,Lband
16,42,2023-01-11 06:53:00.248,Lband
16,42,2023-01-11 06:54:00.180,Lband
16,42,2023-01-11 06:55:00.199,Lband
16,42,2023-01-11 06:56:00.255,Lband
16,42,2023-01-11 06:57:00.220,Lband
16,42,2023-01-11 06:58:00.308,Lband
16,42,2023-01-11 06:59:00.196,Lband
16,42,2023-01-11 07:00:00.303,Lband
16,42,2023-01-11 07:01:00.251,Lband
16,42,2023-01-11 07:02:00.221,Lband
16,42,2023-01-11 07:03:00.237,Lband
16,42,2023-01-11 07:04:00.203,Lband
16,42,2023-01-11 07:05:00.213,Lband
16,42,2023-01-11 07:06:00.246,Lband
16,42,2023-01-11 07:07:00.270,Lband
16,42,2023-01-11 07:08:00.255,Lband
16,42,2023-01-11 07:09:00.316,Lband
16,42,2023-01-11 07:10:00.261,Lband
16,42,2023-01-11 07:11:00.208,Lband
16,42,2023-01-11 07:12:00.277,Lband
16,42,2023-01-11 07:13:00.175,Lband
16,42,2023-01-11 07:14:00.206,Lband
16,42,2023-01-11 07:15:00.448,Lband
16,42,2023-01-11 07:16:00.265,Lband
16,42,2023-01-11 07:17:00.258,Lband
16,42,2023-01-11 07:18:00.138,Lband
16,42,2023-01-11 07:19:00.293,Lband
16,42,2023-01-11 07:20:00.250,Lband
16,42,2023-01-11 07:21:00.198,Lband
16,42,2023-01-11 07:22:00.243,Lband
16,42,2023-01-11 07:23:00.300,Lband
16,42,2023-01-11 07:24:00.304,Lband
16,42,2023-01-11 07:25:00.324,Lband
16,42,2023-01-11 07:26:00.249,Lband
16,42,2023-01-11 07:27:00.183,Lband
16,42,2023-01-11 07:28:00.239,Lband
16,42,2023-01-11 07:29:00.239,Lband
16,42,2023-01-11 07:30:00.235,Lband
16,42,2023-01-11 07:31:00.303,Lband
16,42,2023-01-11 07:32:00.226,Lband
16,42,2023-01-11 07:33:00.317,Lband
16,42,2023-01-11 07:34:00.188,Lband
16,42,2023-01-11 07:35:00.302,Lband
16,42,2023-01-11 07:36:00.257,Lband
16,42,2023-01-11 07:37:00.226,Lband
16,42,2023-01-11 07:38:00.194,Lband
16,42,2023-01-11 07:39:00.311,Lband
16,42,2023-01-11 07:40:00.201,Lband
16,42,2023-01-11 07:41:00.320,Lband
16,42,2023-01-11 07:42:00.300,Lband
16,42,2023-01-11 07:43:00.259,Lband
16,42,2023-01-11 07:44:00.347,Lband
16,42,2023-01-11 07:45:00.355,Lband
16,42,2023-01-11 07:46:00.251,Lband
16,42,2023-01-11 07:47:00.186,Lband
16,42,2023-01-11 07:48:00.244,Lband
16,42,2023-01-11 07:49:00.232,Lband
16,42,2023-01-11 07:50:00.262,Lband
16,42,2023-01-11 07:51:00.315,Lband
16,42,2023-01-11 07:52:00.288,Lband
16,42,2023-01-11 07:53:00.233,Lband
16,42,2023-01-11 07:54:00.272,Lband
16,42,2023-01-11 07:55:00.232,Lband
16,42,2023-01-11 07:56:00.252,Lband
16,42,2023-01-11 07:57:00.249,Lband
16,42,2023-01-11 07:58:00.312,Lband
16,42,2023-01-11 07:59:00.193,Lband
16,42,2023-01-11 08:00:00.292,Lband
16,42,2023-01-11 08:01:00.249,Lband
16,42,2023-01-11 08:02:00.240,Lband
16,42,2023-01-11 08:03:00.246,Lband
16,42,2023-01-11 08:04:00.223,Lband
16,42,2023-01-11 08:05:00.288,Lband
16,42,2023-01-11 08:06:00.200,Lband
16,42,2023-01-11 08:07:00.304,Lband
16,42,2023-01-11 08:08:00.263,Lband
16,42,2023-01-11 08:09:00.180,Lband
16,42,2023-01-11 08:10:00.208,Lband
16,42,2023-01-11 08:11:00.199,Lband
16,42,2023-01-11 08:12:00.311,Lband
16,42,2023-01-11 08:13:00.262,Lband
16,42,2023-01-11 08:14:00.200,Lband
16,42,2023-01-11 08:15:00.248,Lband
16,42,2023-01-11 08:16:00.247,Lband
16,42,2023-01-11 08:17:00.302,Lband
16,42,2023-01-11 08:18:00.251,Lband
16,42,2023-01-11 08:19:00.239,Lband
16,42,2023-01-11 08:20:00.258,Lband
16,42,2023-01-11 08:21:00.248,Lband
16,42,2023-01-11 08:22:00.232,Lband
16,42,2023-01-11 08:23:00.241,Lband
16,42,2023-01-11 08:24:00.253,Lband
16,42,2023-01-11 08:25:00.196,Lband
16,42,2023-01-11 08:26:00.235,Lband
16,42,2023-01-11 08:27:00.250,Lband
16,42,2023-01-11 08:28:00.303,Lband
16,42,2023-01-11 08:29:00.291,Lband
16,42,2023-01-11 08:30:00.223,Lband
16,42,2023-01-11 08:31:00.294,Lband
16,42,2023-01-11 08:32:00.203,Lband
16,42,2023-01-11 08:33:00.218,Lband
16,42,2023-01-11 08:34:00.189,Lband
16,42,2023-01-11 08:35:00.267,Lband
16,42,2023-01-11 08:36:00.264,Lband
16,42,2023-01-11 08:37:00.289,Lband
16,42,2023-01-11 08:38:00.227,Lband
16,42,2023-01-11 08:39:00.299,Lband
16,42,2023-01-11 08:40:00.253,Lband
16,42,2023-01-11 08:41:00.401,Lband
16,42,2023-01-11 08:42:00.223,Lband
16,42,2023-01-11 08:43:00.296,Lband
16,42,2023-01-11 08:44:00.244,Lband
16,42,2023-01-11 08:45:00.242,Lband
16,42,2023-01-11 08:46:00.224,Lband
16,42,2023-01-11 08:47:00.296,Lband
16,42,2023-01-11 08:48:00.264,Lband
16,42,2023-01-11 08:49:00.312,Lband
16,42,2023-01-11 08:50:00.191,Lband
16,42,2023-01-11 08:51:00.304,Lband
16,42,2023-01-11 08:52:00.200,Lband
16,42,2023-01-11 08:53:00.274,Lband
16,42,2023-01-11 08:54:00.305,Lband
16,43,2023-01-11 08:55:00.188,Lband
16,42,2023-01-11 08:56:00.262,Lband
16,42,2023-01-11 08:57:00.259,Lband
16,43,2023-01-11 08:58:00.290,Lband
16,43,2023-01-11 08:59:00.295,Lband
16,42,2023-01-11 09:00:00.224,Lband
16,43,2023-01-11 09:01:00.257,Lband
16,43,2023-01-11 09:02:00.253,Lband
16,43,2023-01-11 09:03:00.241,Lband
16,43,2023-01-11 09:04:00.228,Lband
16,43,2023-01-11 09:05:00.281,Lband
16,43,2023-01-11 09:06:00.296,Lband
16,43,2023-01-11 09:07:00.248,Lband
17,43,2023-01-11 09:08:00.237,Lband
17,43,2023-01-11 09:09:00.248,Lband
16,43,2023-01-11 09:10:00.156,Lband
16,43,2023-01-11 09:11:00.170,Lband
17,43,2023-01-11 09:12:00.400,Lband
17,43,2023-01-11 09:13:00.220,Lband
17,43,2023-01-11 09:14:00.234,Lband
16,43,2023-01-11 09:15:00.212,Lband
17,43,2023-01-11 09:16:00.304,Lband
17,43,2023-01-11 09:17:00.244,Lband
17,43,2023-01-11 09:18:00.305,Lband
17,43,2023-01-11 09:19:00.265,Lband
17,43,2023-01-11 09:20:00.296,Lband
17,43,2023-01-11 09:21:00.257,Lband
17,43,2023-01-11 09:22:00.301,Lband
17,43,2023-01-11 09:23:00.210,Lband
17,43,2023-01-11 09:24:00.297,Lband
17,43,2023-01-11 09:25:00.311,Lband
17,43,2023-01-11 09:26:00.293,Lband
17,43,2023-01-11 09:27:00.300,Lband
17,43,2023-01-11 09:28:00.182,Lband
17,43,2023-01-11 09:29:00.176,Lband
17,43,2023-01-11 09:30:00.284,Lband
17,43,2023-01-11 09:31:00.259,Lband
17,43,2023-01-11 09:32:00.280,Lband
17,43,2023-01-11 09:33:00.288,Lband
17,43,2023-01-11 09:34:00.311,Lband
17,43,2023-01-11 09:35:00.262,Lband
17,43,2023-01-11 09:36:00.307,Lband
17,43,2023-01-11 09:37:00.230,Lband
17,43,2023-01-11 09:38:00.317,Lband
17,43,2023-01-11 09:39:00.310,Lband
17,43,2023-01-11 09:40:00.248,Lband
17,43,2023-01-11 09:41:00.318,Lband
17,43,2023-01-11 09:42:00.311,Lband
17,43,2023-01-11 09:43:00.184,Lband
17,43,2023-01-11 09:44:00.302,Lband
17,43,2023-01-11 09:45:00.243,Lband
17,43,2023-01-11 09:46:00.308,Lband
17,43,2023-01-11 09:47:00.274,Lband
17,43,2023-01-11 09:48:00.235,Lband
17,43,2023-01-11 09:49:00.314,Lband
17,43,2023-01-11 09:50:00.210,Lband
17,43,2023-01-11 09:51:00.309,Lband
17,43,2023-01-11 09:52:00.239,Lband
17,43,2023-01-11 09:53:00.200,Lband
17,43,2023-01-11 09:54:00.290,Lband
17,43,2023-01-11 09:55:00.314,Lband
17,43,2023-01-11 09:56:00.255,Lband
17,43,2023-01-11 09:57:00.219,Lband
17,43,2023-01-11 09:58:00.222,Lband
17,44,2023-01-11 09:59:00.261,Lband
17,44,2023-01-11 10:00:00.303,Lband
17,44,2023-01-11 10:01:00.236,Lband
17,43,2023-01-11 10:02:00.199,Lband
17,44,2023-01-11 10:03:00.241,Lband
17,43,2023-01-11 10:04:00.256,Lband
17,44,2023-01-11 10:05:00.239,Lband
17,44,2023-01-11 10:06:00.225,Lband
17,44,2023-01-11 10:07:00.231,Lband
17,44,2023-01-11 10:08:00.186,Lband
17,44,2023-01-11 10:09:00.305,Lband
17,44,2023-01-11 10:10:00.269,Lband
17,44,2023-01-11 10:11:00.253,Lband
17,44,2023-01-11 10:12:00.326,Lband
17,44,2023-01-11 10:13:00.311,Lband
17,44,2023-01-11 10:14:00.244,Lband
17,44,2023-01-11 10:15:00.292,Lband
17,44,2023-01-11 10:16:00.280,Lband
17,44,2023-01-11 10:17:00.314,Lband
17,44,2023-01-11 10:18:00.164,Lband
17,44,2023-01-11 10:19:00.268,Lband
17,44,2023-01-11 10:20:00.253,Lband
17,44,2023-01-11 10:21:00.336,Lband
17,44,2023-01-11 10:22:00.263,Lband
17,44,2023-01-11 10:23:00.289,Lband
17,44,2023-01-11 10:24:00.308,Lband
17,44,2023-01-11 10:25:00.243,Lband
17,44,2023-01-11 10:26:00.201,Lband
17,44,2023-01-11 10:27:00.295,Lband
18,44,2023-01-11 10:28:00.294,Lband
17,44,2023-01-11 10:29:00.183,Lband
18,44,2023-01-11 10:30:00.205,Lband
17,44,2023-01-11 10:31:00.264,Lband
18,44,2023-01-11 10:32:00.241,Lband
17,44,2023-01-11 10:33:00.257,Lband
18,44,2023-01-11 10:34:00.183,Lband
18,44,2023-01-11 10:35:00.262,Lband
18,44,2023-01-11 10:36:00.297,Lband
18,44,2023-01-11 10:37:00.254,Lband
18,44,2023-01-11 10:38:00.237,Lband
18,44,2023-01-11 10:39:00.286,Lband
18,44,2023-01-11 10:40:00.258,Lband
18,44,2023-01-11 10:41:00.259,Lband
18,44,2023-01-11 10:42:00.203,Lband
18,44,2023-01-11 10:43:00.248,Lband
18,44,2023-01-11 10:44:00.253,Lband
18,44,2023-01-11 10:45:00.305,Lband
18,44,2023-01-11 10:46:00.195,Lband
18,44,2023-01-11 10:47:00.307,Lband
18,44,2023-01-11 10:48:00.235,Lband
18,44,2023-01-11 10:49:00.197,Lband
18,44,2023-01-11 10:50:00.197,Lband
18,44,2023-01-11 10:51:00.243,Lband
18,44,2023-01-11 10:52:00.293,Lband
18,44,2023-01-11 10:53:00.307,Lband
18,44,2023-01-11 10:54:00.288,Lband
18,44,2023-01-11 10:55:00.244,Lband
18,44,2023-01-11 10:56:00.260,Lband
18,44,2023-01-11 10:57:00.250,Lband
18,44,2023-01-11 10:58:00.298,Lband
18,44,2023-01-11 10:59:00.312,Lband
18,44,2023-01-11 11:00:00.210,Lband
18,44,2023-01-11 11:01:00.313,Lband
18,44,2023-01-11 11:02:00.285,Lband
18,44,2023-01-11 11:03:00.304,Lband
18,44,2023-01-11 11:04:00.307,Lband
18,44,2023-01-11 11:05:00.218,Lband
18,44,2023-01-11 11:06:00.311,Lband
18,44,2023-01-11 11:07:00.252,Lband
18,44,2023-01-11 11:08:00.268,Lband
18,44,2023-01-11 11:09:00.251,Lband
18,44,2023-01-11 11:10:00.269,Lband
18,44,2023-01-11 11:11:00.277,Lband
18,44,2023-01-11 11:12:00.307,Lband
18,44,2023-01-11 11:13:00.201,Lband
18,44,2023-01-11 11:14:00.227,Lband
18,44,2023-01-11 11:15:00.304,Lband
18,44,2023-01-11 11:16:00.369,Lband
18,44,2023-01-11 11:17:00.299,Lband
18,44,2023-01-11 11:18:00.245,Lband
18,44,2023-01-11 11:19:00.229,Lband
18,44,2023-01-11 11:20:00.191,Lband
18,44,2023-01-11 11:21:00.297,Lband
18,44,2023-01-11 11:22:00.231,Lband
18,44,2023-01-11 11:23:00.243,Lband
18,44,2023-01-11 11:24:00.253,Lband
18,44,2023-01-11 11:25:00.261,Lband
18,44,2023-01-11 11:26:00.238,Lband
17,44,2023-01-11 11:27:00.236,Lband
18,44,2023-01-11 11:28:00.259,Lband
18,44,2023-01-11 11:29:00.300,Lband
18,44,2023-01-11 11:30:00.200,Lband
18,44,2023-01-11 11:31:00.312,Lband
18,44,2023-01-11 11:32:00.232,Lband
18,44,2023-01-11 11:33:00.254,Lband
18,44,2023-01-11 11:34:00.254,Lband
18,44,2023-01-11 11:35:00.274,Lband
18,44,2023-01-11 11:36:00.231,Lband
18,44,2023-01-11 11:37:00.307,Lband
18,44,2023-01-11 11:38:00.293,Lband
18,44,2023-01-11 11:39:00.250,Lband
18,44,2023-01-11 11:40:00.290,Lband
18,44,2023-01-11 11:41:00.223,Lband
18,44,2023-01-11 11:42:00.179,Lband
18,44,2023-01-11 11:43:00.399,Lband
17,43,2023-01-11 11:44:00.282,Lband
18,43,2023-01-11 11:45:00.259,Lband
18,44,2023-01-11 11:46:00.310,Lband
18,43,2023-01-11 11:47:00.274,Lband
18,43,2023-01-11 11:48:00.248,Lband
18,43,2023-01-11 11:49:00.261,Lband
18,44,2023-01-11 11:50:00.307,Lband
18,44,2023-01-11 11:51:00.311,Lband
18,44,2023-01-11 11:52:00.300,Lband
18,43,2023-01-11 11:53:00.249,Lband
18,43,2023-01-11 11:54:00.286,Lband
18,43,2023-01-11 11:55:00.302,Lband
18,43,2023-01-11 11:56:00.216,Lband
18,43,2023-01-11 11:57:00.278,Lband
18,43,2023-01-11 11:58:00.299,Lband
18,43,2023-01-11 11:59:00.279,Lband
18,43,2023-01-11 12:00:00.206,Lband
18,43,2023-01-11 12:01:00.260,Lband
18,43,2023-01-11 12:02:00.221,Lband
17,43,2023-01-11 12:03:00.268,Lband
18,43,2023-01-11 12:04:00.282,Lband
18,43,2023-01-11 12:05:00.247,Lband
18,43,2023-01-11 12:06:00.308,Lband
18,43,2023-01-11 12:07:00.241,Lband
18,43,2023-01-11 12:08:00.237,Lband
18,43,2023-01-11 12:09:00.244,Lband
18,43,2023-01-11 12:10:00.307,Lband
18,43,2023-01-11 12:11:00.251,Lband
18,43,2023-01-11 12:12:00.212,Lband
18,43,2023-01-11 12:13:00.251,Lband
18,43,2023-01-11 12:14:00.287,Lband
18,43,2023-01-11 12:15:00.235,Lband
18,43,2023-01-11 12:16:00.357,Lband
18,43,2023-01-11 12:17:00.234,Lband
18,43,2023-01-11 12:18:00.299,Lband
18,43,2023-01-11 12:19:00.238,Lband
17,43,2023-01-11 12:20:00.303,Lband
18,43,2023-01-11 12:21:00.261,Lband
18,43,2023-01-11 12:22:00.203,Lband
18,43,2023-01-11 12:23:00.153,Lband
18,43,2023-01-11 12:24:00.300,Lband
18,43,2023-01-11 12:25:00.245,Lband
18,43,2023-01-11 12:26:00.240,Lband
18,43,2023-01-11 12:27:00.227,Lband
18,43,2023-01-11 12:28:00.257,Lband
18,43,2023-01-11 12:29:00.302,Lband
18,43,2023-01-11 12:30:00.241,Lband
18,43,2023-01-11 12:31:00.245,Lband
18,43,2023-01-11 12:32:00.197,Lband
18,43,2023-01-11 12:33:00.288,Lband
18,43,2023-01-11 12:34:00.294,Lband
18,43,2023-01-11 12:35:00.359,Lband
18,43,2023-01-11 12:36:00.315,Lband
18,43,2023-01-11 12:37:00.219,Lband
18,43,2023-01-11 12:38:00.260,Lband
18,43,2023-01-11 12:39:00.336,Lband
18,43,2023-01-11 12:40:00.227,Lband
18,43,2023-01-11 12:41:00.204,Lband
18,43,2023-01-11 12:42:00.285,Lband
18,43,2023-01-11 12:43:00.242,Lband
18,43,2023-01-11 12:44:00.366,Lband
18,43,2023-01-11 12:45:00.303,Lband
18,43,2023-01-11 12:46:00.287,Lband
18,43,2023-01-11 12:47:00.232,Lband
18,43,2023-01-11 12:48:00.304,Lband
18,43,2023-01-11 12:49:00.293,Lband
18,43,2023-01-11 12:50:00.210,Lband
18,43,2023-01-11 12:51:00.237,Lband
18,43,2023-01-11 12:52:00.259,Lband
18,43,2023-01-11 12:53:00.193,Lband
18,43,2023-01-11 12:54:00.198,Lband
18,43,2023-01-11 12:55:00.230,Lband
18,43,2023-01-11 12:56:00.315,Lband
18,43,2023-01-11 12:57:00.305,Lband
18,43,2023-01-11 12:58:00.258,Lband
18,43,2023-01-11 12:59:00.239,Lband
18,43,2023-01-11 13:00:00.238,Lband
18,43,2023-01-11 13:01:00.242,Lband
18,43,2023-01-11 13:02:00.289,Lband
18,43,2023-01-11 13:03:00.192,Lband
18,43,2023-01-11 13:04:00.264,Lband
18,43,2023-01-11 13:05:00.318,Lband
18,43,2023-01-11 13:06:00.251,Lband
17,43,2023-01-11 13:07:00.240,Lband
18,42,2023-01-11 13:08:00.297,Lband
18,43,2023-01-11 13:09:00.271,Lband
18,42,2023-01-11 13:10:00.254,Lband
18,43,2023-01-11 13:11:00.243,Lband
18,43,2023-01-11 13:12:00.234,Lband
18,42,2023-01-11 13:13:00.305,Lband
18,42,2023-01-11 13:14:00.243,Lband
18,43,2023-01-11 13:15:00.305,Lband
18,43,2023-01-11 13:16:00.240,Lband
18,42,2023-01-11 13:17:00.203,Lband
18,43,2023-01-11 13:18:00.210,Lband
18,43,2023-01-11 13:19:00.190,Lband
18,43,2023-01-11 13:20:00.352,Lband
18,43,2023-01-11 13:21:00.200,Lband
18,43,2023-01-11 13:22:00.302,Lband
18,43,2023-01-11 13:23:00.267,Lband
18,43,2023-01-11 13:24:00.188,Lband
18,43,2023-01-11 13:25:00.252,Lband
18,43,2023-01-11 13:26:00.208,Lband
18,43,2023-01-11 13:27:00.247,Lband
18,43,2023-01-11 13:28:00.225,Lband
18,43,2023-01-11 13:29:00.294,Lband
18,43,2023-01-11 13:30:00.297,Lband
18,43,2023-01-11 13:31:00.302,Lband
18,43,2023-01-11 13:32:00.240,Lband
18,43,2023-01-11 13:33:00.259,Lband
17,43,2023-01-11 13:34:00.306,Lband
17,43,2023-01-11 13:35:00.296,Lband
17,42,2023-01-11 13:36:00.294,Lband
17,43,2023-01-11 13:37:00.231,Lband
18,42,2023-01-11 13:38:00.253,Lband
18,42,2023-01-11 13:39:00.258,Lband
18,42,2023-01-11 13:40:00.249,Lband
18,42,2023-01-11 13:41:00.268,Lband
18,42,2023-01-11 13:42:00.253,Lband
18,42,2023-01-11 13:43:00.271,Lband
18,42,2023-01-11 13:44:00.306,Lband
18,43,2023-01-11 13:45:00.200,Lband
18,42,2023-01-11 13:46:00.279,Lband
18,43,2023-01-11 13:47:00.224,Lband
18,43,2023-01-11 13:48:00.231,Lband
18,43,2023-01-11 13:49:00.248,Lband
18,43,2023-01-11 13:50:00.193,Lband
18,42,2023-01-11 13:51:00.308,Lband
18,43,2023-01-11 13:52:00.270,Lband
18,42,2023-01-11 13:53:00.254,Lband
18,43,2023-01-11 13:54:00.192,Lband
18,42,2023-01-11 13:55:00.322,Lband
18,43,2023-01-11 13:56:00.304,Lband
18,43,2023-01-11 13:57:00.315,Lband
18,43,2023-01-11 13:58:00.268,Lband
18,43,2023-01-11 13:59:00.202,Lband
18,43,2023-01-11 14:00:00.243,Lband
18,43,2023-01-11 14:01:00.276,Lband
18,43,2023-01-11 14:02:00.251,Lband
18,43,2023-01-11 14:03:00.231,Lband
18,43,2023-01-11 14:04:00.226,Lband
18,43,2023-01-11 14:05:00.291,Lband
18,43,2023-01-11 14:06:00.257,Lband
18,43,2023-01-11 14:07:00.307,Lband
18,43,2023-01-11 14:08:00.191,Lband
18,43,2023-01-11 14:09:00.223,Lband
18,43,2023-01-11 14:10:00.190,Lband
18,43,2023-01-11 14:11:00.191,Lband
18,43,2023-01-11 14:12:00.331,Lband
18,43,2023-01-11 14:13:00.233,Lband
18,42,2023-01-11 14:14:00.241,Lband
18,42,2023-01-11 14:15:00.252,Lband
18,43,2023-01-11 14:16:00.293,Lband
18,43,2023-01-11 14:17:00.258,Lband
18,42,2023-01-11 14:18:00.350,Lband
18,43,2023-01-11 14:19:00.247,Lband
18,42,2023-01-11 14:20:00.240,Lband
18,42,2023-01-11 14:21:00.180,Lband
18,42,2023-01-11 14:22:00.201,Lband
18,42,2023-01-11 14:23:00.268,Lband
18,42,2023-01-11 14:24:00.254,Lband
18,42,2023-01-11 14:25:00.266,Lband
18,42,2023-01-11 14:26:00.192,Lband
18,42,2023-01-11 14:27:00.249,Lband
18,42,2023-01-11 14:28:00.233,Lband
18,42,2023-01-11 14:29:00.265,Lband
18,42,2023-01-11 14:30:00.253,Lband
18,42,2023-01-11 14:31:00.186,Lband
18,42,2023-01-11 14:32:00.293,Lband
18,42,2023-01-11 14:33:00.276,Lband
18,42,2023-01-11 14:34:00.255,Lband
18,42,2023-01-11 14:35:00.299,Lband
18,42,2023-01-11 14:36:00.237,Lband
18,42,2023-01-11 14:37:00.186,Lband
18,43,2023-01-11 14:38:00.364,Lband
18,42,2023-01-11 14:39:00.221,Lband
17,42,2023-01-11 14:40:00.211,Lband
17,42,2023-01-11 14:41:00.247,Lband
18,42,2023-01-11 14:42:00.301,Lband
18,42,2023-01-11 14:43:00.218,Lband
18,43,2023-01-11 14:44:00.262,Lband
17,43,2023-01-11 14:45:00.328,Lband
18,43,2023-01-11 14:46:00.241,Lband
18,43,2023-01-11 14:47:00.278,Lband
18,43,2023-01-11 14:48:00.204,Lband
18,43,2023-01-11 14:49:00.228,Lband
18,43,2023-01-11 14:50:00.296,Lband
18,43,2023-01-11 14:51:00.202,Lband
18,43,2023-01-11 14:52:00.233,Lband
18,43,2023-01-11 14:53:00.246,Lband
18,43,2023-01-11 14:54:00.284,Lband
18,43,2023-01-11 14:55:00.300,Lband
18,43,2023-01-11 14:56:00.361,Lband
18,43,2023-01-11 14:57:00.277,Lband
18,43,2023-01-11 14:58:00.197,Lband
18,43,2023-01-11 14:59:00.234,Lband
18,43,2023-01-11 15:00:00.311,Lband
18,43,2023-01-11 15:01:00.301,Lband
18,43,2023-01-11 15:02:00.201,Lband
18,43,2023-01-11 15:03:00.198,Lband
18,43,2023-01-11 15:04:00.222,Lband
18,43,2023-01-11 15:05:00.197,Lband
18,43,2023-01-11 15:06:00.292,Lband
18,43,2023-01-11 15:07:00.277,Lband
18,43,2023-01-11 15:08:00.284,Lband
18,43,2023-01-11 15:09:00.228,Lband
18,43,2023-01-11 15:10:00.247,Lband
18,43,2023-01-11 15:11:00.239,Lband
18,43,2023-01-11 15:12:00.216,Lband
18,43,2023-01-11 15:13:00.245,Lband
18,43,2023-01-11 15:14:00.188,Lband
18,43,2023-01-11 15:15:00.284,Lband
18,43,2023-01-11 15:16:00.307,Lband
18,43,2023-01-11 15:17:00.311,Lband
18,43,2023-01-11 15:18:00.299,Lband
18,43,2023-01-11 15:19:00.246,Lband
18,43,2023-01-11 15:20:00.294,Lband
18,43,2023-01-11 15:21:00.251,Lband
18,43,2023-01-11 15:22:00.265,Lband
18,43,2023-01-11 15:23:00.246,Lband
18,43,2023-01-11 15:24:00.277,Lband
18,43,2023-01-11 15:25:00.241,Lband
18,43,2023-01-11 15:26:00.296,Lband
18,43,2023-01-11 15:27:00.233,Lband
18,43,2023-01-11 15:28:00.251,Lband
18,43,2023-01-11 15:29:00.301,Lband
18,43,2023-01-11 15:30:00.372,Lband
18,43,2023-01-11 15:31:00.200,Lband
18,43,2023-01-11 15:32:00.304,Lband
18,43,2023-01-11 15:33:00.203,Lband
18,43,2023-01-11 15:34:00.208,Lband
18,43,2023-01-11 15:35:00.219,Lband
18,43,2023-01-11 15:36:00.209,Lband
18,43,2023-01-11 15:37:00.308,Lband
18,43,2023-01-11 15:38:00.284,Lband
18,43,2023-01-11 15:39:00.238,Lband
18,43,2023-01-11 15:40:00.189,Lband
18,43,2023-01-11 15:41:00.182,Lband
18,42,2023-01-11 15:42:00.205,Lband
18,42,2023-01-11 15:43:00.257,Lband
18,42,2023-01-11 15:44:00.225,Lband
18,42,2023-01-11 15:45:00.215,Lband
18,42,2023-01-11 15:46:00.242,Lband
17,42,2023-01-11 15:47:00.261,Lband
18,42,2023-01-11 15:48:00.243,Lband
18,42,2023-01-11 15:49:00.253,Lband
18,42,2023-01-11 15:50:00.321,Lband
18,42,2023-01-11 15:51:00.264,Lband
18,42,2023-01-11 15:52:00.203,Lband
18,42,2023-01-11 15:53:00.314,Lband
18,42,2023-01-11 15:54:00.300,Lband
18,42,2023-01-11 15:55:00.285,Lband
18,42,2023-01-11 15:56:00.409,Lband
18,42,2023-01-11 15:57:00.244,Lband
18,42,2023-01-11 15:58:00.259,Lband
18,42,2023-01-11 15:59:00.302,Lband
18,42,2023-01-11 16:00:00.219,Lband
18,42,2023-01-11 16:01:00.305,Lband
18,42,2023-01-11 16:02:00.258,Lband
18,42,2023-01-11 16:03:00.269,Lband
18,42,2023-01-11 16:04:00.314,Lband
18,42,2023-01-11 16:05:00.259,Lband
18,42,2023-01-11 16:06:00.356,Lband
18,42,2023-01-11 16:07:00.305,Lband
18,42,2023-01-11 16:08:00.234,Lband
18,42,2023-01-11 16:09:00.262,Lband
18,42,2023-01-11 16:10:00.223,Lband
18,42,2023-01-11 16:11:00.208,Lband
18,42,2023-01-11 16:12:00.232,Lband
18,42,2023-01-11 16:13:00.218,Lband
18,42,2023-01-11 16:14:00.181,Lband
18,42,2023-01-11 16:15:00.213,Lband
18,42,2023-01-11 16:16:00.307,Lband
18,42,2023-01-11 16:17:00.235,Lband
18,42,2023-01-11 16:18:00.229,Lband
18,42,2023-01-11 16:19:00.198,Lband
18,42,2023-01-11 16:20:00.305,Lband
18,42,2023-01-11 16:21:00.235,Lband
18,42,2023-01-11 16:22:00.196,Lband
18,42,2023-01-11 16:23:00.237,Lband
18,42,2023-01-11 16:24:00.307,Lband
18,42,2023-01-11 16:25:00.257,Lband
18,42,2023-01-11 16:26:00.224,Lband
18,42,2023-01-11 16:27:00.301,Lband
18,42,2023-01-11 16:28:00.227,Lband
18,42,2023-01-11 16:29:00.305,Lband
18,42,2023-01-11 16:30:00.258,Lband
18,42,2023-01-11 16:31:00.270,Lband
17,42,2023-01-11 16:32:00.305,Lband
18,42,2023-01-11 16:33:00.253,Lband
18,42,2023-01-11 16:34:00.226,Lband
18,42,2023-01-11 16:35:00.214,Lband
18,42,2023-01-11 16:36:00.266,Lband
18,43,2023-01-11 16:37:00.254,Lband
18,42,2023-01-11 16:38:00.212,Lband
18,42,2023-01-11 16:39:00.240,Lband
18,42,2023-01-11 16:40:00.205,Lband
18,42,2023-01-11 16:41:00.253,Lband
18,42,2023-01-11 16:42:00.244,Lband
18,42,2023-01-11 16:43:00.239,Lband
18,42,2023-01-11 16:44:00.233,Lband
18,43,2023-01-11 16:45:00.186,Lband
18,43,2023-01-11 16:46:00.302,Lband
18,42,2023-01-11 16:47:00.206,Lband
18,43,2023-01-11 16:48:00.255,Lband
18,43,2023-01-11 16:49:00.304,Lband
18,42,2023-01-11 16:50:00.351,Lband
18,43,2023-01-11 16:51:00.304,Lband
18,43,2023-01-11 16:52:00.241,Lband
18,43,2023-01-11 16:53:00.244,Lband
18,43,2023-01-11 16:54:00.295,Lband
18,43,2023-01-11 16:55:00.309,Lband
18,43,2023-01-11 16:56:00.196,Lband
18,43,2023-01-11 16:57:00.314,Lband
18,43,2023-01-11 16:58:00.308,Lband
18,43,2023-01-11 16:59:00.179,Lband
18,42,2023-01-11 17:00:00.258,Lband
18,42,2023-01-11 17:01:00.250,Lband
18,42,2023-01-11 17:02:00.156,Lband
18,42,2023-01-11 17:03:00.213,Lband
18,42,2023-01-11 17:04:00.278,Lband
18,42,2023-01-11 17:05:00.264,Lband
18,42,2023-01-11 17:06:00.186,Lband
18,42,2023-01-11 17:07:00.212,Lband
18,42,2023-01-11 17:08:00.269,Lband
18,42,2023-01-11 17:09:00.248,Lband
18,42,2023-01-11 17:10:00.201,Lband
18,42,2023-01-11 17:11:00.179,Lband
18,42,2023-01-11 17:12:00.303,Lband
18,42,2023-01-11 17:13:00.285,Lband
18,42,2023-01-11 17:14:00.234,Lband
18,42,2023-01-11 17:15:00.302,Lband
18,42,2023-01-11 17:16:00.246,Lband
18,42,2023-01-11 17:17:00.308,Lband
17,42,2023-01-11 17:18:00.233,Lband
18,42,2023-01-11 17:19:00.293,Lband
18,42,2023-01-11 17:20:00.298,Lband
18,42,2023-01-11 17:21:00.193,Lband
18,42,2023-01-11 17:22:00.188,Lband
18,42,2023-01-11 17:23:00.242,Lband
18,42,2023-01-11 17:24:00.249,Lband
18,42,2023-01-11 17:25:00.187,Lband
18,42,2023-01-11 17:26:00.231,Lband
18,42,2023-01-11 17:27:00.249,Lband
18,42,2023-01-11 17:28:00.245,Lband
18,42,2023-01-11 17:29:00.300,Lband
18,42,2023-01-11 17:30:00.174,Lband
18,42,2023-01-11 17:31:00.261,Lband
18,42,2023-01-11 17:32:00.268,Lband
18,42,2023-01-11 17:33:00.315,Lband
18,42,2023-01-11 17:34:00.193,Lband
18,42,2023-01-11 17:35:00.264,Lband
18,43,2023-01-11 17:36:00.255,Lband
18,43,2023-01-11 17:37:00.260,Lband
18,42,2023-01-11 17:38:00.228,Lband
18,42,2023-01-11 17:39:00.238,Lband
18,43,2023-01-11 17:40:00.206,Lband
18,43,2023-01-11 17:41:00.149,Lband
18,42,2023-01-11 17:42:00.204,Lband
18,43,2023-01-11 17:43:00.194,Lband
18,42,2023-01-11 17:44:00.290,Lband
18,43,2023-01-11 17:45:00.357,Lband
18,43,2023-01-11 17:46:00.266,Lband
18,42,2023-01-11 17:47:00.203,Lband
18,42,2023-01-11 17:48:00.292,Lband
18,42,2023-01-11 17:49:00.219,Lband
18,43,2023-01-11 17:50:00.304,Lband
18,43,2023-01-11 17:51:00.284,Lband
18,42,2023-01-11 17:52:00.199,Lband
18,42,2023-01-11 17:53:00.254,Lband
18,42,2023-01-11 17:54:00.236,Lband
18,43,2023-01-11 17:55:00.263,Lband
18,43,2023-01-11 17:56:00.190,Lband
18,42,2023-01-11 17:57:00.253,Lband
18,42,2023-01-11 17:58:00.236,Lband
18,42,2023-01-11 17:59:00.265,Lband
18,43,2023-01-11 18:00:00.297,Lband
18,42,2023-01-11 18:01:00.356,Lband
18,42,2023-01-11 18:02:00.188,Lband
18,43,2023-01-11 18:03:00.188,Lband
17,43,2023-01-11 18:04:00.258,Lband
18,43,2023-01-11 18:05:00.243,Lband
18,43,2023-01-11 18:06:00.232,Lband
18,43,2023-01-11 18:07:00.258,Lband
18,42,2023-01-11 18:08:00.318,Lband
18,42,2023-01-11 18:09:00.252,Lband
18,42,2023-01-11 18:10:00.409,Lband
18,42,2023-01-11 18:11:00.255,Lband
18,42,2023-01-11 18:12:00.247,Lband
18,42,2023-01-11 18:13:00.352,Lband
18,42,2023-01-11 18:14:00.197,Lband
18,42,2023-01-11 18:15:00.243,Lband
18,42,2023-01-11 18:16:00.300,Lband
18,42,2023-01-11 18:17:00.302,Lband
18,42,2023-01-11 18:18:00.245,Lband
18,42,2023-01-11 18:19:00.261,Lband
18,42,2023-01-11 18:20:00.192,Lband
18,42,2023-01-11 18:21:00.255,Lband
18,42,2023-01-11 18:22:00.312,Lband
18,42,2023-01-11 18:23:00.210,Lband
18,42,2023-01-11 18:24:00.181,Lband
18,42,2023-01-11 18:25:00.295,Lband
18,42,2023-01-11 18:26:00.252,Lband
18,42,2023-01-11 18:27:00.354,Lband
18,42,2023-01-11 18:28:00.215,Lband
18,42,2023-01-11 18:29:00.264,Lband
18,42,2023-01-11 18:30:00.307,Lband
18,42,2023-01-11 18:31:00.184,Lband
18,42,2023-01-11 18:32:00.279,Lband
18,42,2023-01-11 18:33:00.259,Lband
18,42,2023-01-11 18:34:00.296,Lband
18,42,2023-01-11 18:35:00.252,Lband
18,42,2023-01-11 18:36:00.300,Lband
18,42,2023-01-11 18:37:00.250,Lband
18,42,2023-01-11 18:38:00.264,Lband
18,42,2023-01-11 18:39:00.253,Lband
18,42,2023-01-11 18:40:00.264,Lband
18,42,2023-01-11 18:41:00.178,Lband
18,42,2023-01-11 18:42:00.355,Lband
17,42,2023-01-11 18:43:00.394,Lband
18,42,2023-01-11 18:44:00.248,Lband
18,42,2023-01-11 18:45:00.361,Lband
18,42,2023-01-11 18:46:00.253,Lband
18,42,2023-01-11 18:47:00.199,Lband
18,42,2023-01-11 18:48:00.163,Lband
18,42,2023-01-11 18:49:00.304,Lband
18,42,2023-01-11 18:50:00.253,Lband
18,42,2023-01-11 18:51:00.237,Lband
18,42,2023-01-11 18:52:00.202,Lband
18,42,2023-01-11 18:53:00.218,Lband
18,42,2023-01-11 18:54:00.225,Lband
18,42,2023-01-11 18:55:00.251,Lband
18,42,2023-01-11 18:56:00.224,Lband
18,42,2023-01-11 18:57:00.175,Lband
18,42,2023-01-11 18:58:00.317,Lband
18,42,2023-01-11 18:59:00.195,Lband
18,42,2023-01-11 19:00:00.261,Lband
18,42,2023-01-11 19:01:00.289,Lband
18,42,2023-01-11 19:02:00.201,Lband
18,42,2023-01-11 19:03:00.250,Lband
18,42,2023-01-11 19:04:00.229,Lband
18,42,2023-01-11 19:05:00.193,Lband
18,42,2023-01-11 19:06:00.283,Lband
18,42,2023-01-11 19:07:00.308,Lband
18,42,2023-01-11 19:08:00.243,Lband
18,42,2023-01-11 19:09:00.316,Lband
18,42,2023-01-11 19:10:00.227,Lband
18,42,2023-01-11 19:11:00.322,Lband
18,42,2023-01-11 19:12:00.297,Lband
18,42,2023-01-11 19:13:00.270,Lband
18,42,2023-01-11 19:14:00.253,Lband
18,42,2023-01-11 19:15:00.305,Lband
18,42,2023-01-11 19:16:00.284,Lband
18,42,2023-01-11 19:17:00.197,Lband
18,42,2023-01-11 19:18:00.298,Lband
18,42,2023-01-11 19:19:00.241,Lband
17,42,2023-01-11 19:20:00.260,Lband
18,42,2023-01-11 19:21:00.258,Lband
18,42,2023-01-11 19:22:00.351,Lband
18,42,2023-01-11 19:23:00.306,Lband
18,42,2023-01-11 19:24:00.240,Lband
18,42,2023-01-11 19:25:00.238,Lband
18,42,2023-01-11 19:26:00.250,Lband
18,42,2023-01-11 19:27:00.168,Lband
18,42,2023-01-11 19:28:00.274,Lband
18,42,2023-01-11 19:29:00.171,Lband
18,42,2023-01-11 19:30:00.306,Lband
18,42,2023-01-11 19:31:00.188,Lband
18,42,2023-01-11 19:32:00.298,Lband
18,42,2023-01-11 19:33:00.195,Lband
18,42,2023-01-11 19:34:00.247,Lband
18,42,2023-01-11 19:35:00.207,Lband
18,42,2023-01-11 19:36:00.260,Lband
17,42,2023-01-11 19:37:00.234,Lband
18,42,2023-01-11 19:38:00.262,Lband
18,42,2023-01-11 19:39:00.299,Lband
18,42,2023-01-11 19:40:00.248,Lband
18,42,2023-01-11 19:41:00.292,Lband
18,42,2023-01-11 19:42:00.250,Lband
18,42,2023-01-11 19:43:00.214,Lband
18,42,2023-01-11 19:44:00.258,Lband
18,42,2023-01-11 19:45:00.242,Lband
18,42,2023-01-11 19:46:00.241,Lband
17,42,2023-01-11 19:47:00.238,Lband
17,42,2023-01-11 19:48:00.184,Lband
18,42,2023-01-11 19:49:00.305,Lband
18,42,2023-01-11 19:50:00.224,Lband
18,42,2023-01-11 19:51:00.314,Lband
18,42,2023-01-11 19:52:00.256,Lband
18,42,2023-01-11 19:53:00.275,Lband
18,42,2023-01-11 19:54:00.252,Lband
18,42,2023-01-11 19:55:00.318,Lband
17,42,2023-01-11 19:56:00.254,Lband
17,42,2023-01-11 19:57:00.192,Lband
17,42,2023-01-11 19:58:00.251,Lband
17,42,2023-01-11 19:59:00.309,Lband
18,42,2023-01-11 20:00:00.260,Lband
18,42,2023-01-11 20:01:00.406,Lband
17,42,2023-01-11 20:02:00.221,Lband
17,42,2023-01-11 20:03:00.301,Lband
18,42,2023-01-11 20:04:00.245,Lband
17,42,2023-01-11 20:05:00.267,Lband
17,42,2023-01-11 20:06:00.239,Lband
17,42,2023-01-11 20:07:00.248,Lband
17,42,2023-01-11 20:08:00.234,Lband
17,42,2023-01-11 20:09:00.217,Lband
17,42,2023-01-11 20:10:00.357,Lband
18,42,2023-01-11 20:11:00.252,Lband
18,42,2023-01-11 20:12:00.211,Lband
17,42,2023-01-11 20:13:00.322,Lband
17,42,2023-01-11 20:14:00.257,Lband
18,42,2023-01-11 20:15:00.255,Lband
18,42,2023-01-11 20:16:00.259,Lband
18,42,2023-01-11 20:17:00.258,Lband
17,42,2023-01-11 20:18:00.299,Lband
17,42,2023-01-11 20:19:00.250,Lband
17,42,2023-01-11 20:20:00.289,Lband
17,42,2023-01-11 20:21:00.309,Lband
17,42,2023-01-11 20:22:00.195,Lband
17,42,2023-01-11 20:23:00.195,Lband
17,42,2023-01-11 20:24:00.189,Lband
17,42,2023-01-11 20:25:00.295,Lband
17,42,2023-01-11 20:26:00.173,Lband
17,42,2023-01-11 20:27:00.327,Lband
17,42,2023-01-11 20:28:00.256,Lband
17,42,2023-01-11 20:29:00.240,Lband
17,42,2023-01-11 20:30:00.241,Lband
17,42,2023-01-11 20:31:00.331,Lband
17,42,2023-01-11 20:32:00.271,Lband
17,42,2023-01-11 20:33:00.277,Lband
17,42,2023-01-11 20:34:00.293,Lband
18,42,2023-01-11 20:35:00.259,Lband
18,42,2023-01-11 20:36:00.295,Lband
17,42,2023-01-11 20:37:00.277,Lband
17,42,2023-01-11 20:38:00.245,Lband
17,42,2023-01-11 20:39:00.201,Lband
17,42,2023-01-11 20:40:00.296,Lband
17,41,2023-01-11 20:41:00.235,Lband
17,41,2023-01-11 20:42:00.275,Lband
17,41,2023-01-11 20:43:00.306,Lband
17,41,2023-01-11 20:44:00.177,Lband
17,41,2023-01-11 20:45:00.300,Lband
17,41,2023-01-11 20:46:00.302,Lband
17,41,2023-01-11 20:47:00.261,Lband
17,41,2023-01-11 20:48:00.245,Lband
17,41,2023-01-11 20:49:00.258,Lband
17,41,2023-01-11 20:50:00.264,Lband
17,41,2023-01-11 20:51:00.307,Lband
17,41,2023-01-11 20:52:00.253,Lband
17,41,2023-01-11 20:53:00.225,Lband
17,41,2023-01-11 20:54:00.279,Lband
17,41,2023-01-11 20:55:00.299,Lband
17,42,2023-01-11 20:56:00.206,Lband
17,42,2023-01-11 20:57:00.290,Lband
17,42,2023-01-11 20:58:00.313,Lband
17,42,2023-01-11 20:59:00.285,Lband
17,41,2023-01-11 21:00:00.286,Lband
17,41,2023-01-11 21:01:00.243,Lband
17,41,2023-01-11 21:02:00.315,Lband
17,41,2023-01-11 21:03:00.205,Lband
17,41,2023-01-11 21:04:00.248,Lband
17,41,2023-01-11 21:05:00.184,Lband
17,41,2023-01-11 21:06:00.264,Lband
17,41,2023-01-11 21:07:00.300,Lband
17,41,2023-01-11 21:08:00.260,Lband
17,41,2023-01-11 21:09:00.255,Lband
17,41,2023-01-11 21:10:00.288,Lband
17,41,2023-01-11 21:11:00.232,Lband
17,41,2023-01-11 21:12:00.248,Lband
17,41,2023-01-11 21:13:00.192,Lband
17,41,2023-01-11 21:14:00.235,Lband
17,41,2023-01-11 21:15:00.312,Lband
17,42,2023-01-11 21:16:00.199,Lband
17,41,2023-01-11 21:17:00.221,Lband
17,42,2023-01-11 21:18:00.290,Lband
17,42,2023-01-11 21:19:00.252,Lband
17,41,2023-01-11 21:20:00.280,Lband
17,41,2023-01-11 21:21:00.274,Lband
17,42,2023-01-11 21:22:00.261,Lband
17,41,2023-01-11 21:23:00.306,Lband
17,41,2023-01-11 21:24:00.297,Lband
17,42,2023-01-11 21:25:00.254,Lband
17,41,2023-01-11 21:26:00.215,Lband
17,41,2023-01-11 21:27:00.239,Lband
17,41,2023-01-11 21:28:00.306,Lband
17,41,2023-01-11 21:29:00.226,Lband
17,42,2023-01-11 21:30:00.257,Lband
17,41,2023-01-11 21:31:00.207,Lband
17,41,2023-01-11 21:32:00.200,Lband
17,41,2023-01-11 21:33:00.252,Lband
17,41,2023-01-11 21:34:00.240,Lband
17,41,2023-01-11 21:35:00.204,Lband
17,41,2023-01-11 21:36:00.280,Lband
17,41,2023-01-11 21:37:00.226,Lband
17,41,2023-01-11 21:38:00.309,Lband
17,41,2023-01-11 21:39:00.251,Lband
17,41,2023-01-11 21:40:00.312,Lband
17,41,2023-01-11 21:41:00.215,Lband
17,41,2023-01-11 21:42:00.218,Lband
17,41,2023-01-11 21:43:00.249,Lband
17,41,2023-01-11 21:44:00.188,Lband
17,41,2023-01-11 21:45:00.175,Lband
17,41,2023-01-11 21:46:00.204,Lband
17,41,2023-01-11 21:47:00.232,Lband
17,41,2023-01-11 21:48:00.270,Lband
17,41,2023-01-11 21:49:00.254,Lband
17,41,2023-01-11 21:50:00.319,Lband
17,41,2023-01-11 21:51:00.299,Lband
17,41,2023-01-11 21:52:00.180,Lband
17,41,2023-01-11 21:53:00.299,Lband
17,41,2023-01-11 21:54:00.306,Lband
17,41,2023-01-11 21:55:00.348,Lband
17,41,2023-01-11 21:56:00.224,Lband
17,41,2023-01-11 21:57:00.227,Lband
17,41,2023-01-11 21:58:00.259,Lband
17,41,2023-01-11 21:59:00.336,Lband
17,41,2023-01-11 22:00:00.204,Lband
17,41,2023-01-11 22:01:00.316,Lband
17,41,2023-01-11 22:02:00.213,Lband
17,41,2023-01-11 22:03:00.303,Lband
17,41,2023-01-11 22:04:00.306,Lband
17,41,2023-01-11 22:05:00.331,Lband
17,41,2023-01-11 22:06:00.254,Lband
17,41,2023-01-11 22:07:00.303,Lband
17,41,2023-01-11 22:08:00.253,Lband
17,41,2023-01-11 22:09:00.255,Lband
17,41,2023-01-11 22:10:00.225,Lband
17,41,2023-01-11 22:11:00.265,Lband
17,41,2023-01-11 22:12:00.195,Lband
17,41,2023-01-11 22:13:00.344,Lband
17,41,2023-01-11 22:14:00.262,Lband
17,41,2023-01-11 22:15:00.281,Lband
17,41,2023-01-11 22:16:00.268,Lband
17,41,2023-01-11 22:17:00.233,Lband
17,41,2023-01-11 22:18:00.198,Lband
17,41,2023-01-11 22:19:00.177,Lband
17,41,2023-01-11 22:20:00.197,Lband
17,41,2023-01-11 22:21:00.247,Lband
17,41,2023-01-11 22:22:00.289,Lband
17,41,2023-01-11 22:23:00.301,Lband
17,41,2023-01-11 22:24:00.203,Lband
17,41,2023-01-11 22:25:00.364,Lband
17,41,2023-01-11 22:26:00.180,Lband
17,41,2023-01-11 22:27:00.252,Lband
17,41,2023-01-11 22:28:00.202,Lband
17,41,2023-01-11 22:29:00.230,Lband
17,41,2023-01-11 22:30:00.214,Lband
17,41,2023-01-11 22:31:00.301,Lband
17,41,2023-01-11 22:32:00.264,Lband
17,41,2023-01-11 22:33:00.298,Lband
17,41,2023-01-11 22:34:00.270,Lband
17,41,2023-01-11 22:35:00.243,Lband
17,41,2023-01-11 22:36:00.256,Lband
17,41,2023-01-11 22:37:00.182,Lband
17,41,2023-01-11 22:38:00.211,Lband
17,41,2023-01-11 22:39:00.244,Lband
17,41,2023-01-11 22:40:00.193,Lband
17,41,2023-01-11 22:41:00.260,Lband
17,41,2023-01-11 22:42:00.224,Lband
17,41,2023-01-11 22:43:00.222,Lband
17,41,2023-01-11 22:44:00.200,Lband
17,41,2023-01-11 22:45:00.252,Lband
17,41,2023-01-11 22:46:00.185,Lband
17,41,2023-01-11 22:47:00.255,Lband
17,41,2023-01-11 22:48:00.240,Lband
17,41,2023-01-11 22:49:00.192,Lband
17,41,2023-01-11 22:50:00.202,Lband
17,41,2023-01-11 22:51:00.289,Lband
17,41,2023-01-11 22:52:00.269,Lband
17,41,2023-01-11 22:53:00.228,Lband
17,41,2023-01-11 22:54:00.306,Lband
17,41,2023-01-11 22:55:00.294,Lband
17,41,2023-01-11 22:56:00.305,Lband
17,41,2023-01-11 22:57:00.273,Lband
17,41,2023-01-11 22:58:00.251,Lband
17,41,2023-01-11 22:59:00.249,Lband
17,41,2023-01-11 23:00:00.286,Lband
17,41,2023-01-11 23:01:00.315,Lband
17,41,2023-01-11 23:02:00.321,Lband
17,41,2023-01-11 23:03:00.250,Lband
17,41,2023-01-11 23:04:00.253,Lband
17,41,2023-01-11 23:05:00.257,Lband
17,41,2023-01-11 23:06:00.252,Lband
17,41,2023-01-11 23:07:00.285,Lband
17,41,2023-01-11 23:08:00.255,Lband
17,41,2023-01-11 23:09:00.210,Lband
17,41,2023-01-11 23:10:00.248,Lband
17,41,2023-01-11 23:11:00.234,Lband
17,41,2023-01-11 23:12:00.250,Lband
17,42,2023-01-11 23:13:00.280,Lband
17,42,2023-01-11 23:14:00.198,Lband
17,42,2023-01-11 23:15:00.229,Lband
17,42,2023-01-11 23:16:00.293,Lband
17,42,2023-01-11 23:17:00.245,Lband
17,42,2023-01-11 23:18:00.318,Lband
17,42,2023-01-11 23:19:00.234,Lband
17,42,2023-01-11 23:20:00.211,Lband
17,42,2023-01-11 23:21:00.309,Lband
17,42,2023-01-11 23:22:00.256,Lband
17,42,2023-01-11 23:23:00.309,Lband
17,42,2023-01-11 23:24:00.280,Lband
17,42,2023-01-11 23:25:00.310,Lband
17,42,2023-01-11 23:26:00.290,Lband
17,42,2023-01-11 23:27:00.259,Lband
17,42,2023-01-11 23:28:00.183,Lband
17,42,2023-01-11 23:29:00.351,Lband
17,42,2023-01-11 23:30:00.242,Lband
17,42,2023-01-11 23:31:00.244,Lband
17,42,2023-01-11 23:32:00.221,Lband
17,42,2023-01-11 23:33:00.257,Lband
17,42,2023-01-11 23:34:00.281,Lband
17,42,2023-01-11 23:35:00.252,Lband
17,42,2023-01-11 23:36:00.266,Lband
17,42,2023-01-11 23:37:00.257,Lband
17,42,2023-01-11 23:38:00.251,Lband
17,42,2023-01-11 23:39:00.362,Lband
17,42,2023-01-11 23:40:00.271,Lband
17,41,2023-01-11 23:41:00.237,Lband
17,41,2023-01-11 23:42:00.231,Lband
17,41,2023-01-11 23:43:00.303,Lband
17,42,2023-01-11 23:44:00.283,Lband
17,42,2023-01-11 23:45:00.215,Lband
17,42,2023-01-11 23:46:00.262,Lband
17,41,2023-01-11 23:47:00.376,Lband
17,42,2023-01-11 23:48:00.258,Lband
17,42,2023-01-11 23:49:00.232,Lband
17,42,2023-01-11 23:50:00.203,Lband
17,42,2023-01-11 23:51:00.282,Lband
17,42,2023-01-11 23:52:00.317,Lband
17,42,2023-01-11 23:53:00.358,Lband
17,42,2023-01-11 23:54:00.192,Lband
17,42,2023-01-11 23:55:00.223,Lband
17,42,2023-01-11 23:56:00.181,Lband
17,43,2023-01-11 23:57:00.265,Lband
17,43,2023-01-11 23:58:00.241,Lband
17,43,2023-01-11 23:59:00.213,Lband
