T15,T70,date,sensorName
10,38,2022-11-23 00:00:00.314,Kband
10,38,2022-11-23 00:01:00.227,Kband
9,38,2022-11-23 00:02:00.327,Kband
10,38,2022-11-23 00:03:00.257,Kband
10,38,2022-11-23 00:04:00.283,Kband
10,38,2022-11-23 00:05:00.267,Kband
10,38,2022-11-23 00:06:00.179,Kband
10,38,2022-11-23 00:07:00.203,Kband
10,38,2022-11-23 00:08:00.261,Kband
9,38,2022-11-23 00:09:00.283,Kband
10,38,2022-11-23 00:10:00.262,Kband
10,38,2022-11-23 00:11:00.191,Kband
10,38,2022-11-23 00:12:00.219,Kband
10,38,2022-11-23 00:13:00.204,Kband
10,38,2022-11-23 00:14:00.200,Kband
10,38,2022-11-23 00:15:00.225,Kband
9,38,2022-11-23 00:16:00.348,Kband
10,38,2022-11-23 00:17:00.252,Kband
11,38,2022-11-23 00:18:00.267,Kband
10,38,2022-11-23 00:19:00.294,Kband
10,38,2022-11-23 00:20:00.276,Kband
10,38,2022-11-23 00:21:00.207,Kband
9,38,2022-11-23 00:22:00.249,Kband
11,38,2022-11-23 00:23:00.248,Kband
10,38,2022-11-23 00:24:00.231,Kband
10,38,2022-11-23 00:25:00.222,Kband
10,38,2022-11-23 00:26:00.243,Kband
9,38,2022-11-23 00:27:00.306,Kband
10,38,2022-11-23 00:28:00.224,Kband
10,38,2022-11-23 00:29:00.307,Kband
9,38,2022-11-23 00:30:00.227,Kband
11,38,2022-11-23 00:31:00.292,Kband
11,38,2022-11-23 00:32:00.233,Kband
11,38,2022-11-23 00:33:00.258,Kband
10,38,2022-11-23 00:34:00.191,Kband
10,38,2022-11-23 00:35:00.214,Kband
11,38,2022-11-23 00:36:00.297,Kband
11,38,2022-11-23 00:37:00.287,Kband
11,38,2022-11-23 00:38:00.227,Kband
10,38,2022-11-23 00:39:00.304,Kband
10,38,2022-11-23 00:40:00.201,Kband
10,38,2022-11-23 00:41:00.315,Kband
10,38,2022-11-23 00:42:00.234,Kband
10,38,2022-11-23 00:43:00.192,Kband
10,38,2022-11-23 00:44:00.209,Kband
11,38,2022-11-23 00:45:00.285,Kband
11,38,2022-11-23 00:46:00.315,Kband
11,38,2022-11-23 00:47:00.204,Kband
9,38,2022-11-23 00:48:00.317,Kband
10,38,2022-11-23 00:49:00.300,Kband
11,38,2022-11-23 00:50:00.273,Kband
9,38,2022-11-23 00:51:00.306,Kband
10,38,2022-11-23 00:52:00.243,Kband
10,38,2022-11-23 00:53:00.277,Kband
9,38,2022-11-23 00:54:00.288,Kband
10,38,2022-11-23 00:55:00.226,Kband
11,38,2022-11-23 00:56:00.218,Kband
10,38,2022-11-23 00:57:00.220,Kband
10,38,2022-11-23 00:58:00.317,Kband
11,38,2022-11-23 00:59:00.238,Kband
10,38,2022-11-23 01:00:00.276,Kband
10,38,2022-11-23 01:01:00.255,Kband
11,38,2022-11-23 01:02:00.307,Kband
11,38,2022-11-23 01:03:00.180,Kband
10,38,2022-11-23 01:04:00.220,Kband
11,38,2022-11-23 01:05:00.231,Kband
10,38,2022-11-23 01:06:00.277,Kband
9,38,2022-11-23 01:07:00.251,Kband
11,38,2022-11-23 01:08:00.231,Kband
10,38,2022-11-23 01:09:00.315,Kband
10,38,2022-11-23 01:10:00.233,Kband
10,38,2022-11-23 01:11:00.214,Kband
10,38,2022-11-23 01:12:00.302,Kband
10,38,2022-11-23 01:13:00.291,Kband
10,38,2022-11-23 01:14:00.224,Kband
9,38,2022-11-23 01:15:00.210,Kband
10,38,2022-11-23 01:16:00.293,Kband
10,38,2022-11-23 01:17:00.201,Kband
11,38,2022-11-23 01:18:00.307,Kband
10,38,2022-11-23 01:19:00.220,Kband
10,38,2022-11-23 01:20:00.246,Kband
10,38,2022-11-23 01:21:00.304,Kband
10,38,2022-11-23 01:22:00.219,Kband
10,38,2022-11-23 01:23:00.312,Kband
9,38,2022-11-23 01:24:00.304,Kband
11,38,2022-11-23 01:25:00.252,Kband
11,38,2022-11-23 01:26:00.296,Kband
10,38,2022-11-23 01:27:00.256,Kband
11,38,2022-11-23 01:28:00.307,Kband
10,38,2022-11-23 01:29:00.228,Kband
11,38,2022-11-23 01:30:00.243,Kband
11,38,2022-11-23 01:31:00.260,Kband
10,38,2022-11-23 01:32:00.257,Kband
11,38,2022-11-23 01:33:00.301,Kband
11,38,2022-11-23 01:34:00.214,Kband
10,38,2022-11-23 01:35:00.265,Kband
11,38,2022-11-23 01:36:00.301,Kband
10,38,2022-11-23 01:37:00.197,Kband
11,38,2022-11-23 01:38:00.269,Kband
9,38,2022-11-23 01:39:00.258,Kband
10,38,2022-11-23 01:40:00.266,Kband
10,38,2022-11-23 01:41:00.280,Kband
11,38,2022-11-23 01:42:00.222,Kband
9,38,2022-11-23 01:43:00.312,Kband
11,38,2022-11-23 01:44:00.238,Kband
11,38,2022-11-23 01:45:00.229,Kband
11,38,2022-11-23 01:46:00.268,Kband
10,38,2022-11-23 01:47:00.215,Kband
11,38,2022-11-23 01:48:00.297,Kband
10,38,2022-11-23 01:49:00.308,Kband
11,38,2022-11-23 01:50:00.226,Kband
10,38,2022-11-23 01:51:00.269,Kband
10,38,2022-11-23 01:52:00.189,Kband
11,38,2022-11-23 01:53:00.262,Kband
10,38,2022-11-23 01:54:00.262,Kband
10,38,2022-11-23 01:55:00.224,Kband
10,38,2022-11-23 01:56:00.229,Kband
11,38,2022-11-23 01:57:00.355,Kband
9,38,2022-11-23 01:58:00.305,Kband
10,38,2022-11-23 01:59:00.242,Kband
11,38,2022-11-23 02:00:00.281,Kband
10,38,2022-11-23 02:01:00.242,Kband
10,38,2022-11-23 02:02:00.290,Kband
11,38,2022-11-23 02:03:00.259,Kband
10,38,2022-11-23 02:04:00.257,Kband
10,38,2022-11-23 02:05:00.239,Kband
11,38,2022-11-23 02:06:00.238,Kband
12,38,2022-11-23 02:07:00.260,Kband
11,38,2022-11-23 02:08:00.284,Kband
12,38,2022-11-23 02:09:00.208,Kband
11,38,2022-11-23 02:10:00.312,Kband
11,38,2022-11-23 02:11:00.276,Kband
12,38,2022-11-23 02:12:00.300,Kband
11,38,2022-11-23 02:13:00.273,Kband
10,38,2022-11-23 02:14:00.305,Kband
11,38,2022-11-23 02:15:00.301,Kband
9,38,2022-11-23 02:16:00.207,Kband
9,38,2022-11-23 02:17:00.303,Kband
11,38,2022-11-23 02:18:00.245,Kband
9,38,2022-11-23 02:19:00.298,Kband
10,38,2022-11-23 02:20:00.254,Kband
11,38,2022-11-23 02:21:00.288,Kband
11,38,2022-11-23 02:22:00.200,Kband
9,38,2022-11-23 02:23:00.300,Kband
9,38,2022-11-23 02:24:00.281,Kband
11,38,2022-11-23 02:25:00.281,Kband
10,38,2022-11-23 02:26:00.240,Kband
10,38,2022-11-23 02:27:00.284,Kband
11,38,2022-11-23 02:28:00.273,Kband
10,38,2022-11-23 02:29:00.310,Kband
10,38,2022-11-23 02:30:00.173,Kband
11,38,2022-11-23 02:31:00.343,Kband
10,38,2022-11-23 02:32:00.307,Kband
10,38,2022-11-23 02:33:00.345,Kband
11,38,2022-11-23 02:34:00.224,Kband
10,38,2022-11-23 02:35:00.268,Kband
10,38,2022-11-23 02:36:00.222,Kband
10,38,2022-11-23 02:37:00.264,Kband
11,38,2022-11-23 02:38:00.236,Kband
11,38,2022-11-23 02:39:00.214,Kband
11,38,2022-11-23 02:40:00.284,Kband
11,38,2022-11-23 02:41:00.209,Kband
11,38,2022-11-23 02:42:00.297,Kband
12,38,2022-11-23 02:43:00.202,Kband
11,38,2022-11-23 02:44:00.256,Kband
10,38,2022-11-23 02:45:00.225,Kband
10,38,2022-11-23 02:46:00.219,Kband
11,38,2022-11-23 02:47:00.259,Kband
10,38,2022-11-23 02:48:00.209,Kband
11,38,2022-11-23 02:49:00.298,Kband
10,38,2022-11-23 02:50:00.209,Kband
11,38,2022-11-23 02:51:00.309,Kband
10,38,2022-11-23 02:52:00.225,Kband
11,38,2022-11-23 02:53:00.299,Kband
10,38,2022-11-23 02:54:00.284,Kband
9,38,2022-11-23 02:55:00.202,Kband
11,38,2022-11-23 02:56:00.256,Kband
11,38,2022-11-23 02:57:00.233,Kband
11,38,2022-11-23 02:58:00.307,Kband
10,38,2022-11-23 02:59:00.292,Kband
11,38,2022-11-23 03:00:00.279,Kband
11,38,2022-11-23 03:01:00.291,Kband
11,38,2022-11-23 03:02:00.240,Kband
10,38,2022-11-23 03:03:00.231,Kband
11,38,2022-11-23 03:04:00.305,Kband
10,38,2022-11-23 03:05:00.181,Kband
11,38,2022-11-23 03:06:00.216,Kband
11,38,2022-11-23 03:07:00.184,Kband
10,38,2022-11-23 03:08:00.311,Kband
10,38,2022-11-23 03:09:00.196,Kband
10,38,2022-11-23 03:10:00.309,Kband
11,38,2022-11-23 03:11:00.372,Kband
11,38,2022-11-23 03:12:00.307,Kband
10,38,2022-11-23 03:13:00.284,Kband
11,38,2022-11-23 03:14:00.270,Kband
11,38,2022-11-23 03:15:00.260,Kband
9,38,2022-11-23 03:16:00.234,Kband
10,38,2022-11-23 03:17:00.274,Kband
11,38,2022-11-23 03:18:00.237,Kband
11,38,2022-11-23 03:19:00.172,Kband
10,38,2022-11-23 03:20:00.174,Kband
10,38,2022-11-23 03:21:00.234,Kband
11,38,2022-11-23 03:22:00.214,Kband
11,38,2022-11-23 03:23:00.260,Kband
10,38,2022-11-23 03:24:00.287,Kband
11,38,2022-11-23 03:25:00.179,Kband
10,38,2022-11-23 03:26:00.303,Kband
10,38,2022-11-23 03:27:00.240,Kband
10,38,2022-11-23 03:28:00.296,Kband
11,38,2022-11-23 03:29:00.233,Kband
11,38,2022-11-23 03:30:00.310,Kband
10,38,2022-11-23 03:31:00.256,Kband
12,38,2022-11-23 03:32:00.232,Kband
12,38,2022-11-23 03:33:00.266,Kband
11,38,2022-11-23 03:34:00.252,Kband
12,38,2022-11-23 03:35:00.253,Kband
12,38,2022-11-23 03:36:00.239,Kband
11,38,2022-11-23 03:37:00.314,Kband
11,38,2022-11-23 03:38:00.221,Kband
12,38,2022-11-23 03:39:00.262,Kband
11,38,2022-11-23 03:40:00.308,Kband
10,38,2022-11-23 03:41:00.225,Kband
11,38,2022-11-23 03:42:00.239,Kband
10,38,2022-11-23 03:43:00.251,Kband
10,38,2022-11-23 03:44:00.235,Kband
10,38,2022-11-23 03:45:00.219,Kband
10,38,2022-11-23 03:46:00.406,Kband
10,38,2022-11-23 03:47:00.269,Kband
11,38,2022-11-23 03:48:00.289,Kband
9,38,2022-11-23 03:49:00.279,Kband
10,38,2022-11-23 03:50:00.252,Kband
10,38,2022-11-23 03:51:00.242,Kband
10,38,2022-11-23 03:52:00.307,Kband
10,38,2022-11-23 03:53:00.238,Kband
10,38,2022-11-23 03:54:00.317,Kband
11,38,2022-11-23 03:55:00.240,Kband
10,38,2022-11-23 03:56:00.213,Kband
9,38,2022-11-23 03:57:00.276,Kband
11,38,2022-11-23 03:58:00.296,Kband
11,38,2022-11-23 03:59:00.274,Kband
11,38,2022-11-23 04:00:00.322,Kband
10,38,2022-11-23 04:01:00.197,Kband
11,38,2022-11-23 04:02:00.245,Kband
10,38,2022-11-23 04:03:00.251,Kband
10,38,2022-11-23 04:04:00.272,Kband
10,38,2022-11-23 04:05:00.247,Kband
10,38,2022-11-23 04:06:00.187,Kband
10,38,2022-11-23 04:07:00.313,Kband
10,38,2022-11-23 04:08:00.225,Kband
10,38,2022-11-23 04:09:00.234,Kband
10,38,2022-11-23 04:10:00.217,Kband
9,38,2022-11-23 04:11:00.182,Kband
10,38,2022-11-23 04:12:00.294,Kband
11,38,2022-11-23 04:13:00.193,Kband
11,38,2022-11-23 04:14:00.303,Kband
10,38,2022-11-23 04:15:00.213,Kband
10,38,2022-11-23 04:16:00.341,Kband
11,38,2022-11-23 04:17:00.275,Kband
10,38,2022-11-23 04:18:00.214,Kband
10,38,2022-11-23 04:19:00.252,Kband
10,38,2022-11-23 04:20:00.297,Kband
9,38,2022-11-23 04:21:00.259,Kband
10,38,2022-11-23 04:22:00.292,Kband
11,38,2022-11-23 04:23:00.272,Kband
10,38,2022-11-23 04:24:00.248,Kband
9,38,2022-11-23 04:25:00.269,Kband
11,38,2022-11-23 04:26:00.315,Kband
10,38,2022-11-23 04:27:00.306,Kband
10,38,2022-11-23 04:28:00.289,Kband
11,38,2022-11-23 04:29:00.300,Kband
10,38,2022-11-23 04:30:00.307,Kband
10,38,2022-11-23 04:31:00.300,Kband
11,38,2022-11-23 04:32:00.264,Kband
10,38,2022-11-23 04:33:00.318,Kband
11,38,2022-11-23 04:34:00.272,Kband
9,38,2022-11-23 04:35:00.252,Kband
10,38,2022-11-23 04:36:00.219,Kband
11,38,2022-11-23 04:37:00.286,Kband
10,38,2022-11-23 04:38:00.270,Kband
10,38,2022-11-23 04:39:00.199,Kband
11,38,2022-11-23 04:40:00.308,Kband
10,38,2022-11-23 04:41:00.276,Kband
11,38,2022-11-23 04:42:00.298,Kband
10,38,2022-11-23 04:43:00.209,Kband
10,38,2022-11-23 04:44:00.257,Kband
11,38,2022-11-23 04:45:00.309,Kband
11,38,2022-11-23 04:46:00.202,Kband
10,38,2022-11-23 04:47:00.276,Kband
10,38,2022-11-23 04:48:00.256,Kband
11,38,2022-11-23 04:49:00.227,Kband
10,38,2022-11-23 04:50:00.246,Kband
10,38,2022-11-23 04:51:00.169,Kband
10,38,2022-11-23 04:52:00.300,Kband
11,38,2022-11-23 04:53:00.224,Kband
10,38,2022-11-23 04:54:00.213,Kband
11,38,2022-11-23 04:55:00.239,Kband
10,38,2022-11-23 04:56:00.256,Kband
10,38,2022-11-23 04:57:00.377,Kband
11,38,2022-11-23 04:58:00.197,Kband
11,38,2022-11-23 04:59:00.226,Kband
11,38,2022-11-23 05:00:00.244,Kband
11,38,2022-11-23 05:01:00.279,Kband
10,38,2022-11-23 05:02:00.272,Kband
11,38,2022-11-23 05:03:00.311,Kband
11,38,2022-11-23 05:04:00.271,Kband
10,38,2022-11-23 05:05:00.250,Kband
10,38,2022-11-23 05:06:00.222,Kband
11,38,2022-11-23 05:07:00.294,Kband
11,38,2022-11-23 05:08:00.247,Kband
11,38,2022-11-23 05:09:00.259,Kband
11,38,2022-11-23 05:10:00.303,Kband
12,38,2022-11-23 05:11:00.234,Kband
11,38,2022-11-23 05:12:00.264,Kband
10,38,2022-11-23 05:13:00.292,Kband
9,38,2022-11-23 05:14:00.246,Kband
11,38,2022-11-23 05:15:00.273,Kband
10,38,2022-11-23 05:16:00.309,Kband
10,38,2022-11-23 05:17:00.207,Kband
11,38,2022-11-23 05:18:00.227,Kband
10,38,2022-11-23 05:19:00.307,Kband
11,38,2022-11-23 05:20:00.231,Kband
11,38,2022-11-23 05:21:00.250,Kband
10,38,2022-11-23 05:22:00.280,Kband
11,38,2022-11-23 05:23:00.297,Kband
10,38,2022-11-23 05:24:00.237,Kband
11,38,2022-11-23 05:25:00.232,Kband
11,38,2022-11-23 05:26:00.251,Kband
10,38,2022-11-23 05:27:00.301,Kband
11,38,2022-11-23 05:28:00.279,Kband
10,38,2022-11-23 05:29:00.204,Kband
11,38,2022-11-23 05:30:00.309,Kband
10,38,2022-11-23 05:31:00.359,Kband
10,38,2022-11-23 05:32:00.267,Kband
11,38,2022-11-23 05:33:00.212,Kband
10,38,2022-11-23 05:34:00.250,Kband
9,38,2022-11-23 05:35:00.253,Kband
11,38,2022-11-23 05:36:00.260,Kband
10,38,2022-11-23 05:37:00.280,Kband
10,38,2022-11-23 05:38:00.258,Kband
11,38,2022-11-23 05:39:00.247,Kband
11,38,2022-11-23 05:40:00.254,Kband
12,38,2022-11-23 05:41:00.226,Kband
12,38,2022-11-23 05:42:00.221,Kband
11,38,2022-11-23 05:43:00.261,Kband
11,38,2022-11-23 05:44:00.277,Kband
11,38,2022-11-23 05:45:00.237,Kband
9,38,2022-11-23 05:46:00.295,Kband
9,38,2022-11-23 05:47:00.255,Kband
11,38,2022-11-23 05:48:00.290,Kband
10,38,2022-11-23 05:49:00.231,Kband
10,38,2022-11-23 05:50:00.302,Kband
10,38,2022-11-23 05:51:00.280,Kband
10,38,2022-11-23 05:52:00.314,Kband
11,38,2022-11-23 05:53:00.264,Kband
10,38,2022-11-23 05:54:00.294,Kband
9,38,2022-11-23 05:55:00.253,Kband
10,38,2022-11-23 05:56:00.354,Kband
10,38,2022-11-23 05:57:00.215,Kband
10,38,2022-11-23 05:58:00.246,Kband
11,38,2022-11-23 05:59:00.309,Kband
10,38,2022-11-23 06:00:00.257,Kband
10,38,2022-11-23 06:01:00.174,Kband
10,38,2022-11-23 06:02:00.256,Kband
9,38,2022-11-23 06:03:00.206,Kband
11,38,2022-11-23 06:04:00.393,Kband
10,38,2022-11-23 06:05:00.265,Kband
10,38,2022-11-23 06:06:00.218,Kband
11,38,2022-11-23 06:07:00.262,Kband
10,38,2022-11-23 06:08:00.225,Kband
10,38,2022-11-23 06:09:00.184,Kband
11,38,2022-11-23 06:10:00.305,Kband
10,38,2022-11-23 06:11:00.269,Kband
11,38,2022-11-23 06:12:00.294,Kband
12,38,2022-11-23 06:13:00.267,Kband
11,38,2022-11-23 06:14:00.272,Kband
12,38,2022-11-23 06:15:00.310,Kband
12,38,2022-11-23 06:16:00.284,Kband
12,38,2022-11-23 06:17:00.275,Kband
11,38,2022-11-23 06:18:00.292,Kband
11,38,2022-11-23 06:19:00.272,Kband
10,38,2022-11-23 06:20:00.293,Kband
11,38,2022-11-23 06:21:00.306,Kband
10,38,2022-11-23 06:22:00.238,Kband
11,38,2022-11-23 06:23:00.230,Kband
10,38,2022-11-23 06:24:00.303,Kband
11,38,2022-11-23 06:25:00.226,Kband
11,38,2022-11-23 06:26:00.239,Kband
10,38,2022-11-23 06:27:00.311,Kband
11,38,2022-11-23 06:28:00.296,Kband
10,38,2022-11-23 06:29:00.308,Kband
11,38,2022-11-23 06:30:00.271,Kband
11,38,2022-11-23 06:31:00.315,Kband
10,38,2022-11-23 06:32:00.222,Kband
10,38,2022-11-23 06:33:00.243,Kband
10,38,2022-11-23 06:34:00.300,Kband
11,38,2022-11-23 06:35:00.174,Kband
10,38,2022-11-23 06:36:00.252,Kband
10,38,2022-11-23 06:37:00.321,Kband
11,38,2022-11-23 06:38:00.256,Kband
10,38,2022-11-23 06:39:00.237,Kband
10,38,2022-11-23 06:40:00.272,Kband
11,38,2022-11-23 06:41:00.273,Kband
10,38,2022-11-23 06:42:00.304,Kband
10,38,2022-11-23 06:43:00.258,Kband
10,38,2022-11-23 06:44:00.239,Kband
10,38,2022-11-23 06:45:00.169,Kband
9,38,2022-11-23 06:46:00.242,Kband
10,38,2022-11-23 06:47:00.275,Kband
9,38,2022-11-23 06:48:00.257,Kband
9,38,2022-11-23 06:49:00.179,Kband
11,38,2022-11-23 06:50:00.256,Kband
10,38,2022-11-23 06:51:00.237,Kband
11,38,2022-11-23 06:52:00.273,Kband
10,38,2022-11-23 06:53:00.219,Kband
9,38,2022-11-23 06:54:00.233,Kband
10,38,2022-11-23 06:55:00.315,Kband
10,38,2022-11-23 06:56:00.283,Kband
10,38,2022-11-23 06:57:00.225,Kband
10,38,2022-11-23 06:58:00.273,Kband
11,38,2022-11-23 06:59:00.297,Kband
10,38,2022-11-23 07:00:00.309,Kband
11,38,2022-11-23 07:01:00.300,Kband
10,38,2022-11-23 07:02:00.276,Kband
11,38,2022-11-23 07:03:00.276,Kband
10,38,2022-11-23 07:04:00.249,Kband
11,38,2022-11-23 07:05:00.239,Kband
10,38,2022-11-23 07:06:00.291,Kband
11,38,2022-11-23 07:07:00.203,Kband
12,38,2022-11-23 07:08:00.246,Kband
11,38,2022-11-23 07:09:00.317,Kband
12,38,2022-11-23 07:10:00.313,Kband
11,38,2022-11-23 07:11:00.227,Kband
12,38,2022-11-23 07:12:00.220,Kband
11,38,2022-11-23 07:13:00.250,Kband
11,38,2022-11-23 07:14:00.217,Kband
11,38,2022-11-23 07:15:00.310,Kband
11,38,2022-11-23 07:16:00.238,Kband
11,38,2022-11-23 07:17:00.241,Kband
11,38,2022-11-23 07:18:00.178,Kband
10,38,2022-11-23 07:19:00.209,Kband
10,38,2022-11-23 07:20:00.298,Kband
10,38,2022-11-23 07:21:00.249,Kband
9,38,2022-11-23 07:22:00.223,Kband
10,38,2022-11-23 07:23:00.183,Kband
10,38,2022-11-23 07:24:00.172,Kband
9,38,2022-11-23 07:25:00.254,Kband
10,38,2022-11-23 07:26:00.259,Kband
10,38,2022-11-23 07:27:00.239,Kband
10,38,2022-11-23 07:28:00.234,Kband
11,38,2022-11-23 07:29:00.248,Kband
9,38,2022-11-23 07:30:00.247,Kband
10,38,2022-11-23 07:31:00.277,Kband
10,38,2022-11-23 07:32:00.269,Kband
9,38,2022-11-23 07:33:00.168,Kband
9,38,2022-11-23 07:34:00.240,Kband
10,38,2022-11-23 07:35:00.304,Kband
10,38,2022-11-23 07:36:00.293,Kband
10,38,2022-11-23 07:37:00.224,Kband
10,38,2022-11-23 07:38:00.281,Kband
11,38,2022-11-23 07:39:00.231,Kband
10,38,2022-11-23 07:40:00.358,Kband
10,38,2022-11-23 07:41:00.294,Kband
10,38,2022-11-23 07:42:00.284,Kband
11,38,2022-11-23 07:43:00.268,Kband
10,38,2022-11-23 07:44:00.316,Kband
11,38,2022-11-23 07:45:00.226,Kband
11,38,2022-11-23 07:46:00.260,Kband
11,38,2022-11-23 07:47:00.227,Kband
12,38,2022-11-23 07:48:00.300,Kband
11,38,2022-11-23 07:49:00.221,Kband
12,38,2022-11-23 07:50:00.268,Kband
11,38,2022-11-23 07:51:00.228,Kband
12,38,2022-11-23 07:52:00.356,Kband
11,38,2022-11-23 07:53:00.276,Kband
10,38,2022-11-23 07:54:00.233,Kband
11,38,2022-11-23 07:55:00.351,Kband
10,38,2022-11-23 07:56:00.289,Kband
10,38,2022-11-23 07:57:00.266,Kband
10,38,2022-11-23 07:58:00.244,Kband
10,38,2022-11-23 07:59:00.251,Kband
10,38,2022-11-23 08:00:00.299,Kband
9,38,2022-11-23 08:01:00.246,Kband
11,38,2022-11-23 08:02:00.342,Kband
10,38,2022-11-23 08:03:00.173,Kband
10,38,2022-11-23 08:04:00.264,Kband
9,38,2022-11-23 08:05:00.204,Kband
9,38,2022-11-23 08:06:00.291,Kband
10,38,2022-11-23 08:07:00.261,Kband
9,38,2022-11-23 08:08:00.300,Kband
10,38,2022-11-23 08:09:00.330,Kband
9,38,2022-11-23 08:10:00.294,Kband
10,38,2022-11-23 08:11:00.284,Kband
9,38,2022-11-23 08:12:00.268,Kband
11,38,2022-11-23 08:13:00.299,Kband
11,38,2022-11-23 08:14:00.200,Kband
10,38,2022-11-23 08:15:00.300,Kband
10,38,2022-11-23 08:16:00.297,Kband
11,38,2022-11-23 08:17:00.225,Kband
9,38,2022-11-23 08:18:00.251,Kband
10,38,2022-11-23 08:19:00.242,Kband
10,38,2022-11-23 08:20:00.239,Kband
9,38,2022-11-23 08:21:00.282,Kband
10,38,2022-11-23 08:22:00.294,Kband
10,38,2022-11-23 08:23:00.252,Kband
10,38,2022-11-23 08:24:00.322,Kband
9,38,2022-11-23 08:25:00.221,Kband
11,38,2022-11-23 08:26:00.204,Kband
10,38,2022-11-23 08:27:00.302,Kband
10,38,2022-11-23 08:28:00.248,Kband
10,38,2022-11-23 08:29:00.276,Kband
11,38,2022-11-23 08:30:00.310,Kband
9,38,2022-11-23 08:31:00.292,Kband
10,38,2022-11-23 08:32:00.300,Kband
11,38,2022-11-23 08:33:00.230,Kband
10,38,2022-11-23 08:34:00.225,Kband
11,38,2022-11-23 08:35:00.260,Kband
10,38,2022-11-23 08:36:00.188,Kband
10,38,2022-11-23 08:37:00.184,Kband
10,38,2022-11-23 08:38:00.202,Kband
10,38,2022-11-23 08:39:00.251,Kband
10,38,2022-11-23 08:40:00.216,Kband
10,38,2022-11-23 08:41:00.212,Kband
10,38,2022-11-23 08:42:00.242,Kband
10,38,2022-11-23 08:43:00.213,Kband
11,38,2022-11-23 08:44:00.235,Kband
11,38,2022-11-23 08:45:00.169,Kband
10,38,2022-11-23 08:46:00.156,Kband
11,38,2022-11-23 08:47:00.282,Kband
11,38,2022-11-23 08:48:00.199,Kband
11,38,2022-11-23 08:49:00.167,Kband
10,38,2022-11-23 08:50:00.176,Kband
11,38,2022-11-23 08:51:00.257,Kband
10,38,2022-11-23 08:52:00.176,Kband
9,38,2022-11-23 08:53:00.201,Kband
11,38,2022-11-23 08:54:00.304,Kband
11,38,2022-11-23 08:55:00.172,Kband
10,38,2022-11-23 08:56:00.410,Kband
10,38,2022-11-23 08:57:00.253,Kband
11,38,2022-11-23 08:58:00.230,Kband
10,38,2022-11-23 08:59:00.269,Kband
11,38,2022-11-23 09:00:00.218,Kband
10,38,2022-11-23 09:01:00.314,Kband
10,38,2022-11-23 09:02:00.257,Kband
10,38,2022-11-23 09:03:00.259,Kband
12,38,2022-11-23 09:04:00.233,Kband
11,38,2022-11-23 09:05:00.269,Kband
11,38,2022-11-23 09:06:00.244,Kband
12,38,2022-11-23 09:07:00.277,Kband
12,38,2022-11-23 09:08:00.261,Kband
12,38,2022-11-23 09:09:00.211,Kband
12,38,2022-11-23 09:10:00.258,Kband
12,38,2022-11-23 09:11:00.290,Kband
10,38,2022-11-23 09:12:00.244,Kband
9,38,2022-11-23 09:13:00.256,Kband
10,38,2022-11-23 09:14:00.221,Kband
9,38,2022-11-23 09:15:00.304,Kband
9,38,2022-11-23 09:16:00.237,Kband
9,38,2022-11-23 09:17:00.226,Kband
10,38,2022-11-23 09:18:00.262,Kband
10,38,2022-11-23 09:19:00.237,Kband
10,38,2022-11-23 09:20:00.215,Kband
10,38,2022-11-23 09:21:00.190,Kband
9,38,2022-11-23 09:22:00.221,Kband
10,38,2022-11-23 09:23:00.190,Kband
10,38,2022-11-23 09:24:00.232,Kband
9,38,2022-11-23 09:25:00.224,Kband
10,38,2022-11-23 09:26:00.214,Kband
9,38,2022-11-23 09:27:00.237,Kband
10,38,2022-11-23 09:28:00.302,Kband
10,38,2022-11-23 09:29:00.265,Kband
9,38,2022-11-23 09:30:00.175,Kband
10,38,2022-11-23 09:31:00.165,Kband
10,38,2022-11-23 09:32:00.308,Kband
10,38,2022-11-23 09:33:00.258,Kband
10,38,2022-11-23 09:34:00.217,Kband
10,38,2022-11-23 09:35:00.202,Kband
9,38,2022-11-23 09:36:00.167,Kband
10,38,2022-11-23 09:37:00.253,Kband
9,38,2022-11-23 09:38:00.198,Kband
9,38,2022-11-23 09:39:00.217,Kband
10,38,2022-11-23 09:40:00.237,Kband
10,38,2022-11-23 09:41:00.265,Kband
10,38,2022-11-23 09:42:00.271,Kband
10,38,2022-11-23 09:43:00.218,Kband
10,38,2022-11-23 09:44:00.189,Kband
10,38,2022-11-23 09:45:00.230,Kband
10,38,2022-11-23 09:46:00.171,Kband
10,38,2022-11-23 09:47:00.275,Kband
9,38,2022-11-23 09:48:00.237,Kband
10,38,2022-11-23 09:49:00.253,Kband
10,38,2022-11-23 09:50:00.276,Kband
10,38,2022-11-23 09:51:00.255,Kband
10,38,2022-11-23 09:52:00.230,Kband
10,38,2022-11-23 09:53:00.168,Kband
9,38,2022-11-23 09:54:00.206,Kband
11,38,2022-11-23 09:55:00.291,Kband
10,38,2022-11-23 09:56:00.306,Kband
10,38,2022-11-23 09:57:00.218,Kband
10,38,2022-11-23 09:58:00.299,Kband
11,38,2022-11-23 09:59:00.195,Kband
10,38,2022-11-23 10:00:00.275,Kband
10,38,2022-11-23 10:01:00.254,Kband
11,38,2022-11-23 10:02:00.192,Kband
10,38,2022-11-23 10:03:00.217,Kband
10,38,2022-11-23 10:04:00.255,Kband
11,38,2022-11-23 10:05:00.298,Kband
12,38,2022-11-23 10:06:00.184,Kband
12,38,2022-11-23 10:07:00.258,Kband
11,38,2022-11-23 10:08:00.271,Kband
11,38,2022-11-23 10:09:00.252,Kband
11,38,2022-11-23 10:10:00.235,Kband
10,38,2022-11-23 10:11:00.280,Kband
10,38,2022-11-23 10:12:00.247,Kband
9,38,2022-11-23 10:13:00.330,Kband
10,38,2022-11-23 10:14:00.315,Kband
10,38,2022-11-23 10:15:00.242,Kband
10,38,2022-11-23 10:16:00.313,Kband
9,38,2022-11-23 10:17:00.260,Kband
10,38,2022-11-23 10:18:00.190,Kband
10,38,2022-11-23 10:19:00.218,Kband
10,38,2022-11-23 10:20:00.251,Kband
10,38,2022-11-23 10:21:00.294,Kband
10,38,2022-11-23 10:22:00.234,Kband
9,38,2022-11-23 10:23:00.171,Kband
10,38,2022-11-23 10:24:00.211,Kband
10,38,2022-11-23 10:25:00.305,Kband
10,38,2022-11-23 10:26:00.271,Kband
10,38,2022-11-23 10:27:00.284,Kband
10,38,2022-11-23 10:28:00.254,Kband
10,38,2022-11-23 10:29:00.268,Kband
10,38,2022-11-23 10:30:00.306,Kband
9,38,2022-11-23 10:31:00.270,Kband
11,38,2022-11-23 10:32:00.242,Kband
10,38,2022-11-23 10:33:00.167,Kband
10,38,2022-11-23 10:34:00.364,Kband
11,38,2022-11-23 10:35:00.297,Kband
10,38,2022-11-23 10:36:00.218,Kband
11,38,2022-11-23 10:37:00.257,Kband
10,38,2022-11-23 10:38:00.225,Kband
11,38,2022-11-23 10:39:00.231,Kband
10,38,2022-11-23 10:40:00.261,Kband
10,38,2022-11-23 10:41:00.281,Kband
10,38,2022-11-23 10:42:00.305,Kband
10,38,2022-11-23 10:43:00.305,Kband
10,38,2022-11-23 10:44:00.267,Kband
11,38,2022-11-23 10:45:00.198,Kband
11,38,2022-11-23 10:46:00.225,Kband
11,38,2022-11-23 10:47:00.184,Kband
12,38,2022-11-23 10:48:00.309,Kband
12,38,2022-11-23 10:49:00.226,Kband
10,38,2022-11-23 10:50:00.200,Kband
10,38,2022-11-23 10:51:00.236,Kband
10,38,2022-11-23 10:52:00.261,Kband
10,38,2022-11-23 10:53:00.278,Kband
10,38,2022-11-23 10:54:00.195,Kband
10,38,2022-11-23 10:55:00.240,Kband
10,38,2022-11-23 10:56:00.312,Kband
11,38,2022-11-23 10:57:00.308,Kband
9,38,2022-11-23 10:58:00.276,Kband
10,38,2022-11-23 10:59:00.272,Kband
10,38,2022-11-23 11:00:00.207,Kband
9,38,2022-11-23 11:01:00.247,Kband
10,38,2022-11-23 11:02:00.188,Kband
9,38,2022-11-23 11:03:00.305,Kband
10,38,2022-11-23 11:04:00.180,Kband
10,38,2022-11-23 11:05:00.307,Kband
10,38,2022-11-23 11:06:00.214,Kband
10,38,2022-11-23 11:07:00.285,Kband
11,38,2022-11-23 11:08:00.283,Kband
10,38,2022-11-23 11:09:00.238,Kband
11,38,2022-11-23 11:10:00.308,Kband
10,38,2022-11-23 11:11:00.294,Kband
10,38,2022-11-23 11:12:00.255,Kband
11,38,2022-11-23 11:13:00.307,Kband
11,38,2022-11-23 11:14:00.246,Kband
10,38,2022-11-23 11:15:00.301,Kband
11,38,2022-11-23 11:16:00.230,Kband
10,38,2022-11-23 11:17:00.307,Kband
10,38,2022-11-23 11:18:00.284,Kband
11,38,2022-11-23 11:19:00.251,Kband
10,38,2022-11-23 11:20:00.271,Kband
11,38,2022-11-23 11:21:00.289,Kband
11,38,2022-11-23 11:22:00.275,Kband
11,38,2022-11-23 11:23:00.265,Kband
10,38,2022-11-23 11:24:00.259,Kband
10,38,2022-11-23 11:25:00.233,Kband
10,38,2022-11-23 11:26:00.239,Kband
10,38,2022-11-23 11:27:00.251,Kband
10,38,2022-11-23 11:28:00.218,Kband
10,38,2022-11-23 11:29:00.203,Kband
10,38,2022-11-23 11:30:00.213,Kband
10,38,2022-11-23 11:31:00.262,Kband
10,38,2022-11-23 11:32:00.220,Kband
10,38,2022-11-23 11:33:00.271,Kband
11,38,2022-11-23 11:34:00.247,Kband
11,38,2022-11-23 11:35:00.200,Kband
11,38,2022-11-23 11:36:00.214,Kband
10,38,2022-11-23 11:37:00.205,Kband
9,38,2022-11-23 11:38:00.312,Kband
11,38,2022-11-23 11:39:00.309,Kband
12,38,2022-11-23 11:40:00.214,Kband
12,38,2022-11-23 11:41:00.394,Kband
12,38,2022-11-23 11:42:00.307,Kband
11,38,2022-11-23 11:43:00.285,Kband
10,38,2022-11-23 11:44:00.246,Kband
10,38,2022-11-23 11:45:00.229,Kband
10,38,2022-11-23 11:46:00.303,Kband
10,38,2022-11-23 11:47:00.229,Kband
11,38,2022-11-23 11:48:00.287,Kband
10,38,2022-11-23 11:49:00.203,Kband
10,38,2022-11-23 11:50:00.252,Kband
10,38,2022-11-23 11:51:00.261,Kband
10,38,2022-11-23 11:52:00.254,Kband
10,38,2022-11-23 11:53:00.288,Kband
10,38,2022-11-23 11:54:00.290,Kband
10,38,2022-11-23 11:55:00.162,Kband
10,38,2022-11-23 11:56:00.310,Kband
11,38,2022-11-23 11:57:00.208,Kband
11,38,2022-11-23 11:58:00.292,Kband
11,38,2022-11-23 11:59:00.254,Kband
12,38,2022-11-23 12:00:00.203,Kband
11,38,2022-11-23 12:01:00.326,Kband
10,38,2022-11-23 12:02:00.183,Kband
9,38,2022-11-23 12:03:00.236,Kband
10,38,2022-11-23 12:04:00.266,Kband
10,38,2022-11-23 12:05:00.289,Kband
9,38,2022-11-23 12:06:00.295,Kband
9,38,2022-11-23 12:07:00.258,Kband
9,38,2022-11-23 12:08:00.210,Kband
10,38,2022-11-23 12:09:00.252,Kband
10,38,2022-11-23 12:10:00.235,Kband
10,38,2022-11-23 12:11:00.268,Kband
11,38,2022-11-23 12:12:00.258,Kband
11,38,2022-11-23 12:13:00.221,Kband
11,38,2022-11-23 12:14:00.348,Kband
11,38,2022-11-23 12:15:00.242,Kband
9,38,2022-11-23 12:16:00.300,Kband
10,38,2022-11-23 12:17:00.383,Kband
11,38,2022-11-23 12:18:00.228,Kband
10,38,2022-11-23 12:19:00.192,Kband
11,38,2022-11-23 12:20:00.221,Kband
11,38,2022-11-23 12:21:00.310,Kband
10,38,2022-11-23 12:22:00.214,Kband
9,38,2022-11-23 12:23:00.317,Kband
10,38,2022-11-23 12:24:00.212,Kband
10,38,2022-11-23 12:25:00.256,Kband
9,38,2022-11-23 12:26:00.288,Kband
11,38,2022-11-23 12:27:00.288,Kband
10,38,2022-11-23 12:28:00.233,Kband
10,38,2022-11-23 12:29:00.303,Kband
11,38,2022-11-23 12:30:00.250,Kband
11,38,2022-11-23 12:31:00.200,Kband
11,38,2022-11-23 12:32:00.249,Kband
10,38,2022-11-23 12:33:00.269,Kband
10,38,2022-11-23 12:34:00.314,Kband
10,38,2022-11-23 12:35:00.245,Kband
10,38,2022-11-23 12:36:00.249,Kband
11,38,2022-11-23 12:37:00.297,Kband
10,38,2022-11-23 12:38:00.231,Kband
10,38,2022-11-23 12:39:00.275,Kband
10,38,2022-11-23 12:40:00.263,Kband
9,38,2022-11-23 12:41:00.230,Kband
11,38,2022-11-23 12:42:00.242,Kband
11,38,2022-11-23 12:43:00.305,Kband
9,38,2022-11-23 12:44:00.249,Kband
10,38,2022-11-23 12:45:00.263,Kband
9,38,2022-11-23 12:46:00.280,Kband
10,38,2022-11-23 12:47:00.229,Kband
10,38,2022-11-23 12:48:00.225,Kband
11,38,2022-11-23 12:49:00.256,Kband
9,38,2022-11-23 12:50:00.293,Kband
9,38,2022-11-23 12:51:00.276,Kband
10,38,2022-11-23 12:52:00.285,Kband
10,38,2022-11-23 12:53:00.269,Kband
10,38,2022-11-23 12:54:00.311,Kband
11,38,2022-11-23 12:55:00.226,Kband
10,38,2022-11-23 12:56:00.254,Kband
10,38,2022-11-23 12:57:00.299,Kband
10,38,2022-11-23 12:58:00.214,Kband
10,38,2022-11-23 12:59:00.280,Kband
10,38,2022-11-23 13:00:00.349,Kband
10,38,2022-11-23 13:01:00.225,Kband
10,38,2022-11-23 13:02:00.249,Kband
11,38,2022-11-23 13:03:00.230,Kband
10,38,2022-11-23 13:04:00.296,Kband
11,38,2022-11-23 13:05:00.280,Kband
10,38,2022-11-23 13:06:00.289,Kband
10,38,2022-11-23 13:07:00.230,Kband
10,38,2022-11-23 13:08:00.248,Kband
9,38,2022-11-23 13:09:00.217,Kband
10,38,2022-11-23 13:10:00.292,Kband
11,38,2022-11-23 13:11:00.280,Kband
10,38,2022-11-23 13:12:00.259,Kband
10,38,2022-11-23 13:13:00.292,Kband
10,38,2022-11-23 13:14:00.244,Kband
11,38,2022-11-23 13:15:00.227,Kband
11,38,2022-11-23 13:16:00.250,Kband
10,38,2022-11-23 13:17:00.263,Kband
11,38,2022-11-23 13:18:00.200,Kband
10,38,2022-11-23 13:19:00.244,Kband
9,38,2022-11-23 13:20:00.338,Kband
10,38,2022-11-23 13:21:00.256,Kband
9,38,2022-11-23 13:22:00.218,Kband
11,38,2022-11-23 13:23:00.257,Kband
10,38,2022-11-23 13:24:00.238,Kband
11,38,2022-11-23 13:25:00.239,Kband
11,38,2022-11-23 13:26:00.217,Kband
11,38,2022-11-23 13:27:00.266,Kband
13,38,2022-11-23 13:28:00.265,Kband
12,38,2022-11-23 13:29:00.233,Kband
12,38,2022-11-23 13:30:00.354,Kband
12,38,2022-11-23 13:31:00.288,Kband
11,38,2022-11-23 13:32:00.297,Kband
11,38,2022-11-23 13:33:00.214,Kband
11,38,2022-11-23 13:34:00.298,Kband
11,38,2022-11-23 13:35:00.292,Kband
12,38,2022-11-23 13:36:00.272,Kband
10,38,2022-11-23 13:37:00.152,Kband
10,38,2022-11-23 13:38:00.293,Kband
9,38,2022-11-23 13:39:00.235,Kband
10,38,2022-11-23 13:40:00.293,Kband
10,38,2022-11-23 13:41:00.232,Kband
10,38,2022-11-23 13:42:00.280,Kband
9,38,2022-11-23 13:43:00.262,Kband
10,38,2022-11-23 13:44:00.230,Kband
9,38,2022-11-23 13:45:00.250,Kband
10,38,2022-11-23 13:46:00.199,Kband
10,38,2022-11-23 13:47:00.258,Kband
10,38,2022-11-23 13:48:00.281,Kband
9,38,2022-11-23 13:49:00.275,Kband
10,38,2022-11-23 13:50:00.276,Kband
10,38,2022-11-23 13:51:00.268,Kband
10,38,2022-11-23 13:52:00.319,Kband
10,38,2022-11-23 13:53:00.229,Kband
10,38,2022-11-23 13:54:00.298,Kband
10,38,2022-11-23 13:55:00.216,Kband
10,38,2022-11-23 13:56:00.307,Kband
9,38,2022-11-23 13:57:00.317,Kband
10,38,2022-11-23 13:58:00.248,Kband
10,38,2022-11-23 13:59:00.238,Kband
10,38,2022-11-23 14:00:00.181,Kband
10,38,2022-11-23 14:01:00.213,Kband
10,38,2022-11-23 14:02:00.195,Kband
11,38,2022-11-23 14:03:00.310,Kband
10,38,2022-11-23 14:04:00.222,Kband
11,38,2022-11-23 14:05:00.293,Kband
11,38,2022-11-23 14:06:00.248,Kband
10,38,2022-11-23 14:07:00.243,Kband
10,38,2022-11-23 14:08:00.259,Kband
10,38,2022-11-23 14:09:00.282,Kband
9,38,2022-11-23 14:10:00.243,Kband
11,38,2022-11-23 14:11:00.276,Kband
10,38,2022-11-23 14:12:00.206,Kband
10,38,2022-11-23 14:13:00.299,Kband
10,38,2022-11-23 14:14:00.187,Kband
10,38,2022-11-23 14:15:00.290,Kband
10,38,2022-11-23 14:16:00.296,Kband
10,38,2022-11-23 14:17:00.290,Kband
10,38,2022-11-23 14:18:00.251,Kband
11,38,2022-11-23 14:19:00.250,Kband
10,38,2022-11-23 14:20:00.294,Kband
10,38,2022-11-23 14:21:00.249,Kband
10,38,2022-11-23 14:22:00.207,Kband
10,38,2022-11-23 14:23:00.292,Kband
11,38,2022-11-23 14:24:00.266,Kband
10,38,2022-11-23 14:25:00.258,Kband
9,38,2022-11-23 14:26:00.277,Kband
10,38,2022-11-23 14:27:00.230,Kband
11,38,2022-11-23 14:28:00.289,Kband
11,38,2022-11-23 14:29:00.176,Kband
10,38,2022-11-23 14:30:00.219,Kband
9,38,2022-11-23 14:31:00.280,Kband
11,38,2022-11-23 14:32:00.257,Kband
11,38,2022-11-23 14:33:00.296,Kband
9,38,2022-11-23 14:34:00.231,Kband
11,38,2022-11-23 14:35:00.270,Kband
10,38,2022-11-23 14:36:00.296,Kband
11,38,2022-11-23 14:37:00.344,Kband
10,38,2022-11-23 14:38:00.280,Kband
11,38,2022-11-23 14:39:00.230,Kband
12,38,2022-11-23 14:40:00.249,Kband
11,38,2022-11-23 14:41:00.278,Kband
12,38,2022-11-23 14:42:00.306,Kband
10,38,2022-11-23 14:43:00.190,Kband
11,38,2022-11-23 14:44:00.236,Kband
9,38,2022-11-23 14:45:00.260,Kband
10,38,2022-11-23 14:46:00.153,Kband
10,38,2022-11-23 14:47:00.151,Kband
9,38,2022-11-23 14:48:00.217,Kband
10,38,2022-11-23 14:49:00.180,Kband
10,38,2022-11-23 14:50:00.281,Kband
9,38,2022-11-23 14:51:00.250,Kband
10,38,2022-11-23 14:52:00.242,Kband
10,38,2022-11-23 14:53:00.229,Kband
9,38,2022-11-23 14:54:00.216,Kband
10,38,2022-11-23 14:55:00.300,Kband
10,38,2022-11-23 14:56:00.170,Kband
10,38,2022-11-23 14:57:00.296,Kband
10,38,2022-11-23 14:58:00.259,Kband
9,38,2022-11-23 14:59:00.201,Kband
10,38,2022-11-23 15:00:00.302,Kband
10,38,2022-11-23 15:01:00.212,Kband
10,38,2022-11-23 15:02:00.295,Kband
10,38,2022-11-23 15:03:00.272,Kband
10,38,2022-11-23 15:04:00.322,Kband
11,38,2022-11-23 15:05:00.275,Kband
10,38,2022-11-23 15:06:00.275,Kband
11,38,2022-11-23 15:07:00.245,Kband
10,38,2022-11-23 15:08:00.280,Kband
10,38,2022-11-23 15:09:00.260,Kband
10,38,2022-11-23 15:10:00.241,Kband
10,38,2022-11-23 15:11:00.263,Kband
11,38,2022-11-23 15:12:00.307,Kband
10,38,2022-11-23 15:13:00.255,Kband
10,38,2022-11-23 15:14:00.283,Kband
10,38,2022-11-23 15:15:00.294,Kband
10,38,2022-11-23 15:16:00.353,Kband
11,38,2022-11-23 15:17:00.299,Kband
11,38,2022-11-23 15:18:00.274,Kband
11,38,2022-11-23 15:19:00.220,Kband
10,38,2022-11-23 15:20:00.273,Kband
11,38,2022-11-23 15:21:00.307,Kband
10,38,2022-11-23 15:22:00.236,Kband
11,38,2022-11-23 15:23:00.282,Kband
10,38,2022-11-23 15:24:00.267,Kband
11,38,2022-11-23 15:25:00.308,Kband
11,38,2022-11-23 15:26:00.257,Kband
10,38,2022-11-23 15:27:00.225,Kband
10,38,2022-11-23 15:28:00.248,Kband
9,38,2022-11-23 15:29:00.218,Kband
11,38,2022-11-23 15:30:00.230,Kband
9,38,2022-11-23 15:31:00.253,Kband
10,38,2022-11-23 15:32:00.225,Kband
10,38,2022-11-23 15:33:00.261,Kband
11,38,2022-11-23 15:34:00.241,Kband
11,38,2022-11-23 15:35:00.229,Kband
11,38,2022-11-23 15:36:00.302,Kband
10,38,2022-11-23 15:37:00.275,Kband
10,38,2022-11-23 15:38:00.238,Kband
11,38,2022-11-23 15:39:00.213,Kband
11,38,2022-11-23 15:40:00.292,Kband
11,38,2022-11-23 15:41:00.280,Kband
12,38,2022-11-23 15:42:00.246,Kband
11,38,2022-11-23 15:43:00.212,Kband
11,38,2022-11-23 15:44:00.212,Kband
10,38,2022-11-23 15:45:00.196,Kband
11,38,2022-11-23 15:46:00.282,Kband
10,38,2022-11-23 15:47:00.149,Kband
11,38,2022-11-23 15:48:00.217,Kband
10,38,2022-11-23 15:49:00.325,Kband
9,38,2022-11-23 15:50:00.254,Kband
11,38,2022-11-23 15:51:00.253,Kband
11,38,2022-11-23 15:52:00.254,Kband
10,38,2022-11-23 15:53:00.207,Kband
11,38,2022-11-23 15:54:00.188,Kband
10,38,2022-11-23 15:55:00.317,Kband
10,38,2022-11-23 15:56:00.292,Kband
11,38,2022-11-23 15:57:00.203,Kband
10,38,2022-11-23 15:58:00.256,Kband
9,38,2022-11-23 15:59:00.281,Kband
11,38,2022-11-23 16:00:00.158,Kband
10,38,2022-11-23 16:01:00.304,Kband
11,38,2022-11-23 16:02:00.169,Kband
10,38,2022-11-23 16:03:00.196,Kband
11,38,2022-11-23 16:04:00.180,Kband
10,38,2022-11-23 16:05:00.257,Kband
11,38,2022-11-23 16:06:00.277,Kband
11,38,2022-11-23 16:07:00.254,Kband
10,38,2022-11-23 16:08:00.313,Kband
11,38,2022-11-23 16:09:00.231,Kband
11,38,2022-11-23 16:10:00.304,Kband
11,38,2022-11-23 16:11:00.226,Kband
10,38,2022-11-23 16:12:00.305,Kband
10,38,2022-11-23 16:13:00.261,Kband
11,38,2022-11-23 16:14:00.218,Kband
10,38,2022-11-23 16:15:00.253,Kband
11,38,2022-11-23 16:16:00.291,Kband
10,38,2022-11-23 16:17:00.299,Kband
11,38,2022-11-23 16:18:00.272,Kband
11,38,2022-11-23 16:19:00.242,Kband
11,38,2022-11-23 16:20:00.297,Kband
12,38,2022-11-23 16:21:00.284,Kband
11,38,2022-11-23 16:22:00.266,Kband
11,38,2022-11-23 16:23:00.304,Kband
10,38,2022-11-23 16:24:00.268,Kband
10,38,2022-11-23 16:25:00.262,Kband
10,38,2022-11-23 16:26:00.302,Kband
10,38,2022-11-23 16:27:00.230,Kband
10,38,2022-11-23 16:28:00.253,Kband
10,38,2022-11-23 16:29:00.203,Kband
10,38,2022-11-23 16:30:00.253,Kband
10,38,2022-11-23 16:31:00.220,Kband
10,38,2022-11-23 16:32:00.222,Kband
10,38,2022-11-23 16:33:00.259,Kband
11,38,2022-11-23 16:34:00.244,Kband
11,38,2022-11-23 16:35:00.216,Kband
10,38,2022-11-23 16:36:00.307,Kband
10,38,2022-11-23 16:37:00.277,Kband
10,38,2022-11-23 16:38:00.214,Kband
10,38,2022-11-23 16:39:00.249,Kband
10,38,2022-11-23 16:40:00.313,Kband
10,38,2022-11-23 16:41:00.206,Kband
10,38,2022-11-23 16:42:00.216,Kband
10,38,2022-11-23 16:43:00.202,Kband
10,38,2022-11-23 16:44:00.238,Kband
10,38,2022-11-23 16:45:00.207,Kband
11,38,2022-11-23 16:46:00.227,Kband
11,38,2022-11-23 16:47:00.250,Kband
10,38,2022-11-23 16:48:00.218,Kband
11,38,2022-11-23 16:49:00.263,Kband
10,38,2022-11-23 16:50:00.255,Kband
10,38,2022-11-23 16:51:00.204,Kband
11,38,2022-11-23 16:52:00.242,Kband
10,39,2022-11-23 16:53:00.245,Kband
11,38,2022-11-23 16:54:00.175,Kband
10,38,2022-11-23 16:55:00.299,Kband
10,38,2022-11-23 16:56:00.268,Kband
11,38,2022-11-23 16:57:00.181,Kband
10,38,2022-11-23 16:58:00.312,Kband
11,38,2022-11-23 16:59:00.237,Kband
10,38,2022-11-23 17:00:00.299,Kband
11,38,2022-11-23 17:01:00.211,Kband
10,38,2022-11-23 17:02:00.260,Kband
11,38,2022-11-23 17:03:00.233,Kband
10,38,2022-11-23 17:04:00.263,Kband
10,38,2022-11-23 17:05:00.298,Kband
10,38,2022-11-23 17:06:00.252,Kband
11,38,2022-11-23 17:07:00.309,Kband
10,38,2022-11-23 17:08:00.229,Kband
10,38,2022-11-23 17:09:00.308,Kband
11,38,2022-11-23 17:10:00.253,Kband
10,38,2022-11-23 17:11:00.299,Kband
11,38,2022-11-23 17:12:00.266,Kband
10,38,2022-11-23 17:13:00.252,Kband
11,38,2022-11-23 17:14:00.263,Kband
10,38,2022-11-23 17:15:00.194,Kband
10,38,2022-11-23 17:16:00.297,Kband
9,38,2022-11-23 17:17:00.230,Kband
11,38,2022-11-23 17:18:00.249,Kband
10,38,2022-11-23 17:19:00.259,Kband
10,38,2022-11-23 17:20:00.259,Kband
10,38,2022-11-23 17:21:00.255,Kband
11,38,2022-11-23 17:22:00.294,Kband
10,39,2022-11-23 17:23:00.245,Kband
10,38,2022-11-23 17:24:00.290,Kband
10,38,2022-11-23 17:25:00.232,Kband
11,38,2022-11-23 17:26:00.290,Kband
11,38,2022-11-23 17:27:00.303,Kband
11,38,2022-11-23 17:28:00.200,Kband
11,38,2022-11-23 17:29:00.351,Kband
12,38,2022-11-23 17:30:00.262,Kband
12,38,2022-11-23 17:31:00.300,Kband
12,38,2022-11-23 17:32:00.224,Kband
12,38,2022-11-23 17:33:00.282,Kband
12,38,2022-11-23 17:34:00.308,Kband
12,38,2022-11-23 17:35:00.231,Kband
10,38,2022-11-23 17:36:00.213,Kband
11,38,2022-11-23 17:37:00.247,Kband
9,38,2022-11-23 17:38:00.293,Kband
10,38,2022-11-23 17:39:00.196,Kband
9,38,2022-11-23 17:40:00.219,Kband
11,38,2022-11-23 17:41:00.257,Kband
10,38,2022-11-23 17:42:00.226,Kband
10,38,2022-11-23 17:43:00.243,Kband
10,38,2022-11-23 17:44:00.246,Kband
10,38,2022-11-23 17:45:00.306,Kband
10,38,2022-11-23 17:46:00.247,Kband
10,38,2022-11-23 17:47:00.209,Kband
10,38,2022-11-23 17:48:00.311,Kband
10,38,2022-11-23 17:49:00.222,Kband
10,38,2022-11-23 17:50:00.274,Kband
10,38,2022-11-23 17:51:00.257,Kband
11,38,2022-11-23 17:52:00.299,Kband
10,38,2022-11-23 17:53:00.255,Kband
11,38,2022-11-23 17:54:00.218,Kband
10,38,2022-11-23 17:55:00.292,Kband
10,38,2022-11-23 17:56:00.316,Kband
10,38,2022-11-23 17:57:00.271,Kband
11,38,2022-11-23 17:58:00.254,Kband
11,38,2022-11-23 17:59:00.233,Kband
10,38,2022-11-23 18:00:00.314,Kband
10,38,2022-11-23 18:01:00.296,Kband
10,38,2022-11-23 18:02:00.281,Kband
10,38,2022-11-23 18:03:00.271,Kband
10,38,2022-11-23 18:04:00.181,Kband
11,38,2022-11-23 18:05:00.301,Kband
10,38,2022-11-23 18:06:00.288,Kband
11,38,2022-11-23 18:07:00.271,Kband
10,38,2022-11-23 18:08:00.405,Kband
10,38,2022-11-23 18:09:00.229,Kband
11,38,2022-11-23 18:10:00.299,Kband
10,38,2022-11-23 18:11:00.275,Kband
11,38,2022-11-23 18:12:00.308,Kband
10,38,2022-11-23 18:13:00.297,Kband
11,38,2022-11-23 18:14:00.203,Kband
10,38,2022-11-23 18:15:00.286,Kband
10,38,2022-11-23 18:16:00.203,Kband
11,38,2022-11-23 18:17:00.223,Kband
10,38,2022-11-23 18:18:00.289,Kband
11,38,2022-11-23 18:19:00.261,Kband
10,38,2022-11-23 18:20:00.279,Kband
11,38,2022-11-23 18:21:00.226,Kband
10,38,2022-11-23 18:22:00.285,Kband
11,38,2022-11-23 18:23:00.196,Kband
11,38,2022-11-23 18:24:00.175,Kband
11,38,2022-11-23 18:25:00.297,Kband
11,38,2022-11-23 18:26:00.235,Kband
10,38,2022-11-23 18:27:00.153,Kband
11,38,2022-11-23 18:28:00.274,Kband
10,38,2022-11-23 18:29:00.241,Kband
11,38,2022-11-23 18:30:00.281,Kband
11,38,2022-11-23 18:31:00.278,Kband
10,38,2022-11-23 18:32:00.275,Kband
11,38,2022-11-23 18:33:00.226,Kband
10,38,2022-11-23 18:34:00.210,Kband
10,38,2022-11-23 18:35:00.309,Kband
10,38,2022-11-23 18:36:00.244,Kband
10,38,2022-11-23 18:37:00.230,Kband
9,38,2022-11-23 18:38:00.320,Kband
9,38,2022-11-23 18:39:00.222,Kband
11,38,2022-11-23 18:40:00.289,Kband
10,38,2022-11-23 18:41:00.305,Kband
11,38,2022-11-23 18:42:00.276,Kband
10,38,2022-11-23 18:43:00.219,Kband
10,38,2022-11-23 18:44:00.172,Kband
10,38,2022-11-23 18:45:00.279,Kband
10,38,2022-11-23 18:46:00.263,Kband
11,38,2022-11-23 18:47:00.283,Kband
10,38,2022-11-23 18:48:00.212,Kband
11,38,2022-11-23 18:49:00.204,Kband
10,38,2022-11-23 18:50:00.241,Kband
11,38,2022-11-23 18:51:00.245,Kband
11,38,2022-11-23 18:52:00.296,Kband
11,38,2022-11-23 18:53:00.296,Kband
11,38,2022-11-23 18:54:00.273,Kband
10,38,2022-11-23 18:55:00.282,Kband
11,38,2022-11-23 18:56:00.310,Kband
11,38,2022-11-23 18:57:00.208,Kband
12,38,2022-11-23 18:58:00.296,Kband
12,38,2022-11-23 18:59:00.247,Kband
12,38,2022-11-23 19:00:00.338,Kband
11,38,2022-11-23 19:01:00.260,Kband
11,38,2022-11-23 19:02:00.164,Kband
11,38,2022-11-23 19:03:00.198,Kband
10,38,2022-11-23 19:04:00.308,Kband
11,38,2022-11-23 19:05:00.252,Kband
10,38,2022-11-23 19:06:00.249,Kband
10,38,2022-11-23 19:07:00.276,Kband
10,38,2022-11-23 19:08:00.300,Kband
10,38,2022-11-23 19:09:00.234,Kband
10,38,2022-11-23 19:10:00.272,Kband
11,38,2022-11-23 19:11:00.249,Kband
10,38,2022-11-23 19:12:00.289,Kband
10,38,2022-11-23 19:13:00.307,Kband
10,38,2022-11-23 19:14:00.227,Kband
11,38,2022-11-23 19:15:00.339,Kband
10,38,2022-11-23 19:16:00.306,Kband
10,38,2022-11-23 19:17:00.214,Kband
11,38,2022-11-23 19:18:00.300,Kband
9,38,2022-11-23 19:19:00.231,Kband
11,38,2022-11-23 19:20:00.402,Kband
9,38,2022-11-23 19:21:00.257,Kband
11,38,2022-11-23 19:22:00.253,Kband
9,38,2022-11-23 19:23:00.269,Kband
10,38,2022-11-23 19:24:00.255,Kband
10,38,2022-11-23 19:25:00.300,Kband
9,38,2022-11-23 19:26:00.296,Kband
11,38,2022-11-23 19:27:00.236,Kband
9,38,2022-11-23 19:28:00.241,Kband
11,38,2022-11-23 19:29:00.256,Kband
9,38,2022-11-23 19:30:00.213,Kband
10,38,2022-11-23 19:31:00.303,Kband
11,38,2022-11-23 19:32:00.184,Kband
10,38,2022-11-23 19:33:00.281,Kband
10,38,2022-11-23 19:34:00.234,Kband
9,38,2022-11-23 19:35:00.197,Kband
10,38,2022-11-23 19:36:00.304,Kband
10,38,2022-11-23 19:37:00.243,Kband
11,38,2022-11-23 19:38:00.271,Kband
10,38,2022-11-23 19:39:00.309,Kband
10,38,2022-11-23 19:40:00.283,Kband
10,38,2022-11-23 19:41:00.238,Kband
10,38,2022-11-23 19:42:00.299,Kband
11,38,2022-11-23 19:43:00.227,Kband
9,38,2022-11-23 19:44:00.309,Kband
10,38,2022-11-23 19:45:00.184,Kband
10,38,2022-11-23 19:46:00.235,Kband
10,38,2022-11-23 19:47:00.193,Kband
11,38,2022-11-23 19:48:00.313,Kband
10,38,2022-11-23 19:49:00.239,Kband
10,38,2022-11-23 19:50:00.272,Kband
10,38,2022-11-23 19:51:00.210,Kband
11,38,2022-11-23 19:52:00.253,Kband
11,38,2022-11-23 19:53:00.239,Kband
11,38,2022-11-23 19:54:00.230,Kband
11,38,2022-11-23 19:55:00.248,Kband
11,38,2022-11-23 19:56:00.380,Kband
12,38,2022-11-23 19:57:00.248,Kband
12,38,2022-11-23 19:58:00.241,Kband
11,38,2022-11-23 19:59:00.291,Kband
12,38,2022-11-23 20:00:00.253,Kband
11,38,2022-11-23 20:01:00.304,Kband
12,38,2022-11-23 20:02:00.217,Kband
12,38,2022-11-23 20:03:00.200,Kband
11,38,2022-11-23 20:04:00.230,Kband
12,38,2022-11-23 20:05:00.252,Kband
11,38,2022-11-23 20:06:00.292,Kband
11,38,2022-11-23 20:07:00.313,Kband
11,38,2022-11-23 20:08:00.240,Kband
11,38,2022-11-23 20:09:00.301,Kband
9,38,2022-11-23 20:10:00.247,Kband
11,38,2022-11-23 20:11:00.288,Kband
10,38,2022-11-23 20:12:00.272,Kband
10,38,2022-11-23 20:13:00.268,Kband
10,38,2022-11-23 20:14:00.252,Kband
11,38,2022-11-23 20:15:00.279,Kband
11,38,2022-11-23 20:16:00.294,Kband
10,38,2022-11-23 20:17:00.316,Kband
10,38,2022-11-23 20:18:00.188,Kband
10,38,2022-11-23 20:19:00.248,Kband
11,38,2022-11-23 20:20:00.219,Kband
11,38,2022-11-23 20:21:00.298,Kband
10,38,2022-11-23 20:22:00.272,Kband
11,38,2022-11-23 20:23:00.300,Kband
9,38,2022-11-23 20:24:00.289,Kband
11,38,2022-11-23 20:25:00.251,Kband
11,38,2022-11-23 20:26:00.218,Kband
10,38,2022-11-23 20:27:00.319,Kband
11,38,2022-11-23 20:28:00.241,Kband
10,38,2022-11-23 20:29:00.308,Kband
10,38,2022-11-23 20:30:00.246,Kband
11,38,2022-11-23 20:31:00.227,Kband
10,38,2022-11-23 20:32:00.315,Kband
11,38,2022-11-23 20:33:00.265,Kband
11,38,2022-11-23 20:34:00.290,Kband
10,38,2022-11-23 20:35:00.192,Kband
10,38,2022-11-23 20:36:00.258,Kband
11,38,2022-11-23 20:37:00.214,Kband
11,38,2022-11-23 20:38:00.224,Kband
11,38,2022-11-23 20:39:00.185,Kband
11,38,2022-11-23 20:40:00.288,Kband
11,38,2022-11-23 20:41:00.281,Kband
11,38,2022-11-23 20:42:00.183,Kband
11,38,2022-11-23 20:43:00.214,Kband
12,38,2022-11-23 20:44:00.224,Kband
11,38,2022-11-23 20:45:00.271,Kband
12,38,2022-11-23 20:46:00.252,Kband
11,38,2022-11-23 20:47:00.203,Kband
11,38,2022-11-23 20:48:00.254,Kband
10,38,2022-11-23 20:49:00.233,Kband
9,38,2022-11-23 20:50:00.255,Kband
10,38,2022-11-23 20:51:00.290,Kband
9,38,2022-11-23 20:52:00.280,Kband
10,38,2022-11-23 20:53:00.272,Kband
9,38,2022-11-23 20:54:00.221,Kband
11,38,2022-11-23 20:55:00.293,Kband
10,38,2022-11-23 20:56:00.305,Kband
11,38,2022-11-23 20:57:00.326,Kband
10,38,2022-11-23 20:58:00.411,Kband
10,38,2022-11-23 20:59:00.334,Kband
10,38,2022-11-23 21:00:00.214,Kband
10,38,2022-11-23 21:01:00.302,Kband
11,38,2022-11-23 21:02:00.230,Kband
10,38,2022-11-23 21:03:00.212,Kband
11,38,2022-11-23 21:04:00.243,Kband
10,38,2022-11-23 21:05:00.252,Kband
9,38,2022-11-23 21:06:00.310,Kband
11,38,2022-11-23 21:07:00.272,Kband
9,38,2022-11-23 21:08:00.257,Kband
11,38,2022-11-23 21:09:00.276,Kband
10,38,2022-11-23 21:10:00.202,Kband
9,38,2022-11-23 21:11:00.277,Kband
11,38,2022-11-23 21:12:00.295,Kband
9,38,2022-11-23 21:13:00.221,Kband
10,38,2022-11-23 21:14:00.314,Kband
11,38,2022-11-23 21:15:00.220,Kband
10,38,2022-11-23 21:16:00.316,Kband
11,38,2022-11-23 21:17:00.220,Kband
10,38,2022-11-23 21:18:00.312,Kband
10,38,2022-11-23 21:19:00.240,Kband
11,38,2022-11-23 21:20:00.265,Kband
11,38,2022-11-23 21:21:00.237,Kband
10,38,2022-11-23 21:22:00.223,Kband
11,38,2022-11-23 21:23:00.236,Kband
10,38,2022-11-23 21:24:00.195,Kband
11,38,2022-11-23 21:25:00.292,Kband
11,38,2022-11-23 21:26:00.231,Kband
11,38,2022-11-23 21:27:00.284,Kband
12,38,2022-11-23 21:28:00.208,Kband
11,38,2022-11-23 21:29:00.232,Kband
11,38,2022-11-23 21:30:00.224,Kband
11,38,2022-11-23 21:31:00.232,Kband
12,38,2022-11-23 21:32:00.222,Kband
12,38,2022-11-23 21:33:00.402,Kband
12,38,2022-11-23 21:34:00.232,Kband
11,38,2022-11-23 21:35:00.302,Kband
11,38,2022-11-23 21:36:00.219,Kband
10,38,2022-11-23 21:37:00.304,Kband
10,38,2022-11-23 21:38:00.214,Kband
10,38,2022-11-23 21:39:00.287,Kband
11,38,2022-11-23 21:40:00.213,Kband
10,38,2022-11-23 21:41:00.249,Kband
10,38,2022-11-23 21:42:00.261,Kband
10,38,2022-11-23 21:43:00.276,Kband
10,38,2022-11-23 21:44:00.222,Kband
10,38,2022-11-23 21:45:00.254,Kband
10,38,2022-11-23 21:46:00.232,Kband
10,38,2022-11-23 21:47:00.307,Kband
11,38,2022-11-23 21:48:00.321,Kband
10,38,2022-11-23 21:49:00.296,Kband
11,38,2022-11-23 21:50:00.191,Kband
10,38,2022-11-23 21:51:00.307,Kband
11,38,2022-11-23 21:52:00.192,Kband
10,38,2022-11-23 21:53:00.233,Kband
11,38,2022-11-23 21:54:00.219,Kband
10,38,2022-11-23 21:55:00.196,Kband
11,38,2022-11-23 21:56:00.279,Kband
10,38,2022-11-23 21:57:00.301,Kband
10,38,2022-11-23 21:58:00.225,Kband
11,38,2022-11-23 21:59:00.359,Kband
10,38,2022-11-23 22:00:00.294,Kband
10,38,2022-11-23 22:01:00.184,Kband
11,38,2022-11-23 22:02:00.290,Kband
11,38,2022-11-23 22:03:00.213,Kband
10,38,2022-11-23 22:04:00.277,Kband
11,38,2022-11-23 22:05:00.303,Kband
11,38,2022-11-23 22:06:00.267,Kband
10,38,2022-11-23 22:07:00.334,Kband
11,38,2022-11-23 22:08:00.301,Kband
10,38,2022-11-23 22:09:00.202,Kband
10,38,2022-11-23 22:10:00.279,Kband
11,38,2022-11-23 22:11:00.271,Kband
10,38,2022-11-23 22:12:00.263,Kband
11,38,2022-11-23 22:13:00.219,Kband
11,38,2022-11-23 22:14:00.286,Kband
10,38,2022-11-23 22:15:00.304,Kband
11,38,2022-11-23 22:16:00.258,Kband
10,38,2022-11-23 22:17:00.300,Kband
11,38,2022-11-23 22:18:00.318,Kband
11,38,2022-11-23 22:19:00.260,Kband
11,38,2022-11-23 22:20:00.281,Kband
11,38,2022-11-23 22:21:00.255,Kband
11,38,2022-11-23 22:22:00.246,Kband
10,38,2022-11-23 22:23:00.272,Kband
10,38,2022-11-23 22:24:00.296,Kband
11,38,2022-11-23 22:25:00.226,Kband
10,38,2022-11-23 22:26:00.252,Kband
11,38,2022-11-23 22:27:00.263,Kband
11,38,2022-11-23 22:28:00.301,Kband
10,38,2022-11-23 22:29:00.273,Kband
11,38,2022-11-23 22:30:00.295,Kband
10,38,2022-11-23 22:31:00.297,Kband
11,38,2022-11-23 22:32:00.279,Kband
10,38,2022-11-23 22:33:00.231,Kband
10,38,2022-11-23 22:34:00.242,Kband
10,38,2022-11-23 22:35:00.225,Kband
10,38,2022-11-23 22:36:00.246,Kband
10,38,2022-11-23 22:37:00.175,Kband
9,38,2022-11-23 22:38:00.219,Kband
11,38,2022-11-23 22:39:00.252,Kband
10,38,2022-11-23 22:40:00.247,Kband
10,38,2022-11-23 22:41:00.179,Kband
11,38,2022-11-23 22:42:00.238,Kband
10,38,2022-11-23 22:43:00.309,Kband
11,38,2022-11-23 22:44:00.291,Kband
12,38,2022-11-23 22:45:00.280,Kband
11,38,2022-11-23 22:46:00.193,Kband
11,38,2022-11-23 22:47:00.236,Kband
11,38,2022-11-23 22:48:00.244,Kband
10,38,2022-11-23 22:49:00.311,Kband
11,38,2022-11-23 22:50:00.229,Kband
10,38,2022-11-23 22:51:00.241,Kband
10,38,2022-11-23 22:52:00.253,Kband
10,38,2022-11-23 22:53:00.277,Kband
11,38,2022-11-23 22:54:00.273,Kband
11,38,2022-11-23 22:55:00.301,Kband
10,38,2022-11-23 22:56:00.207,Kband
10,38,2022-11-23 22:57:00.251,Kband
11,38,2022-11-23 22:58:00.300,Kband
10,38,2022-11-23 22:59:00.270,Kband
10,38,2022-11-23 23:00:00.226,Kband
11,38,2022-11-23 23:01:00.192,Kband
10,38,2022-11-23 23:02:00.251,Kband
11,38,2022-11-23 23:03:00.312,Kband
10,38,2022-11-23 23:04:00.194,Kband
10,38,2022-11-23 23:05:00.285,Kband
11,38,2022-11-23 23:06:00.256,Kband
10,38,2022-11-23 23:07:00.303,Kband
11,38,2022-11-23 23:08:00.272,Kband
10,38,2022-11-23 23:09:00.304,Kband
10,38,2022-11-23 23:10:00.228,Kband
11,38,2022-11-23 23:11:00.314,Kband
11,38,2022-11-23 23:12:00.323,Kband
11,38,2022-11-23 23:13:00.303,Kband
11,38,2022-11-23 23:14:00.300,Kband
11,38,2022-11-23 23:15:00.247,Kband
12,38,2022-11-23 23:16:00.304,Kband
11,38,2022-11-23 23:17:00.231,Kband
11,38,2022-11-23 23:18:00.210,Kband
11,38,2022-11-23 23:19:00.260,Kband
11,38,2022-11-23 23:20:00.287,Kband
11,38,2022-11-23 23:21:00.264,Kband
11,38,2022-11-23 23:22:00.249,Kband
10,38,2022-11-23 23:23:00.285,Kband
11,38,2022-11-23 23:24:00.254,Kband
10,38,2022-11-23 23:25:00.239,Kband
11,38,2022-11-23 23:26:00.276,Kband
11,38,2022-11-23 23:27:00.269,Kband
10,38,2022-11-23 23:28:00.234,Kband
10,38,2022-11-23 23:29:00.233,Kband
11,38,2022-11-23 23:30:00.217,Kband
10,38,2022-11-23 23:31:00.220,Kband
11,38,2022-11-23 23:32:00.207,Kband
11,38,2022-11-23 23:33:00.312,Kband
11,38,2022-11-23 23:34:00.233,Kband
11,38,2022-11-23 23:35:00.185,Kband
11,38,2022-11-23 23:36:00.354,Kband
12,38,2022-11-23 23:37:00.284,Kband
11,38,2022-11-23 23:38:00.259,Kband
10,38,2022-11-23 23:39:00.296,Kband
11,38,2022-11-23 23:40:00.270,Kband
12,38,2022-11-23 23:41:00.164,Kband
11,38,2022-11-23 23:42:00.221,Kband
11,38,2022-11-23 23:43:00.305,Kband
10,38,2022-11-23 23:44:00.280,Kband
10,38,2022-11-23 23:45:00.316,Kband
11,38,2022-11-23 23:46:00.292,Kband
10,38,2022-11-23 23:47:00.223,Kband
11,38,2022-11-23 23:48:00.211,Kband
10,38,2022-11-23 23:49:00.217,Kband
11,38,2022-11-23 23:50:00.305,Kband
11,38,2022-11-23 23:51:00.329,Kband
10,38,2022-11-23 23:52:00.259,Kband
11,38,2022-11-23 23:53:00.230,Kband
11,38,2022-11-23 23:54:00.313,Kband
10,38,2022-11-23 23:55:00.163,Kband
10,38,2022-11-23 23:56:00.305,Kband
11,38,2022-11-23 23:57:00.300,Kband
10,38,2022-11-23 23:58:00.212,Kband
11,38,2022-11-23 23:59:00.215,Kband
