Humid,Temp,date,sensorName
42,22,2022-12-30 00:00:00.014,Visalar
42,22,2022-12-30 00:01:00.064,Visalar
43,22,2022-12-30 00:02:00.064,Visalar
43,22,2022-12-30 00:03:00.063,Visalar
43,22,2022-12-30 00:04:00.065,Visalar
43,22,2022-12-30 00:05:00.057,Visalar
43,22,2022-12-30 00:06:00.047,Visalar
43,22,2022-12-30 00:07:00.062,Visalar
53,21,2022-12-30 00:08:00.064,Visalar
53,21,2022-12-30 00:09:00.058,Visalar
53,21,2022-12-30 00:10:00.064,Visalar
53,21,2022-12-30 00:11:00.061,Visalar
53,21,2022-12-30 00:12:00.037,Visalar
53,21,2022-12-30 00:13:00.021,Visalar
53,21,2022-12-30 00:14:00.009,Visalar
53,21,2022-12-30 00:15:00.006,Visalar
53,21,2022-12-30 00:16:00.065,Visalar
53,21,2022-12-30 00:17:00.055,Visalar
53,21,2022-12-30 00:18:00.065,Visalar
53,21,2022-12-30 00:19:00.065,Visalar
53,21,2022-12-30 00:20:00.064,Visalar
53,21,2022-12-30 00:21:00.065,Visalar
53,21,2022-12-30 00:22:00.065,Visalar
53,21,2022-12-30 00:23:00.064,Visalar
53,21,2022-12-30 00:24:00.064,Visalar
53,21,2022-12-30 00:25:00.064,Visalar
53,21,2022-12-30 00:26:00.064,Visalar
53,21,2022-12-30 00:27:00.063,Visalar
53,21,2022-12-30 00:28:00.064,Visalar
53,21,2022-12-30 00:29:00.065,Visalar
53,21,2022-12-30 00:30:00.065,Visalar
53,21,2022-12-30 00:31:00.062,Visalar
50,22,2022-12-30 00:32:00.005,Visalar
50,22,2022-12-30 00:33:00.064,Visalar
50,22,2022-12-30 00:34:00.065,Visalar
50,22,2022-12-30 00:35:00.065,Visalar
50,22,2022-12-30 00:36:00.065,Visalar
50,22,2022-12-30 00:37:00.037,Visalar
50,22,2022-12-30 00:38:00.064,Visalar
50,22,2022-12-30 00:39:00.065,Visalar
50,22,2022-12-30 00:40:00.065,Visalar
50,22,2022-12-30 00:41:00.006,Visalar
50,22,2022-12-30 00:42:00.064,Visalar
50,22,2022-12-30 00:43:00.064,Visalar
50,22,2022-12-30 00:44:00.005,Visalar
50,22,2022-12-30 00:45:00.064,Visalar
50,22,2022-12-30 00:46:00.064,Visalar
50,22,2022-12-30 00:47:00.064,Visalar
50,22,2022-12-30 00:48:00.007,Visalar
50,22,2022-12-30 00:49:00.005,Visalar
50,22,2022-12-30 00:50:00.064,Visalar
50,22,2022-12-30 00:51:00.005,Visalar
50,22,2022-12-30 00:52:00.007,Visalar
50,22,2022-12-30 00:53:00.063,Visalar
50,22,2022-12-30 00:54:00.063,Visalar
50,22,2022-12-30 00:55:00.003,Visalar
51,20,2022-12-30 00:56:00.004,Visalar
52,20,2022-12-30 00:57:00.064,Visalar
52,20,2022-12-30 00:58:00.064,Visalar
52,20,2022-12-30 00:59:00.064,Visalar
52,20,2022-12-30 01:00:00.065,Visalar
52,20,2022-12-30 01:01:00.034,Visalar
52,20,2022-12-30 01:02:00.065,Visalar
52,20,2022-12-30 01:03:00.018,Visalar
52,20,2022-12-30 01:04:00.005,Visalar
52,20,2022-12-30 01:05:00.012,Visalar
52,20,2022-12-30 01:06:00.064,Visalar
53,20,2022-12-30 01:07:00.064,Visalar
53,20,2022-12-30 01:08:00.064,Visalar
53,20,2022-12-30 01:09:00.064,Visalar
53,20,2022-12-30 01:10:00.064,Visalar
53,20,2022-12-30 01:11:00.063,Visalar
53,20,2022-12-30 01:12:00.062,Visalar
53,20,2022-12-30 01:13:00.064,Visalar
53,20,2022-12-30 01:14:00.043,Visalar
53,20,2022-12-30 01:15:00.064,Visalar
53,20,2022-12-30 01:16:00.064,Visalar
53,20,2022-12-30 01:17:00.065,Visalar
54,20,2022-12-30 01:18:00.018,Visalar
54,20,2022-12-30 01:19:00.062,Visalar
74,20,2022-12-30 01:20:00.064,Visalar
74,20,2022-12-30 01:21:00.064,Visalar
74,20,2022-12-30 01:22:00.064,Visalar
74,20,2022-12-30 01:23:00.007,Visalar
74,20,2022-12-30 01:24:00.011,Visalar
74,20,2022-12-30 01:25:00.004,Visalar
74,20,2022-12-30 01:26:00.064,Visalar
74,20,2022-12-30 01:27:00.064,Visalar
74,20,2022-12-30 01:28:00.065,Visalar
74,20,2022-12-30 01:29:00.064,Visalar
74,20,2022-12-30 01:30:00.064,Visalar
74,20,2022-12-30 01:31:00.064,Visalar
74,20,2022-12-30 01:32:00.064,Visalar
74,20,2022-12-30 01:33:00.005,Visalar
74,20,2022-12-30 01:34:00.064,Visalar
74,20,2022-12-30 01:35:00.032,Visalar
74,20,2022-12-30 01:36:00.039,Visalar
74,20,2022-12-30 01:37:00.005,Visalar
74,20,2022-12-30 01:38:00.064,Visalar
74,20,2022-12-30 01:39:00.064,Visalar
74,20,2022-12-30 01:40:00.064,Visalar
74,20,2022-12-30 01:41:00.064,Visalar
74,20,2022-12-30 01:42:00.064,Visalar
74,20,2022-12-30 01:43:00.062,Visalar
61,19,2022-12-30 01:44:00.026,Visalar
61,19,2022-12-30 01:45:00.064,Visalar
61,19,2022-12-30 01:46:00.064,Visalar
61,19,2022-12-30 01:47:00.044,Visalar
62,19,2022-12-30 01:48:00.064,Visalar
62,19,2022-12-30 01:49:00.064,Visalar
62,19,2022-12-30 01:50:00.064,Visalar
62,19,2022-12-30 01:51:00.064,Visalar
62,19,2022-12-30 01:52:00.065,Visalar
62,19,2022-12-30 01:53:00.065,Visalar
62,19,2022-12-30 01:54:00.027,Visalar
62,19,2022-12-30 01:55:00.064,Visalar
62,19,2022-12-30 01:56:00.006,Visalar
63,19,2022-12-30 01:57:00.064,Visalar
63,19,2022-12-30 01:58:00.064,Visalar
63,19,2022-12-30 01:59:00.064,Visalar
63,19,2022-12-30 02:00:00.064,Visalar
63,19,2022-12-30 02:01:00.064,Visalar
63,19,2022-12-30 02:02:00.064,Visalar
63,19,2022-12-30 02:03:00.008,Visalar
63,19,2022-12-30 02:04:00.064,Visalar
63,19,2022-12-30 02:05:00.064,Visalar
64,19,2022-12-30 02:06:00.064,Visalar
64,19,2022-12-30 02:07:00.061,Visalar
82,20,2022-12-30 02:10:11.553,Visalar
82,20,2022-12-30 02:13:09.729,Visalar
82,20,2022-12-30 02:14:13.968,Visalar
82,20,2022-12-30 02:15:00.722,Visalar
82,20,2022-12-30 02:16:00.761,Visalar
82,20,2022-12-30 02:17:06.921,Visalar
83,20,2022-12-30 02:18:06.854,Visalar
83,20,2022-12-30 02:19:06.910,Visalar
83,20,2022-12-30 02:20:06.943,Visalar
83,20,2022-12-30 02:21:06.950,Visalar
83,20,2022-12-30 02:22:06.951,Visalar
83,20,2022-12-30 02:23:06.968,Visalar
83,20,2022-12-30 02:24:06.935,Visalar
83,20,2022-12-30 02:25:00.792,Visalar
83,20,2022-12-30 02:26:00.800,Visalar
83,20,2022-12-30 02:27:06.934,Visalar
83,20,2022-12-30 02:28:06.933,Visalar
83,20,2022-12-30 02:31:15.169,Visalar
83,20,2022-12-30 02:32:07.446,Visalar
83,20,2022-12-30 02:33:06.944,Visalar
83,20,2022-12-30 02:34:06.968,Visalar
83,20,2022-12-30 02:35:07.426,Visalar
83,20,2022-12-30 02:36:00.734,Visalar
83,20,2022-12-30 02:37:06.977,Visalar
77,19,2022-12-30 02:38:05.786,Visalar
77,19,2022-12-30 02:39:06.935,Visalar
77,19,2022-12-30 02:40:06.921,Visalar
77,19,2022-12-30 02:41:06.948,Visalar
77,19,2022-12-30 02:42:06.938,Visalar
77,19,2022-12-30 02:43:06.923,Visalar
77,19,2022-12-30 02:46:14.241,Visalar
77,19,2022-12-30 02:47:06.958,Visalar
77,19,2022-12-30 02:48:00.682,Visalar
78,19,2022-12-30 02:49:06.937,Visalar
78,19,2022-12-30 02:50:06.935,Visalar
78,19,2022-12-30 02:51:00.833,Visalar
78,19,2022-12-30 02:52:06.926,Visalar
78,19,2022-12-30 02:53:05.792,Visalar
78,19,2022-12-30 02:54:07.179,Visalar
78,19,2022-12-30 02:55:06.930,Visalar
78,19,2022-12-30 02:56:01.170,Visalar
78,19,2022-12-30 02:57:06.927,Visalar
78,19,2022-12-30 02:58:06.927,Visalar
78,19,2022-12-30 02:59:00.773,Visalar
78,19,2022-12-30 03:00:06.929,Visalar
78,19,2022-12-30 03:01:06.973,Visalar
79,19,2022-12-30 03:02:06.936,Visalar
68,19,2022-12-30 03:03:00.447,Visalar
68,19,2022-12-30 03:04:00.029,Visalar
69,19,2022-12-30 03:05:00.029,Visalar
69,19,2022-12-30 03:06:00.005,Visalar
69,19,2022-12-30 03:07:00.004,Visalar
69,19,2022-12-30 03:08:00.064,Visalar
69,19,2022-12-30 03:09:00.006,Visalar
69,19,2022-12-30 03:10:00.005,Visalar
69,19,2022-12-30 03:11:00.064,Visalar
69,19,2022-12-30 03:12:00.064,Visalar
69,19,2022-12-30 03:13:00.064,Visalar
70,19,2022-12-30 03:14:00.004,Visalar
70,19,2022-12-30 03:15:00.005,Visalar
70,19,2022-12-30 03:16:00.064,Visalar
70,19,2022-12-30 03:17:00.064,Visalar
70,19,2022-12-30 03:18:00.064,Visalar
70,19,2022-12-30 03:19:00.065,Visalar
70,19,2022-12-30 03:20:00.064,Visalar
70,19,2022-12-30 03:21:00.064,Visalar
71,19,2022-12-30 03:22:00.064,Visalar
71,19,2022-12-30 03:23:00.004,Visalar
71,19,2022-12-30 03:24:00.064,Visalar
71,19,2022-12-30 03:25:00.004,Visalar
71,19,2022-12-30 03:26:00.062,Visalar
82,20,2022-12-30 03:27:00.788,Visalar
82,20,2022-12-30 03:28:06.126,Visalar
82,20,2022-12-30 03:29:06.921,Visalar
81,20,2022-12-30 03:30:06.955,Visalar
81,20,2022-12-30 03:33:10.241,Visalar
81,20,2022-12-30 03:34:00.768,Visalar
81,20,2022-12-30 03:35:00.830,Visalar
80,20,2022-12-30 03:38:09.249,Visalar
80,20,2022-12-30 03:39:00.681,Visalar
80,20,2022-12-30 03:40:06.914,Visalar
79,20,2022-12-30 03:41:06.977,Visalar
79,20,2022-12-30 03:42:00.773,Visalar
79,20,2022-12-30 03:43:07.708,Visalar
79,20,2022-12-30 03:46:10.529,Visalar
78,20,2022-12-30 03:47:06.949,Visalar
78,20,2022-12-30 03:48:00.766,Visalar
78,20,2022-12-30 03:49:06.979,Visalar
77,20,2022-12-30 03:50:06.979,Visalar
77,20,2022-12-30 03:51:06.940,Visalar
77,20,2022-12-30 03:52:00.774,Visalar
77,20,2022-12-30 03:53:06.969,Visalar
76,20,2022-12-30 03:54:00.748,Visalar
76,20,2022-12-30 03:55:00.836,Visalar
76,20,2022-12-30 03:56:06.936,Visalar
82,19,2022-12-30 03:57:06.946,Visalar
82,19,2022-12-30 03:58:06.982,Visalar
82,19,2022-12-30 03:59:06.994,Visalar
82,19,2022-12-30 04:00:06.912,Visalar
82,19,2022-12-30 04:01:06.994,Visalar
82,20,2022-12-30 04:04:09.829,Visalar
82,20,2022-12-30 04:05:00.737,Visalar
82,20,2022-12-30 04:06:06.950,Visalar
82,20,2022-12-30 04:07:07.001,Visalar
82,20,2022-12-30 04:08:06.953,Visalar
82,20,2022-12-30 04:09:06.989,Visalar
82,20,2022-12-30 04:10:06.956,Visalar
82,20,2022-12-30 04:11:06.991,Visalar
82,20,2022-12-30 04:14:09.889,Visalar
82,20,2022-12-30 04:15:07.445,Visalar
82,20,2022-12-30 04:16:06.919,Visalar
82,20,2022-12-30 04:17:06.931,Visalar
83,20,2022-12-30 04:18:07.013,Visalar
83,20,2022-12-30 04:19:00.806,Visalar
83,20,2022-12-30 04:20:07.430,Visalar
83,20,2022-12-30 04:23:10.562,Visalar
83,20,2022-12-30 04:24:00.797,Visalar
83,20,2022-12-30 04:25:00.798,Visalar
83,20,2022-12-30 04:26:00.773,Visalar
65,20,2022-12-30 04:27:06.618,Visalar
65,20,2022-12-30 04:28:00.058,Visalar
65,20,2022-12-30 04:29:00.065,Visalar
65,20,2022-12-30 04:30:00.065,Visalar
65,20,2022-12-30 04:31:00.065,Visalar
65,20,2022-12-30 04:32:00.065,Visalar
65,20,2022-12-30 04:33:00.065,Visalar
64,20,2022-12-30 04:34:00.057,Visalar
64,20,2022-12-30 04:35:00.065,Visalar
64,20,2022-12-30 04:36:00.064,Visalar
64,20,2022-12-30 04:37:00.065,Visalar
64,20,2022-12-30 04:38:00.065,Visalar
64,20,2022-12-30 04:39:00.065,Visalar
64,20,2022-12-30 04:40:00.064,Visalar
64,20,2022-12-30 04:41:00.064,Visalar
64,20,2022-12-30 04:42:00.064,Visalar
64,20,2022-12-30 04:43:00.007,Visalar
64,20,2022-12-30 04:44:00.064,Visalar
64,20,2022-12-30 04:45:00.064,Visalar
64,20,2022-12-30 04:46:00.021,Visalar
63,20,2022-12-30 04:47:00.017,Visalar
63,20,2022-12-30 04:48:00.065,Visalar
63,20,2022-12-30 04:49:00.017,Visalar
63,20,2022-12-30 04:50:00.062,Visalar
64,20,2022-12-30 04:51:00.064,Visalar
64,20,2022-12-30 04:52:00.064,Visalar
64,20,2022-12-30 04:53:00.065,Visalar
64,20,2022-12-30 04:54:00.065,Visalar
64,20,2022-12-30 04:55:00.065,Visalar
64,20,2022-12-30 04:56:00.065,Visalar
64,20,2022-12-30 04:57:00.006,Visalar
64,20,2022-12-30 04:58:00.065,Visalar
64,20,2022-12-30 04:59:00.065,Visalar
64,20,2022-12-30 05:00:00.064,Visalar
64,20,2022-12-30 05:01:00.065,Visalar
64,20,2022-12-30 05:02:00.065,Visalar
64,20,2022-12-30 05:03:00.063,Visalar
64,20,2022-12-30 05:04:00.065,Visalar
64,20,2022-12-30 05:05:00.064,Visalar
64,20,2022-12-30 05:06:00.065,Visalar
64,19,2022-12-30 05:07:00.064,Visalar
64,19,2022-12-30 05:08:00.064,Visalar
64,19,2022-12-30 05:09:00.064,Visalar
64,19,2022-12-30 05:10:00.065,Visalar
64,19,2022-12-30 05:11:00.021,Visalar
64,19,2022-12-30 05:12:00.064,Visalar
64,19,2022-12-30 05:13:00.005,Visalar
64,19,2022-12-30 05:14:00.035,Visalar
84,20,2022-12-30 05:15:00.781,Visalar
84,20,2022-12-30 05:18:13.985,Visalar
84,20,2022-12-30 05:19:06.932,Visalar
84,20,2022-12-30 05:22:09.505,Visalar
84,20,2022-12-30 05:23:00.827,Visalar
84,20,2022-12-30 05:24:06.965,Visalar
84,20,2022-12-30 05:25:00.761,Visalar
84,20,2022-12-30 05:26:00.779,Visalar
84,20,2022-12-30 05:27:06.956,Visalar
84,20,2022-12-30 05:30:10.785,Visalar
84,20,2022-12-30 05:33:11.009,Visalar
84,20,2022-12-30 05:34:00.736,Visalar
84,20,2022-12-30 05:35:00.841,Visalar
84,20,2022-12-30 05:38:10.017,Visalar
84,20,2022-12-30 05:41:10.241,Visalar
84,20,2022-12-30 05:44:10.465,Visalar
84,20,2022-12-30 05:45:00.730,Visalar
84,20,2022-12-30 05:48:10.081,Visalar
84,20,2022-12-30 05:49:00.795,Visalar
84,20,2022-12-30 05:52:09.697,Visalar
84,20,2022-12-30 05:53:00.738,Visalar
84,20,2022-12-30 05:56:09.313,Visalar
84,20,2022-12-30 05:59:11.585,Visalar
84,20,2022-12-30 06:02:09.761,Visalar
79,19,2022-12-30 06:05:09.985,Visalar
79,19,2022-12-30 06:06:00.736,Visalar
79,19,2022-12-30 06:07:00.829,Visalar
79,19,2022-12-30 06:10:11.041,Visalar
79,19,2022-12-30 06:11:07.183,Visalar
79,19,2022-12-30 06:14:10.657,Visalar
80,19,2022-12-30 06:17:10.881,Visalar
80,19,2022-12-30 06:18:06.925,Visalar
80,19,2022-12-30 06:19:05.715,Visalar
80,19,2022-12-30 06:20:07.237,Visalar
80,20,2022-12-30 06:21:06.972,Visalar
80,20,2022-12-30 06:22:00.785,Visalar
80,19,2022-12-30 06:25:12.161,Visalar
80,20,2022-12-30 06:26:00.735,Visalar
80,20,2022-12-30 06:27:06.478,Visalar
80,20,2022-12-30 06:28:06.930,Visalar
80,20,2022-12-30 06:29:05.745,Visalar
80,20,2022-12-30 06:30:06.937,Visalar
80,20,2022-12-30 06:31:06.968,Visalar
80,20,2022-12-30 06:32:06.965,Visalar
80,20,2022-12-30 06:33:05.758,Visalar
80,20,2022-12-30 06:34:07.231,Visalar
80,20,2022-12-30 06:35:08.483,Visalar
81,20,2022-12-30 06:36:08.177,Visalar
82,20,2022-12-30 06:37:07.430,Visalar
82,20,2022-12-30 06:38:06.947,Visalar
82,20,2022-12-30 06:39:00.827,Visalar
82,20,2022-12-30 06:40:08.015,Visalar
82,20,2022-12-30 06:41:08.230,Visalar
82,20,2022-12-30 06:42:07.333,Visalar
82,20,2022-12-30 06:43:06.965,Visalar
82,20,2022-12-30 06:44:06.989,Visalar
82,20,2022-12-30 06:45:00.736,Visalar
82,20,2022-12-30 06:46:06.948,Visalar
82,20,2022-12-30 06:47:06.968,Visalar
82,20,2022-12-30 06:48:06.835,Visalar
82,20,2022-12-30 06:49:00.793,Visalar
83,20,2022-12-30 06:50:07.236,Visalar
83,20,2022-12-30 06:51:06.957,Visalar
83,20,2022-12-30 06:52:07.950,Visalar
83,20,2022-12-30 06:53:06.432,Visalar
83,20,2022-12-30 06:54:06.909,Visalar
83,20,2022-12-30 06:55:00.823,Visalar
83,20,2022-12-30 06:56:00.797,Visalar
83,20,2022-12-30 06:59:09.921,Visalar
83,20,2022-12-30 07:00:05.804,Visalar
83,20,2022-12-30 07:01:07.206,Visalar
83,20,2022-12-30 07:02:06.955,Visalar
72,19,2022-12-30 07:03:06.594,Visalar
72,19,2022-12-30 07:04:00.058,Visalar
72,19,2022-12-30 07:05:00.057,Visalar
72,19,2022-12-30 07:06:00.064,Visalar
72,19,2022-12-30 07:07:00.053,Visalar
72,19,2022-12-30 07:08:00.064,Visalar
72,19,2022-12-30 07:09:00.064,Visalar
72,19,2022-12-30 07:10:00.013,Visalar
72,19,2022-12-30 07:11:00.055,Visalar
72,19,2022-12-30 07:12:00.064,Visalar
73,19,2022-12-30 07:13:00.064,Visalar
73,19,2022-12-30 07:14:00.064,Visalar
73,19,2022-12-30 07:15:00.004,Visalar
73,19,2022-12-30 07:16:00.064,Visalar
73,19,2022-12-30 07:17:00.064,Visalar
73,19,2022-12-30 07:18:00.064,Visalar
73,19,2022-12-30 07:19:00.064,Visalar
73,19,2022-12-30 07:20:00.005,Visalar
73,19,2022-12-30 07:21:00.004,Visalar
73,19,2022-12-30 07:22:00.064,Visalar
73,19,2022-12-30 07:23:00.018,Visalar
74,19,2022-12-30 07:24:00.034,Visalar
74,19,2022-12-30 07:25:00.021,Visalar
76,19,2022-12-30 07:26:00.005,Visalar
76,19,2022-12-30 07:27:00.029,Visalar
76,19,2022-12-30 07:28:00.064,Visalar
76,19,2022-12-30 07:29:00.021,Visalar
76,19,2022-12-30 07:30:00.064,Visalar
77,19,2022-12-30 07:31:00.005,Visalar
77,19,2022-12-30 07:32:00.005,Visalar
77,19,2022-12-30 07:33:00.005,Visalar
77,19,2022-12-30 07:34:00.064,Visalar
77,19,2022-12-30 07:35:00.064,Visalar
77,19,2022-12-30 07:36:00.064,Visalar
77,19,2022-12-30 07:37:00.065,Visalar
77,19,2022-12-30 07:38:00.065,Visalar
77,19,2022-12-30 07:39:00.065,Visalar
77,19,2022-12-30 07:40:00.065,Visalar
78,19,2022-12-30 07:41:00.065,Visalar
78,19,2022-12-30 07:42:00.065,Visalar
78,19,2022-12-30 07:43:00.065,Visalar
78,19,2022-12-30 07:44:00.065,Visalar
78,19,2022-12-30 07:45:00.065,Visalar
78,19,2022-12-30 07:46:00.065,Visalar
78,19,2022-12-30 07:47:00.065,Visalar
78,19,2022-12-30 07:48:00.033,Visalar
78,19,2022-12-30 07:49:00.065,Visalar
62,20,2022-12-30 07:51:00.065,Visalar
62,20,2022-12-30 07:52:00.065,Visalar
62,20,2022-12-30 07:53:00.065,Visalar
62,20,2022-12-30 07:54:00.064,Visalar
62,20,2022-12-30 07:55:00.064,Visalar
62,20,2022-12-30 07:56:00.064,Visalar
62,20,2022-12-30 07:57:00.065,Visalar
62,20,2022-12-30 07:58:00.064,Visalar
63,20,2022-12-30 07:59:00.065,Visalar
63,20,2022-12-30 08:00:00.025,Visalar
63,20,2022-12-30 08:01:00.065,Visalar
63,20,2022-12-30 08:02:00.065,Visalar
63,20,2022-12-30 08:03:00.065,Visalar
63,20,2022-12-30 08:04:00.057,Visalar
63,20,2022-12-30 08:05:00.064,Visalar
63,20,2022-12-30 08:06:00.064,Visalar
64,20,2022-12-30 08:07:00.064,Visalar
64,20,2022-12-30 08:08:00.064,Visalar
64,20,2022-12-30 08:09:00.029,Visalar
64,20,2022-12-30 08:10:00.065,Visalar
64,20,2022-12-30 08:11:00.064,Visalar
64,20,2022-12-30 08:12:00.064,Visalar
64,20,2022-12-30 08:13:00.065,Visalar
64,20,2022-12-30 08:14:00.015,Visalar
66,20,2022-12-30 08:15:00.065,Visalar
66,20,2022-12-30 08:16:00.064,Visalar
66,20,2022-12-30 08:17:00.065,Visalar
65,20,2022-12-30 08:18:00.064,Visalar
65,20,2022-12-30 08:19:00.014,Visalar
65,20,2022-12-30 08:20:00.064,Visalar
65,20,2022-12-30 08:21:00.064,Visalar
64,20,2022-12-30 08:22:00.064,Visalar
64,20,2022-12-30 08:23:00.064,Visalar
64,20,2022-12-30 08:24:00.064,Visalar
64,20,2022-12-30 08:25:00.005,Visalar
63,20,2022-12-30 08:26:00.064,Visalar
63,20,2022-12-30 08:27:00.064,Visalar
63,20,2022-12-30 08:28:00.004,Visalar
63,20,2022-12-30 08:29:00.064,Visalar
63,20,2022-12-30 08:30:00.064,Visalar
63,20,2022-12-30 08:31:00.064,Visalar
62,20,2022-12-30 08:32:00.064,Visalar
62,20,2022-12-30 08:33:00.064,Visalar
62,20,2022-12-30 08:34:00.064,Visalar
62,20,2022-12-30 08:35:00.064,Visalar
62,20,2022-12-30 08:36:00.064,Visalar
62,20,2022-12-30 08:37:00.004,Visalar
61,20,2022-12-30 08:38:00.007,Visalar
82,20,2022-12-30 08:41:11.393,Visalar
82,20,2022-12-30 08:44:11.617,Visalar
82,20,2022-12-30 08:45:10.066,Visalar
82,20,2022-12-30 08:46:00.823,Visalar
82,20,2022-12-30 08:47:00.791,Visalar
82,20,2022-12-30 08:48:07.070,Visalar
82,20,2022-12-30 08:49:06.927,Visalar
82,20,2022-12-30 08:50:00.750,Visalar
82,20,2022-12-30 08:51:00.743,Visalar
83,20,2022-12-30 08:54:09.633,Visalar
83,20,2022-12-30 08:55:15.073,Visalar
83,20,2022-12-30 08:56:00.835,Visalar
83,20,2022-12-30 08:57:06.957,Visalar
83,20,2022-12-30 08:58:06.980,Visalar
83,20,2022-12-30 08:59:06.981,Visalar
83,20,2022-12-30 09:00:06.920,Visalar
83,20,2022-12-30 09:01:06.988,Visalar
83,20,2022-12-30 09:02:06.936,Visalar
83,20,2022-12-30 09:03:00.796,Visalar
83,20,2022-12-30 09:04:06.914,Visalar
83,20,2022-12-30 09:05:00.799,Visalar
83,20,2022-12-30 09:06:00.821,Visalar
83,20,2022-12-30 09:07:06.974,Visalar
83,20,2022-12-30 09:08:06.925,Visalar
73,19,2022-12-30 09:09:06.630,Visalar
73,19,2022-12-30 09:10:00.058,Visalar
73,19,2022-12-30 09:11:00.061,Visalar
73,19,2022-12-30 09:12:00.064,Visalar
73,19,2022-12-30 09:13:00.064,Visalar
73,19,2022-12-30 09:14:00.065,Visalar
73,19,2022-12-30 09:15:00.065,Visalar
73,19,2022-12-30 09:16:00.018,Visalar
74,19,2022-12-30 09:17:00.064,Visalar
74,19,2022-12-30 09:18:00.065,Visalar
74,19,2022-12-30 09:19:00.064,Visalar
74,19,2022-12-30 09:20:00.065,Visalar
74,19,2022-12-30 09:21:00.064,Visalar
74,19,2022-12-30 09:22:00.018,Visalar
74,19,2022-12-30 09:23:00.064,Visalar
74,19,2022-12-30 09:24:00.063,Visalar
74,19,2022-12-30 09:25:00.041,Visalar
74,19,2022-12-30 09:26:00.017,Visalar
75,19,2022-12-30 09:27:00.004,Visalar
75,20,2022-12-30 09:28:00.065,Visalar
75,19,2022-12-30 09:29:00.065,Visalar
75,19,2022-12-30 09:30:00.064,Visalar
75,20,2022-12-30 09:31:00.066,Visalar
83,20,2022-12-30 09:32:07.208,Visalar
83,20,2022-12-30 09:33:06.974,Visalar
83,20,2022-12-30 09:34:06.678,Visalar
83,20,2022-12-30 09:35:00.802,Visalar
83,20,2022-12-30 09:36:07.044,Visalar
83,20,2022-12-30 09:37:06.942,Visalar
83,20,2022-12-30 09:38:06.944,Visalar
83,20,2022-12-30 09:39:06.925,Visalar
83,20,2022-12-30 09:40:06.956,Visalar
83,20,2022-12-30 09:41:06.975,Visalar
83,20,2022-12-30 09:42:06.917,Visalar
83,20,2022-12-30 09:43:07.078,Visalar
83,20,2022-12-30 09:46:10.789,Visalar
83,20,2022-12-30 09:47:10.028,Visalar
83,20,2022-12-30 09:48:09.582,Visalar
83,20,2022-12-30 09:49:00.791,Visalar
83,20,2022-12-30 09:50:07.736,Visalar
83,20,2022-12-30 09:51:07.475,Visalar
83,20,2022-12-30 09:54:10.017,Visalar
83,20,2022-12-30 09:55:00.712,Visalar
83,20,2022-12-30 09:56:06.231,Visalar
83,20,2022-12-30 09:57:06.984,Visalar
83,20,2022-12-30 09:58:06.950,Visalar
81,20,2022-12-30 09:59:00.804,Visalar
81,20,2022-12-30 10:00:06.970,Visalar
81,20,2022-12-30 10:01:06.960,Visalar
81,20,2022-12-30 10:02:00.789,Visalar
81,20,2022-12-30 10:05:11.521,Visalar
82,20,2022-12-30 10:06:00.812,Visalar
82,20,2022-12-30 10:07:06.918,Visalar
82,20,2022-12-30 10:08:06.970,Visalar
82,20,2022-12-30 10:09:06.935,Visalar
82,20,2022-12-30 10:10:06.975,Visalar
82,20,2022-12-30 10:11:06.952,Visalar
82,20,2022-12-30 10:12:00.847,Visalar
82,20,2022-12-30 10:13:08.217,Visalar
82,20,2022-12-30 10:14:08.446,Visalar
82,20,2022-12-30 10:15:00.760,Visalar
82,20,2022-12-30 10:16:00.710,Visalar
82,20,2022-12-30 10:19:11.201,Visalar
82,20,2022-12-30 10:20:00.758,Visalar
82,20,2022-12-30 10:23:10.817,Visalar
82,20,2022-12-30 10:26:11.041,Visalar
82,20,2022-12-30 10:30:10.657,Visalar
82,20,2022-12-30 10:31:00.699,Visalar
82,20,2022-12-30 10:34:10.273,Visalar
55,21,2022-12-30 10:35:00.437,Visalar
55,21,2022-12-30 10:36:00.064,Visalar
55,21,2022-12-30 10:37:00.005,Visalar
55,21,2022-12-30 10:38:00.057,Visalar
55,21,2022-12-30 10:39:00.065,Visalar
55,21,2022-12-30 10:40:00.064,Visalar
55,21,2022-12-30 10:41:00.017,Visalar
55,21,2022-12-30 10:42:00.064,Visalar
55,21,2022-12-30 10:43:00.065,Visalar
55,21,2022-12-30 10:44:00.006,Visalar
55,21,2022-12-30 10:45:00.014,Visalar
55,21,2022-12-30 10:46:00.005,Visalar
55,21,2022-12-30 10:47:00.037,Visalar
56,21,2022-12-30 10:48:00.064,Visalar
56,21,2022-12-30 10:49:00.064,Visalar
56,21,2022-12-30 10:50:00.064,Visalar
56,21,2022-12-30 10:51:00.063,Visalar
56,21,2022-12-30 10:52:00.064,Visalar
56,21,2022-12-30 10:53:00.064,Visalar
56,21,2022-12-30 10:54:00.064,Visalar
56,21,2022-12-30 10:55:00.064,Visalar
56,21,2022-12-30 10:56:00.064,Visalar
56,21,2022-12-30 10:57:00.064,Visalar
56,21,2022-12-30 10:58:00.063,Visalar
48,22,2022-12-30 10:59:00.063,Visalar
48,22,2022-12-30 11:00:00.004,Visalar
48,22,2022-12-30 11:01:00.064,Visalar
48,22,2022-12-30 11:02:00.064,Visalar
48,22,2022-12-30 11:03:00.064,Visalar
48,22,2022-12-30 11:04:00.064,Visalar
48,22,2022-12-30 11:05:00.064,Visalar
48,22,2022-12-30 11:06:00.013,Visalar
48,22,2022-12-30 11:07:00.064,Visalar
48,22,2022-12-30 11:08:00.005,Visalar
48,22,2022-12-30 11:09:00.064,Visalar
48,22,2022-12-30 11:10:00.064,Visalar
48,22,2022-12-30 11:11:00.004,Visalar
48,22,2022-12-30 11:12:00.059,Visalar
48,22,2022-12-30 11:13:00.004,Visalar
48,22,2022-12-30 11:14:00.004,Visalar
48,22,2022-12-30 11:15:00.005,Visalar
47,22,2022-12-30 11:16:00.064,Visalar
47,22,2022-12-30 11:17:00.004,Visalar
47,22,2022-12-30 11:18:00.003,Visalar
47,22,2022-12-30 11:20:00.045,Visalar
47,22,2022-12-30 11:21:00.043,Visalar
47,22,2022-12-30 11:22:00.060,Visalar
43,22,2022-12-30 11:23:00.065,Visalar
43,22,2022-12-30 11:24:00.065,Visalar
43,22,2022-12-30 11:25:00.064,Visalar
43,22,2022-12-30 11:26:00.064,Visalar
43,22,2022-12-30 11:27:00.004,Visalar
43,22,2022-12-30 11:28:00.064,Visalar
43,22,2022-12-30 11:29:00.064,Visalar
43,22,2022-12-30 11:30:00.064,Visalar
43,22,2022-12-30 11:31:00.061,Visalar
43,22,2022-12-30 11:32:00.064,Visalar
43,22,2022-12-30 11:33:00.005,Visalar
43,22,2022-12-30 11:34:00.017,Visalar
43,22,2022-12-30 11:35:00.005,Visalar
43,22,2022-12-30 11:36:00.064,Visalar
43,22,2022-12-30 11:37:00.064,Visalar
43,22,2022-12-30 11:38:00.064,Visalar
43,22,2022-12-30 11:39:00.005,Visalar
43,22,2022-12-30 11:40:00.063,Visalar
43,22,2022-12-30 11:41:00.064,Visalar
43,22,2022-12-30 11:42:00.064,Visalar
43,22,2022-12-30 11:43:00.017,Visalar
43,22,2022-12-30 11:44:00.037,Visalar
43,22,2022-12-30 11:45:00.021,Visalar
43,22,2022-12-30 11:46:00.065,Visalar
40,23,2022-12-30 11:47:00.064,Visalar
40,23,2022-12-30 11:48:00.064,Visalar
40,23,2022-12-30 11:49:00.005,Visalar
40,23,2022-12-30 11:50:00.063,Visalar
40,23,2022-12-30 11:51:00.064,Visalar
40,23,2022-12-30 11:52:00.064,Visalar
40,23,2022-12-30 11:53:00.005,Visalar
40,23,2022-12-30 11:54:00.065,Visalar
40,23,2022-12-30 11:55:00.064,Visalar
40,23,2022-12-30 11:56:00.064,Visalar
40,23,2022-12-30 11:57:00.064,Visalar
40,23,2022-12-30 11:58:00.064,Visalar
40,23,2022-12-30 11:59:00.017,Visalar
40,23,2022-12-30 12:00:00.063,Visalar
40,23,2022-12-30 12:01:00.064,Visalar
40,23,2022-12-30 12:02:00.064,Visalar
40,23,2022-12-30 12:03:00.056,Visalar
40,23,2022-12-30 12:04:00.064,Visalar
40,23,2022-12-30 12:05:00.005,Visalar
40,23,2022-12-30 12:06:00.064,Visalar
40,23,2022-12-30 12:07:00.005,Visalar
39,23,2022-12-30 12:08:00.037,Visalar
39,23,2022-12-30 12:09:00.063,Visalar
40,22,2022-12-30 12:10:00.065,Visalar
40,22,2022-12-30 12:11:00.065,Visalar
40,22,2022-12-30 12:12:00.006,Visalar
40,22,2022-12-30 12:13:00.065,Visalar
40,22,2022-12-30 12:14:00.065,Visalar
40,22,2022-12-30 12:15:00.065,Visalar
40,22,2022-12-30 12:16:00.015,Visalar
40,22,2022-12-30 12:17:00.064,Visalar
40,22,2022-12-30 12:18:00.065,Visalar
40,22,2022-12-30 12:19:00.065,Visalar
40,22,2022-12-30 12:20:00.064,Visalar
40,22,2022-12-30 12:21:00.064,Visalar
40,22,2022-12-30 12:22:00.064,Visalar
40,22,2022-12-30 12:23:00.064,Visalar
40,22,2022-12-30 12:24:00.064,Visalar
40,22,2022-12-30 12:25:00.064,Visalar
40,22,2022-12-30 12:26:00.005,Visalar
40,22,2022-12-30 12:27:00.017,Visalar
40,22,2022-12-30 12:28:00.064,Visalar
40,22,2022-12-30 12:29:00.064,Visalar
40,22,2022-12-30 12:31:00.005,Visalar
40,22,2022-12-30 12:32:00.065,Visalar
40,22,2022-12-30 12:33:00.060,Visalar
38,22,2022-12-30 12:34:00.064,Visalar
38,22,2022-12-30 12:35:00.064,Visalar
38,22,2022-12-30 12:36:00.064,Visalar
38,22,2022-12-30 12:37:00.064,Visalar
38,22,2022-12-30 12:38:00.064,Visalar
38,22,2022-12-30 12:39:00.064,Visalar
38,22,2022-12-30 12:40:00.064,Visalar
38,22,2022-12-30 12:41:00.036,Visalar
38,22,2022-12-30 12:42:00.012,Visalar
38,22,2022-12-30 12:43:00.065,Visalar
38,22,2022-12-30 12:44:00.065,Visalar
38,22,2022-12-30 12:45:00.065,Visalar
38,22,2022-12-30 12:46:00.065,Visalar
38,22,2022-12-30 12:47:00.064,Visalar
38,22,2022-12-30 12:48:00.005,Visalar
38,22,2022-12-30 12:49:00.036,Visalar
38,22,2022-12-30 12:50:00.064,Visalar
38,22,2022-12-30 12:51:00.064,Visalar
38,22,2022-12-30 12:52:00.064,Visalar
38,22,2022-12-30 12:53:00.017,Visalar
38,22,2022-12-30 12:54:00.064,Visalar
38,22,2022-12-30 12:55:00.037,Visalar
38,22,2022-12-30 12:56:00.004,Visalar
38,22,2022-12-30 12:57:00.063,Visalar
37,22,2022-12-30 12:58:00.064,Visalar
37,22,2022-12-30 12:59:00.064,Visalar
37,22,2022-12-30 13:00:00.064,Visalar
37,22,2022-12-30 13:01:00.064,Visalar
37,22,2022-12-30 13:02:00.064,Visalar
37,22,2022-12-30 13:03:00.004,Visalar
37,22,2022-12-30 13:04:00.064,Visalar
37,22,2022-12-30 13:05:00.065,Visalar
37,22,2022-12-30 13:06:00.018,Visalar
37,22,2022-12-30 13:07:00.065,Visalar
37,22,2022-12-30 13:08:00.004,Visalar
37,22,2022-12-30 13:09:00.065,Visalar
37,22,2022-12-30 13:10:00.064,Visalar
37,22,2022-12-30 13:11:00.064,Visalar
37,22,2022-12-30 13:12:00.064,Visalar
37,23,2022-12-30 13:13:00.005,Visalar
37,22,2022-12-30 13:14:00.064,Visalar
37,22,2022-12-30 13:15:00.064,Visalar
37,23,2022-12-30 13:16:00.065,Visalar
37,23,2022-12-30 13:17:00.064,Visalar
37,23,2022-12-30 13:19:00.017,Visalar
37,23,2022-12-30 13:20:00.065,Visalar
37,23,2022-12-30 13:21:00.057,Visalar
43,22,2022-12-30 13:22:00.065,Visalar
43,22,2022-12-30 13:23:00.064,Visalar
43,22,2022-12-30 13:24:00.064,Visalar
43,22,2022-12-30 13:25:00.005,Visalar
43,22,2022-12-30 13:26:00.005,Visalar
43,22,2022-12-30 13:27:00.065,Visalar
43,22,2022-12-30 13:28:00.065,Visalar
43,22,2022-12-30 13:29:00.004,Visalar
43,22,2022-12-30 13:30:00.064,Visalar
43,22,2022-12-30 13:31:00.064,Visalar
43,22,2022-12-30 13:32:00.064,Visalar
43,22,2022-12-30 13:33:00.064,Visalar
43,22,2022-12-30 13:34:00.064,Visalar
43,22,2022-12-30 13:35:00.064,Visalar
43,22,2022-12-30 13:36:00.004,Visalar
43,22,2022-12-30 13:37:00.004,Visalar
43,22,2022-12-30 13:38:00.065,Visalar
43,22,2022-12-30 13:39:00.064,Visalar
43,22,2022-12-30 13:40:00.005,Visalar
43,22,2022-12-30 13:41:00.005,Visalar
43,22,2022-12-30 13:42:00.064,Visalar
43,22,2022-12-30 13:43:00.004,Visalar
43,22,2022-12-30 13:44:00.005,Visalar
43,22,2022-12-30 13:45:00.064,Visalar
37,22,2022-12-30 13:46:00.064,Visalar
37,22,2022-12-30 13:47:00.004,Visalar
37,22,2022-12-30 13:48:00.064,Visalar
37,22,2022-12-30 13:49:00.064,Visalar
37,22,2022-12-30 13:50:00.064,Visalar
37,22,2022-12-30 13:51:00.064,Visalar
37,23,2022-12-30 13:52:00.063,Visalar
37,23,2022-12-30 13:53:00.063,Visalar
37,23,2022-12-30 13:54:00.005,Visalar
37,23,2022-12-30 13:55:00.013,Visalar
37,23,2022-12-30 13:56:00.064,Visalar
37,23,2022-12-30 13:57:00.063,Visalar
37,23,2022-12-30 13:58:00.063,Visalar
37,23,2022-12-30 13:59:00.063,Visalar
37,23,2022-12-30 14:00:00.063,Visalar
37,23,2022-12-30 14:01:00.063,Visalar
37,23,2022-12-30 14:02:00.003,Visalar
37,23,2022-12-30 14:03:00.064,Visalar
37,23,2022-12-30 14:04:00.017,Visalar
37,23,2022-12-30 14:05:00.064,Visalar
37,23,2022-12-30 14:06:00.064,Visalar
37,23,2022-12-30 14:07:00.064,Visalar
37,23,2022-12-30 14:08:00.064,Visalar
37,23,2022-12-30 14:09:00.001,Visalar
35,23,2022-12-30 14:10:00.064,Visalar
35,23,2022-12-30 14:11:00.064,Visalar
35,23,2022-12-30 14:12:00.064,Visalar
35,23,2022-12-30 14:13:00.064,Visalar
35,23,2022-12-30 14:14:00.005,Visalar
35,23,2022-12-30 14:15:00.063,Visalar
35,23,2022-12-30 14:16:00.064,Visalar
35,23,2022-12-30 14:17:00.064,Visalar
35,23,2022-12-30 14:18:00.044,Visalar
35,23,2022-12-30 14:19:00.016,Visalar
35,23,2022-12-30 14:20:00.009,Visalar
35,23,2022-12-30 14:21:00.005,Visalar
34,23,2022-12-30 14:22:00.064,Visalar
34,23,2022-12-30 14:23:00.065,Visalar
34,23,2022-12-30 14:24:00.065,Visalar
34,23,2022-12-30 14:25:00.064,Visalar
34,23,2022-12-30 14:26:00.064,Visalar
34,23,2022-12-30 14:27:00.064,Visalar
34,23,2022-12-30 14:28:00.064,Visalar
34,23,2022-12-30 14:29:00.065,Visalar
34,23,2022-12-30 14:30:00.065,Visalar
34,23,2022-12-30 14:31:00.037,Visalar
34,23,2022-12-30 14:32:00.064,Visalar
34,23,2022-12-30 14:33:00.064,Visalar
33,23,2022-12-30 14:34:00.064,Visalar
33,23,2022-12-30 14:35:00.004,Visalar
33,23,2022-12-30 14:36:00.005,Visalar
33,23,2022-12-30 14:37:00.016,Visalar
33,23,2022-12-30 14:38:00.065,Visalar
33,23,2022-12-30 14:39:00.065,Visalar
33,23,2022-12-30 14:40:00.064,Visalar
33,23,2022-12-30 14:41:00.064,Visalar
33,23,2022-12-30 14:42:00.064,Visalar
33,23,2022-12-30 14:43:00.064,Visalar
33,23,2022-12-30 14:44:00.064,Visalar
33,23,2022-12-30 14:45:00.064,Visalar
33,23,2022-12-30 14:46:00.064,Visalar
33,23,2022-12-30 14:47:00.064,Visalar
33,23,2022-12-30 14:48:00.064,Visalar
33,23,2022-12-30 14:49:00.064,Visalar
33,23,2022-12-30 14:50:00.064,Visalar
33,23,2022-12-30 14:51:00.005,Visalar
33,23,2022-12-30 14:52:00.064,Visalar
33,23,2022-12-30 14:53:00.064,Visalar
33,22,2022-12-30 14:54:00.064,Visalar
33,22,2022-12-30 14:55:00.064,Visalar
33,22,2022-12-30 14:56:00.064,Visalar
33,22,2022-12-30 14:57:00.064,Visalar
34,23,2022-12-30 14:59:00.064,Visalar
34,23,2022-12-30 15:00:00.064,Visalar
34,23,2022-12-30 15:01:00.063,Visalar
34,23,2022-12-30 15:02:00.064,Visalar
34,23,2022-12-30 15:03:00.032,Visalar
34,23,2022-12-30 15:04:00.064,Visalar
34,23,2022-12-30 15:05:00.064,Visalar
34,23,2022-12-30 15:06:00.064,Visalar
34,23,2022-12-30 15:07:00.064,Visalar
34,23,2022-12-30 15:08:00.064,Visalar
34,23,2022-12-30 15:09:00.064,Visalar
34,23,2022-12-30 15:10:00.064,Visalar
34,23,2022-12-30 15:11:00.064,Visalar
34,23,2022-12-30 15:12:00.064,Visalar
34,23,2022-12-30 15:13:00.064,Visalar
33,23,2022-12-30 15:14:00.064,Visalar
33,23,2022-12-30 15:15:00.064,Visalar
33,23,2022-12-30 15:16:00.064,Visalar
33,23,2022-12-30 15:17:00.064,Visalar
33,23,2022-12-30 15:18:00.064,Visalar
33,23,2022-12-30 15:19:00.065,Visalar
33,23,2022-12-30 15:20:00.006,Visalar
33,23,2022-12-30 15:21:00.064,Visalar
33,23,2022-12-30 15:22:00.064,Visalar
37,22,2022-12-30 15:23:00.064,Visalar
37,22,2022-12-30 15:24:00.017,Visalar
37,22,2022-12-30 15:25:00.064,Visalar
37,22,2022-12-30 15:26:00.064,Visalar
37,22,2022-12-30 15:27:00.064,Visalar
37,22,2022-12-30 15:28:00.065,Visalar
37,22,2022-12-30 15:29:00.024,Visalar
37,21,2022-12-30 15:30:00.004,Visalar
37,21,2022-12-30 15:31:00.038,Visalar
37,21,2022-12-30 15:32:00.005,Visalar
37,21,2022-12-30 15:33:00.005,Visalar
38,21,2022-12-30 15:34:00.064,Visalar
38,21,2022-12-30 15:35:00.064,Visalar
38,21,2022-12-30 15:36:00.024,Visalar
38,21,2022-12-30 15:37:00.064,Visalar
38,21,2022-12-30 15:38:00.064,Visalar
38,21,2022-12-30 15:39:00.005,Visalar
38,21,2022-12-30 15:40:00.065,Visalar
38,21,2022-12-30 15:41:00.065,Visalar
38,21,2022-12-30 15:42:00.064,Visalar
38,21,2022-12-30 15:43:00.014,Visalar
39,21,2022-12-30 15:44:00.064,Visalar
39,21,2022-12-30 15:45:00.064,Visalar
35,22,2022-12-30 15:47:00.065,Visalar
36,22,2022-12-30 15:48:00.064,Visalar
36,22,2022-12-30 15:49:00.064,Visalar
36,22,2022-12-30 15:50:00.064,Visalar
36,22,2022-12-30 15:51:00.065,Visalar
36,22,2022-12-30 15:52:00.065,Visalar
36,22,2022-12-30 15:53:00.065,Visalar
36,22,2022-12-30 15:54:00.064,Visalar
36,21,2022-12-30 15:55:00.064,Visalar
36,21,2022-12-30 15:56:00.065,Visalar
36,21,2022-12-30 15:57:00.065,Visalar
36,21,2022-12-30 15:58:00.065,Visalar
36,21,2022-12-30 15:59:00.018,Visalar
37,21,2022-12-30 16:00:00.065,Visalar
37,21,2022-12-30 16:01:00.065,Visalar
37,21,2022-12-30 16:02:00.065,Visalar
37,21,2022-12-30 16:03:00.064,Visalar
37,21,2022-12-30 16:04:00.064,Visalar
37,21,2022-12-30 16:05:00.037,Visalar
37,21,2022-12-30 16:06:00.061,Visalar
37,21,2022-12-30 16:07:00.064,Visalar
37,21,2022-12-30 16:08:00.064,Visalar
37,21,2022-12-30 16:09:00.004,Visalar
36,21,2022-12-30 16:11:00.065,Visalar
36,21,2022-12-30 16:12:00.065,Visalar
37,21,2022-12-30 16:13:00.064,Visalar
37,21,2022-12-30 16:14:00.065,Visalar
37,21,2022-12-30 16:15:00.064,Visalar
37,21,2022-12-30 16:16:00.017,Visalar
37,21,2022-12-30 16:17:00.064,Visalar
37,21,2022-12-30 16:18:00.062,Visalar
37,21,2022-12-30 16:19:00.064,Visalar
37,21,2022-12-30 16:20:00.064,Visalar
37,21,2022-12-30 16:21:00.064,Visalar
37,21,2022-12-30 16:22:00.064,Visalar
37,21,2022-12-30 16:23:00.064,Visalar
37,21,2022-12-30 16:24:00.064,Visalar
37,21,2022-12-30 16:25:00.065,Visalar
37,21,2022-12-30 16:26:00.048,Visalar
37,21,2022-12-30 16:27:00.017,Visalar
37,21,2022-12-30 16:28:00.064,Visalar
37,21,2022-12-30 16:29:00.064,Visalar
37,21,2022-12-30 16:30:00.064,Visalar
37,21,2022-12-30 16:31:00.065,Visalar
37,21,2022-12-30 16:32:00.065,Visalar
37,21,2022-12-30 16:33:00.064,Visalar
37,21,2022-12-30 16:34:00.021,Visalar
36,22,2022-12-30 16:35:00.065,Visalar
36,21,2022-12-30 16:36:00.065,Visalar
36,22,2022-12-30 16:37:00.006,Visalar
36,22,2022-12-30 16:38:00.065,Visalar
36,22,2022-12-30 16:39:00.064,Visalar
36,22,2022-12-30 16:40:00.064,Visalar
36,22,2022-12-30 16:41:00.064,Visalar
36,22,2022-12-30 16:42:00.065,Visalar
36,22,2022-12-30 16:43:00.064,Visalar
36,22,2022-12-30 16:44:00.064,Visalar
36,22,2022-12-30 16:45:00.065,Visalar
36,22,2022-12-30 16:46:00.065,Visalar
36,22,2022-12-30 16:47:00.064,Visalar
36,22,2022-12-30 16:48:00.064,Visalar
36,22,2022-12-30 16:49:00.017,Visalar
36,22,2022-12-30 16:50:00.064,Visalar
36,22,2022-12-30 16:51:00.064,Visalar
36,22,2022-12-30 16:52:00.064,Visalar
36,22,2022-12-30 16:53:00.065,Visalar
36,22,2022-12-30 16:54:00.065,Visalar
36,22,2022-12-30 16:55:00.064,Visalar
36,22,2022-12-30 16:56:00.064,Visalar
36,22,2022-12-30 16:57:00.064,Visalar
36,22,2022-12-30 16:58:00.064,Visalar
39,22,2022-12-30 17:00:00.064,Visalar
39,22,2022-12-30 17:01:00.064,Visalar
39,22,2022-12-30 17:02:00.064,Visalar
39,22,2022-12-30 17:03:00.064,Visalar
39,22,2022-12-30 17:04:00.064,Visalar
39,22,2022-12-30 17:05:00.065,Visalar
39,22,2022-12-30 17:06:00.064,Visalar
39,22,2022-12-30 17:07:00.006,Visalar
39,22,2022-12-30 17:08:00.065,Visalar
39,22,2022-12-30 17:09:00.065,Visalar
39,22,2022-12-30 17:10:00.065,Visalar
38,22,2022-12-30 17:11:00.064,Visalar
38,22,2022-12-30 17:12:00.064,Visalar
38,22,2022-12-30 17:13:00.064,Visalar
38,22,2022-12-30 17:14:00.064,Visalar
38,22,2022-12-30 17:15:00.005,Visalar
38,22,2022-12-30 17:16:00.064,Visalar
38,22,2022-12-30 17:17:00.065,Visalar
38,22,2022-12-30 17:18:00.065,Visalar
38,22,2022-12-30 17:19:00.065,Visalar
38,22,2022-12-30 17:20:00.065,Visalar
38,22,2022-12-30 17:21:00.064,Visalar
38,22,2022-12-30 17:22:00.064,Visalar
38,22,2022-12-30 17:23:00.064,Visalar
33,22,2022-12-30 17:24:00.065,Visalar
33,22,2022-12-30 17:25:00.052,Visalar
33,22,2022-12-30 17:26:00.066,Visalar
33,22,2022-12-30 17:27:00.064,Visalar
33,22,2022-12-30 17:28:00.064,Visalar
33,22,2022-12-30 17:29:00.065,Visalar
33,22,2022-12-30 17:30:00.064,Visalar
33,22,2022-12-30 17:31:00.064,Visalar
33,22,2022-12-30 17:32:00.065,Visalar
33,22,2022-12-30 17:33:00.065,Visalar
33,22,2022-12-30 17:34:00.064,Visalar
33,22,2022-12-30 17:35:00.005,Visalar
33,22,2022-12-30 17:36:00.064,Visalar
33,22,2022-12-30 17:37:00.064,Visalar
33,22,2022-12-30 17:38:00.064,Visalar
33,22,2022-12-30 17:39:00.064,Visalar
33,22,2022-12-30 17:40:00.063,Visalar
33,22,2022-12-30 17:41:00.065,Visalar
33,22,2022-12-30 17:42:00.065,Visalar
33,22,2022-12-30 17:43:00.064,Visalar
33,22,2022-12-30 17:44:00.064,Visalar
33,22,2022-12-30 17:45:00.064,Visalar
33,22,2022-12-30 17:46:00.064,Visalar
37,22,2022-12-30 17:48:00.064,Visalar
37,22,2022-12-30 17:49:00.064,Visalar
37,22,2022-12-30 17:50:00.065,Visalar
37,22,2022-12-30 17:51:00.064,Visalar
37,22,2022-12-30 17:52:00.064,Visalar
37,22,2022-12-30 17:53:00.063,Visalar
37,22,2022-12-30 17:54:00.064,Visalar
37,22,2022-12-30 17:55:00.064,Visalar
37,22,2022-12-30 17:56:00.065,Visalar
37,22,2022-12-30 17:57:00.065,Visalar
37,22,2022-12-30 17:58:00.065,Visalar
37,22,2022-12-30 17:59:00.038,Visalar
37,22,2022-12-30 18:00:00.064,Visalar
37,22,2022-12-30 18:01:00.064,Visalar
37,22,2022-12-30 18:02:00.005,Visalar
37,22,2022-12-30 18:03:00.064,Visalar
37,22,2022-12-30 18:04:00.064,Visalar
37,22,2022-12-30 18:05:00.064,Visalar
37,22,2022-12-30 18:06:00.064,Visalar
37,22,2022-12-30 18:07:00.017,Visalar
37,22,2022-12-30 18:09:00.064,Visalar
37,22,2022-12-30 18:10:00.064,Visalar
37,22,2022-12-30 18:11:00.060,Visalar
36,22,2022-12-30 18:12:00.064,Visalar
36,22,2022-12-30 18:13:00.064,Visalar
36,22,2022-12-30 18:14:00.064,Visalar
36,22,2022-12-30 18:15:00.063,Visalar
36,22,2022-12-30 18:16:00.064,Visalar
36,22,2022-12-30 18:17:00.064,Visalar
36,22,2022-12-30 18:18:00.064,Visalar
36,22,2022-12-30 18:19:00.064,Visalar
36,22,2022-12-30 18:20:00.064,Visalar
36,22,2022-12-30 18:21:00.064,Visalar
36,22,2022-12-30 18:22:00.065,Visalar
36,22,2022-12-30 18:23:00.063,Visalar
36,22,2022-12-30 18:24:00.063,Visalar
36,22,2022-12-30 18:25:00.064,Visalar
35,22,2022-12-30 18:26:00.064,Visalar
35,22,2022-12-30 18:27:00.064,Visalar
35,22,2022-12-30 18:28:00.063,Visalar
35,22,2022-12-30 18:29:00.065,Visalar
35,22,2022-12-30 18:30:00.064,Visalar
35,22,2022-12-30 18:31:00.065,Visalar
35,22,2022-12-30 18:32:00.015,Visalar
35,22,2022-12-30 18:33:00.064,Visalar
35,22,2022-12-30 18:34:00.005,Visalar
35,22,2022-12-30 18:35:00.007,Visalar
35,21,2022-12-30 18:36:00.064,Visalar
35,21,2022-12-30 18:37:00.065,Visalar
35,21,2022-12-30 18:38:00.065,Visalar
35,21,2022-12-30 18:39:00.053,Visalar
35,21,2022-12-30 18:40:00.003,Visalar
35,21,2022-12-30 18:41:00.064,Visalar
35,21,2022-12-30 18:42:00.006,Visalar
35,21,2022-12-30 18:43:00.064,Visalar
35,21,2022-12-30 18:44:00.064,Visalar
35,21,2022-12-30 18:45:00.065,Visalar
35,21,2022-12-30 18:46:00.065,Visalar
35,21,2022-12-30 18:47:00.066,Visalar
35,21,2022-12-30 18:48:00.065,Visalar
35,21,2022-12-30 18:49:00.064,Visalar
35,21,2022-12-30 18:50:00.064,Visalar
35,21,2022-12-30 18:51:00.064,Visalar
35,21,2022-12-30 18:52:00.064,Visalar
35,21,2022-12-30 18:53:00.064,Visalar
35,21,2022-12-30 18:54:00.064,Visalar
35,21,2022-12-30 18:55:00.065,Visalar
35,21,2022-12-30 18:56:00.064,Visalar
35,21,2022-12-30 18:57:00.065,Visalar
35,21,2022-12-30 18:58:00.062,Visalar
34,21,2022-12-30 18:59:00.065,Visalar
34,21,2022-12-30 19:00:00.065,Visalar
34,21,2022-12-30 19:01:00.064,Visalar
34,21,2022-12-30 19:02:00.065,Visalar
34,21,2022-12-30 19:03:00.064,Visalar
34,21,2022-12-30 19:04:00.064,Visalar
34,21,2022-12-30 19:05:00.064,Visalar
34,21,2022-12-30 19:06:00.064,Visalar
34,21,2022-12-30 19:07:00.064,Visalar
34,21,2022-12-30 19:08:00.065,Visalar
34,21,2022-12-30 19:09:00.006,Visalar
34,21,2022-12-30 19:10:00.064,Visalar
34,21,2022-12-30 19:11:00.064,Visalar
34,21,2022-12-30 19:12:00.006,Visalar
34,21,2022-12-30 19:13:00.064,Visalar
34,21,2022-12-30 19:14:00.064,Visalar
34,21,2022-12-30 19:15:00.064,Visalar
34,21,2022-12-30 19:16:00.062,Visalar
34,21,2022-12-30 19:17:00.006,Visalar
34,21,2022-12-30 19:18:00.065,Visalar
34,21,2022-12-30 19:19:00.064,Visalar
34,21,2022-12-30 19:20:00.064,Visalar
34,21,2022-12-30 19:21:00.064,Visalar
34,21,2022-12-30 19:22:00.062,Visalar
34,22,2022-12-30 19:23:00.064,Visalar
34,22,2022-12-30 19:24:00.064,Visalar
34,22,2022-12-30 19:25:00.023,Visalar
34,22,2022-12-30 19:26:00.064,Visalar
34,22,2022-12-30 19:27:00.064,Visalar
34,22,2022-12-30 19:28:00.064,Visalar
34,22,2022-12-30 19:29:00.064,Visalar
34,22,2022-12-30 19:30:00.064,Visalar
34,22,2022-12-30 19:31:00.064,Visalar
34,22,2022-12-30 19:32:00.064,Visalar
34,22,2022-12-30 19:33:00.005,Visalar
34,22,2022-12-30 19:34:00.010,Visalar
34,22,2022-12-30 19:35:00.064,Visalar
34,22,2022-12-30 19:36:00.065,Visalar
34,22,2022-12-30 19:37:00.005,Visalar
34,22,2022-12-30 19:38:00.065,Visalar
34,22,2022-12-30 19:39:00.064,Visalar
34,22,2022-12-30 19:40:00.064,Visalar
34,22,2022-12-30 19:41:00.065,Visalar
34,22,2022-12-30 19:42:00.006,Visalar
34,22,2022-12-30 19:43:00.064,Visalar
34,22,2022-12-30 19:44:00.065,Visalar
34,22,2022-12-30 19:45:00.064,Visalar
34,22,2022-12-30 19:46:00.062,Visalar
54,21,2022-12-30 19:47:00.064,Visalar
53,21,2022-12-30 19:48:00.064,Visalar
53,21,2022-12-30 19:49:00.064,Visalar
53,21,2022-12-30 19:50:00.005,Visalar
53,21,2022-12-30 19:51:00.037,Visalar
53,21,2022-12-30 19:52:00.064,Visalar
53,21,2022-12-30 19:53:00.065,Visalar
53,21,2022-12-30 19:54:00.064,Visalar
53,21,2022-12-30 19:55:00.064,Visalar
52,21,2022-12-30 19:56:00.064,Visalar
52,21,2022-12-30 19:57:00.064,Visalar
52,21,2022-12-30 19:58:00.010,Visalar
52,21,2022-12-30 19:59:00.065,Visalar
52,21,2022-12-30 20:00:00.032,Visalar
52,21,2022-12-30 20:01:00.065,Visalar
52,21,2022-12-30 20:02:00.064,Visalar
52,21,2022-12-30 20:03:00.005,Visalar
52,21,2022-12-30 20:04:00.064,Visalar
52,21,2022-12-30 20:05:00.047,Visalar
51,21,2022-12-30 20:06:00.020,Visalar
51,21,2022-12-30 20:07:00.064,Visalar
51,21,2022-12-30 20:08:00.064,Visalar
51,21,2022-12-30 20:09:00.064,Visalar
51,21,2022-12-30 20:10:00.003,Visalar
35,22,2022-12-30 20:11:00.005,Visalar
35,22,2022-12-30 20:12:00.038,Visalar
35,22,2022-12-30 20:13:00.065,Visalar
35,22,2022-12-30 20:14:00.018,Visalar
35,22,2022-12-30 20:15:00.064,Visalar
35,22,2022-12-30 20:16:00.064,Visalar
35,22,2022-12-30 20:17:00.065,Visalar
35,22,2022-12-30 20:18:00.065,Visalar
35,22,2022-12-30 20:19:00.064,Visalar
35,22,2022-12-30 20:20:00.046,Visalar
36,22,2022-12-30 20:21:00.014,Visalar
36,22,2022-12-30 20:22:00.064,Visalar
36,22,2022-12-30 20:23:00.064,Visalar
36,21,2022-12-30 20:24:00.064,Visalar
36,21,2022-12-30 20:25:00.064,Visalar
36,21,2022-12-30 20:26:00.006,Visalar
36,21,2022-12-30 20:27:00.064,Visalar
37,21,2022-12-30 20:28:00.064,Visalar
37,21,2022-12-30 20:29:00.064,Visalar
37,21,2022-12-30 20:30:00.065,Visalar
37,21,2022-12-30 20:31:00.065,Visalar
37,21,2022-12-30 20:32:00.064,Visalar
37,21,2022-12-30 20:33:00.063,Visalar
37,21,2022-12-30 20:34:00.062,Visalar
43,21,2022-12-30 20:35:00.064,Visalar
43,21,2022-12-30 20:36:00.064,Visalar
43,21,2022-12-30 20:37:00.064,Visalar
43,21,2022-12-30 20:38:00.063,Visalar
43,21,2022-12-30 20:39:00.063,Visalar
43,21,2022-12-30 20:40:00.064,Visalar
43,21,2022-12-30 20:41:00.065,Visalar
43,21,2022-12-30 20:42:00.065,Visalar
43,21,2022-12-30 20:43:00.065,Visalar
43,21,2022-12-30 20:44:00.064,Visalar
43,21,2022-12-30 20:45:00.063,Visalar
43,21,2022-12-30 20:46:00.003,Visalar
43,21,2022-12-30 20:47:00.004,Visalar
43,21,2022-12-30 20:48:00.063,Visalar
43,21,2022-12-30 20:49:00.063,Visalar
43,21,2022-12-30 20:50:00.005,Visalar
43,21,2022-12-30 20:51:00.064,Visalar
43,21,2022-12-30 20:52:00.064,Visalar
43,21,2022-12-30 20:53:00.064,Visalar
43,21,2022-12-30 20:54:00.065,Visalar
43,21,2022-12-30 20:55:00.038,Visalar
43,21,2022-12-30 20:56:00.064,Visalar
43,21,2022-12-30 20:57:00.022,Visalar
43,21,2022-12-30 20:58:00.062,Visalar
42,22,2022-12-30 20:59:00.064,Visalar
42,22,2022-12-30 21:00:00.065,Visalar
42,22,2022-12-30 21:01:00.064,Visalar
41,22,2022-12-30 21:02:00.064,Visalar
41,22,2022-12-30 21:03:00.064,Visalar
41,22,2022-12-30 21:04:00.017,Visalar
41,22,2022-12-30 21:05:00.064,Visalar
41,22,2022-12-30 21:06:00.064,Visalar
41,22,2022-12-30 21:07:00.064,Visalar
41,22,2022-12-30 21:08:00.064,Visalar
41,22,2022-12-30 21:09:00.064,Visalar
41,22,2022-12-30 21:10:00.064,Visalar
41,22,2022-12-30 21:11:00.065,Visalar
41,22,2022-12-30 21:12:00.064,Visalar
41,22,2022-12-30 21:13:00.016,Visalar
41,22,2022-12-30 21:14:00.065,Visalar
41,22,2022-12-30 21:15:00.065,Visalar
41,22,2022-12-30 21:16:00.064,Visalar
41,22,2022-12-30 21:17:00.064,Visalar
41,22,2022-12-30 21:18:00.005,Visalar
41,22,2022-12-30 21:19:00.020,Visalar
41,22,2022-12-30 21:20:00.005,Visalar
41,22,2022-12-30 21:21:00.018,Visalar
41,22,2022-12-30 21:22:00.062,Visalar
40,22,2022-12-30 21:23:00.064,Visalar
40,22,2022-12-30 21:24:00.064,Visalar
40,22,2022-12-30 21:25:00.064,Visalar
40,22,2022-12-30 21:26:00.064,Visalar
40,22,2022-12-30 21:27:00.064,Visalar
40,22,2022-12-30 21:28:00.064,Visalar
40,22,2022-12-30 21:29:00.064,Visalar
40,22,2022-12-30 21:30:00.064,Visalar
40,22,2022-12-30 21:31:00.065,Visalar
40,22,2022-12-30 21:32:00.064,Visalar
40,22,2022-12-30 21:33:00.064,Visalar
40,22,2022-12-30 21:34:00.004,Visalar
40,22,2022-12-30 21:35:00.064,Visalar
40,22,2022-12-30 21:36:00.064,Visalar
40,22,2022-12-30 21:37:00.064,Visalar
40,22,2022-12-30 21:38:00.062,Visalar
40,22,2022-12-30 21:39:00.064,Visalar
40,22,2022-12-30 21:40:00.064,Visalar
40,22,2022-12-30 21:41:00.064,Visalar
40,22,2022-12-30 21:42:00.064,Visalar
40,22,2022-12-30 21:43:00.065,Visalar
40,22,2022-12-30 21:44:00.064,Visalar
40,22,2022-12-30 21:45:00.065,Visalar
40,22,2022-12-30 21:46:00.003,Visalar
41,22,2022-12-30 21:47:00.064,Visalar
41,22,2022-12-30 21:48:00.064,Visalar
41,22,2022-12-30 21:49:00.064,Visalar
41,22,2022-12-30 21:50:00.005,Visalar
41,22,2022-12-30 21:51:00.064,Visalar
41,22,2022-12-30 21:52:00.005,Visalar
41,22,2022-12-30 21:53:00.064,Visalar
41,22,2022-12-30 21:54:00.064,Visalar
41,22,2022-12-30 21:55:00.064,Visalar
41,22,2022-12-30 21:56:00.064,Visalar
41,22,2022-12-30 21:57:00.064,Visalar
41,22,2022-12-30 21:58:00.029,Visalar
40,22,2022-12-30 21:59:00.064,Visalar
40,22,2022-12-30 22:00:00.063,Visalar
40,22,2022-12-30 22:01:00.064,Visalar
40,22,2022-12-30 22:02:00.064,Visalar
40,22,2022-12-30 22:03:00.017,Visalar
40,22,2022-12-30 22:04:00.064,Visalar
40,22,2022-12-30 22:05:00.064,Visalar
40,22,2022-12-30 22:06:00.064,Visalar
40,22,2022-12-30 22:07:00.064,Visalar
40,22,2022-12-30 22:08:00.064,Visalar
40,22,2022-12-30 22:09:00.037,Visalar
40,22,2022-12-30 22:10:00.062,Visalar
52,21,2022-12-30 22:11:00.064,Visalar
52,21,2022-12-30 22:12:00.064,Visalar
52,21,2022-12-30 22:13:00.064,Visalar
52,21,2022-12-30 22:14:00.064,Visalar
52,21,2022-12-30 22:15:00.064,Visalar
53,21,2022-12-30 22:16:00.064,Visalar
53,21,2022-12-30 22:17:00.064,Visalar
53,21,2022-12-30 22:18:00.064,Visalar
53,21,2022-12-30 22:19:00.006,Visalar
53,21,2022-12-30 22:20:00.064,Visalar
53,21,2022-12-30 22:21:00.064,Visalar
53,21,2022-12-30 22:22:00.064,Visalar
53,21,2022-12-30 22:23:00.064,Visalar
53,21,2022-12-30 22:24:00.064,Visalar
53,21,2022-12-30 22:25:00.005,Visalar
53,21,2022-12-30 22:26:00.064,Visalar
53,21,2022-12-30 22:27:00.065,Visalar
53,21,2022-12-30 22:28:00.065,Visalar
53,21,2022-12-30 22:29:00.064,Visalar
53,21,2022-12-30 22:30:00.017,Visalar
53,21,2022-12-30 22:31:00.064,Visalar
53,21,2022-12-30 22:32:00.005,Visalar
53,21,2022-12-30 22:33:00.063,Visalar
53,21,2022-12-30 22:34:00.064,Visalar
49,22,2022-12-30 22:35:00.065,Visalar
49,22,2022-12-30 22:36:00.065,Visalar
49,22,2022-12-30 22:37:00.064,Visalar
49,22,2022-12-30 22:38:00.064,Visalar
49,22,2022-12-30 22:39:00.064,Visalar
49,22,2022-12-30 22:40:00.064,Visalar
49,22,2022-12-30 22:41:00.064,Visalar
49,22,2022-12-30 22:42:00.064,Visalar
49,22,2022-12-30 22:43:00.064,Visalar
49,22,2022-12-30 22:44:00.064,Visalar
49,22,2022-12-30 22:45:00.005,Visalar
49,22,2022-12-30 22:46:00.064,Visalar
49,22,2022-12-30 22:47:00.040,Visalar
49,22,2022-12-30 22:48:00.064,Visalar
49,22,2022-12-30 22:49:00.049,Visalar
49,22,2022-12-30 22:50:00.064,Visalar
49,22,2022-12-30 22:51:00.022,Visalar
49,22,2022-12-30 22:52:00.049,Visalar
49,22,2022-12-30 22:53:00.014,Visalar
49,22,2022-12-30 22:54:00.014,Visalar
49,22,2022-12-30 22:55:00.014,Visalar
49,22,2022-12-30 22:56:00.015,Visalar
49,22,2022-12-30 22:57:00.014,Visalar
49,22,2022-12-30 22:58:00.010,Visalar
41,22,2022-12-30 22:59:00.014,Visalar
42,22,2022-12-30 23:00:00.013,Visalar
42,22,2022-12-30 23:01:00.008,Visalar
42,22,2022-12-30 23:02:00.063,Visalar
42,22,2022-12-30 23:03:00.014,Visalar
42,22,2022-12-30 23:04:00.064,Visalar
42,22,2022-12-30 23:05:00.064,Visalar
42,22,2022-12-30 23:06:00.063,Visalar
42,22,2022-12-30 23:07:00.064,Visalar
43,22,2022-12-30 23:08:00.063,Visalar
43,22,2022-12-30 23:09:00.006,Visalar
43,22,2022-12-30 23:10:00.064,Visalar
43,22,2022-12-30 23:11:00.015,Visalar
43,22,2022-12-30 23:12:00.030,Visalar
43,22,2022-12-30 23:13:00.064,Visalar
43,22,2022-12-30 23:14:00.063,Visalar
43,22,2022-12-30 23:15:00.063,Visalar
43,21,2022-12-30 23:16:00.064,Visalar
44,21,2022-12-30 23:17:00.064,Visalar
44,21,2022-12-30 23:18:00.064,Visalar
44,21,2022-12-30 23:19:00.064,Visalar
44,22,2022-12-30 23:20:00.064,Visalar
44,21,2022-12-30 23:21:00.064,Visalar
44,21,2022-12-30 23:22:00.063,Visalar
65,20,2022-12-30 23:23:00.064,Visalar
65,20,2022-12-30 23:24:00.064,Visalar
65,20,2022-12-30 23:25:00.064,Visalar
65,20,2022-12-30 23:26:00.064,Visalar
65,20,2022-12-30 23:27:00.064,Visalar
65,20,2022-12-30 23:28:00.064,Visalar
65,20,2022-12-30 23:29:00.063,Visalar
65,20,2022-12-30 23:30:00.014,Visalar
65,20,2022-12-30 23:31:00.014,Visalar
65,20,2022-12-30 23:32:00.014,Visalar
65,20,2022-12-30 23:33:00.064,Visalar
65,20,2022-12-30 23:34:00.064,Visalar
65,20,2022-12-30 23:35:00.064,Visalar
65,20,2022-12-30 23:36:00.064,Visalar
65,20,2022-12-30 23:37:00.064,Visalar
65,20,2022-12-30 23:38:00.064,Visalar
65,20,2022-12-30 23:39:00.064,Visalar
65,20,2022-12-30 23:40:00.005,Visalar
65,20,2022-12-30 23:41:00.063,Visalar
65,20,2022-12-30 23:42:00.063,Visalar
65,20,2022-12-30 23:44:00.063,Visalar
65,20,2022-12-30 23:45:00.064,Visalar
65,20,2022-12-30 23:46:00.060,Visalar
61,20,2022-12-30 23:47:00.064,Visalar
61,20,2022-12-30 23:48:00.064,Visalar
61,20,2022-12-30 23:49:00.063,Visalar
61,20,2022-12-30 23:50:00.063,Visalar
61,20,2022-12-30 23:51:00.063,Visalar
62,20,2022-12-30 23:52:00.063,Visalar
62,20,2022-12-30 23:53:00.064,Visalar
62,20,2022-12-30 23:54:00.064,Visalar
62,20,2022-12-30 23:55:00.063,Visalar
62,20,2022-12-30 23:56:00.064,Visalar
62,20,2022-12-30 23:57:00.063,Visalar
62,20,2022-12-30 23:58:00.064,Visalar
63,20,2022-12-30 23:59:00.004,Visalar
