Humid,Temp,date,sensorName
28,22,2022-11-28 00:00:00.062,Visalar
28,22,2022-11-28 00:01:00.044,Visalar
28,22,2022-11-28 00:02:00.034,Visalar
28,22,2022-11-28 00:03:00.048,Visalar
28,22,2022-11-28 00:04:00.044,Visalar
28,22,2022-11-28 00:05:00.024,Visalar
28,22,2022-11-28 00:06:00.062,Visalar
28,22,2022-11-28 00:07:00.062,Visalar
28,22,2022-11-28 00:08:00.062,Visalar
28,22,2022-11-28 00:09:00.062,Visalar
28,22,2022-11-28 00:10:00.062,Visalar
28,22,2022-11-28 00:11:00.062,Visalar
28,22,2022-11-28 00:12:00.062,Visalar
28,22,2022-11-28 00:13:00.062,Visalar
28,22,2022-11-28 00:14:00.062,Visalar
28,22,2022-11-28 00:15:00.052,Visalar
28,22,2022-11-28 00:16:00.032,Visalar
28,22,2022-11-28 00:17:00.012,Visalar
28,22,2022-11-28 00:18:00.062,Visalar
28,22,2022-11-28 00:19:00.062,Visalar
28,22,2022-11-28 00:20:00.062,Visalar
28,22,2022-11-28 00:21:00.062,Visalar
28,22,2022-11-28 00:22:00.062,Visalar
28,22,2022-11-28 00:23:00.062,Visalar
28,22,2022-11-28 00:24:00.062,Visalar
28,22,2022-11-28 00:25:00.012,Visalar
28,22,2022-11-28 00:26:00.062,Visalar
28,22,2022-11-28 00:27:00.056,Visalar
28,22,2022-11-28 00:28:00.040,Visalar
28,22,2022-11-28 00:29:00.020,Visalar
28,22,2022-11-28 00:30:00.030,Visalar
28,22,2022-11-28 00:31:00.012,Visalar
28,22,2022-11-28 00:32:00.060,Visalar
28,22,2022-11-28 00:33:00.062,Visalar
28,22,2022-11-28 00:34:00.036,Visalar
28,22,2022-11-28 00:35:00.062,Visalar
28,22,2022-11-28 00:36:00.048,Visalar
28,22,2022-11-28 00:37:00.062,Visalar
28,22,2022-11-28 00:38:00.062,Visalar
28,22,2022-11-28 00:39:00.062,Visalar
28,22,2022-11-28 00:40:00.005,Visalar
28,22,2022-11-28 00:42:00.026,Visalar
28,22,2022-11-28 00:43:00.012,Visalar
28,22,2022-11-28 00:44:00.059,Visalar
28,22,2022-11-28 00:45:00.052,Visalar
28,22,2022-11-28 00:46:00.062,Visalar
28,22,2022-11-28 00:47:00.062,Visalar
28,22,2022-11-28 00:48:00.022,Visalar
28,22,2022-11-28 00:49:00.062,Visalar
28,22,2022-11-28 00:50:00.062,Visalar
28,22,2022-11-28 00:51:00.062,Visalar
28,22,2022-11-28 00:52:00.062,Visalar
28,22,2022-11-28 00:53:00.062,Visalar
28,22,2022-11-28 00:54:00.062,Visalar
28,22,2022-11-28 00:55:00.005,Visalar
28,22,2022-11-28 00:56:00.062,Visalar
28,22,2022-11-28 00:57:00.062,Visalar
28,22,2022-11-28 00:58:00.005,Visalar
28,22,2022-11-28 00:59:00.012,Visalar
28,22,2022-11-28 01:00:00.062,Visalar
28,22,2022-11-28 01:01:00.062,Visalar
28,22,2022-11-28 01:02:00.062,Visalar
28,22,2022-11-28 01:03:00.062,Visalar
28,22,2022-11-28 01:04:00.062,Visalar
28,22,2022-11-28 01:05:00.024,Visalar
28,22,2022-11-28 01:06:00.012,Visalar
28,22,2022-11-28 01:07:00.062,Visalar
28,22,2022-11-28 01:08:00.061,Visalar
28,22,2022-11-28 01:09:00.012,Visalar
28,22,2022-11-28 01:10:00.020,Visalar
28,22,2022-11-28 01:11:00.062,Visalar
28,22,2022-11-28 01:12:00.004,Visalar
28,22,2022-11-28 01:13:00.012,Visalar
28,22,2022-11-28 01:14:00.062,Visalar
28,22,2022-11-28 01:15:00.062,Visalar
28,22,2022-11-28 01:16:00.062,Visalar
28,22,2022-11-28 01:17:00.002,Visalar
28,22,2022-11-28 01:18:00.061,Visalar
28,22,2022-11-28 01:19:00.002,Visalar
28,22,2022-11-28 01:20:00.062,Visalar
28,22,2022-11-28 01:21:00.024,Visalar
28,22,2022-11-28 01:22:00.058,Visalar
28,22,2022-11-28 01:23:00.062,Visalar
28,22,2022-11-28 01:24:00.062,Visalar
28,22,2022-11-28 01:25:00.005,Visalar
28,22,2022-11-28 01:26:00.062,Visalar
28,22,2022-11-28 01:27:00.060,Visalar
28,22,2022-11-28 01:28:00.004,Visalar
28,22,2022-11-28 01:30:00.004,Visalar
28,22,2022-11-28 01:31:00.062,Visalar
28,22,2022-11-28 01:32:00.060,Visalar
28,22,2022-11-28 01:33:00.004,Visalar
28,22,2022-11-28 01:34:00.062,Visalar
28,22,2022-11-28 01:35:00.039,Visalar
28,22,2022-11-28 01:36:00.012,Visalar
28,22,2022-11-28 01:37:00.012,Visalar
28,22,2022-11-28 01:38:00.012,Visalar
28,22,2022-11-28 01:39:00.012,Visalar
28,22,2022-11-28 01:40:00.012,Visalar
28,22,2022-11-28 01:41:00.011,Visalar
28,22,2022-11-28 01:42:00.046,Visalar
28,22,2022-11-28 01:43:00.012,Visalar
28,22,2022-11-28 01:44:00.062,Visalar
28,22,2022-11-28 01:45:00.062,Visalar
28,22,2022-11-28 01:46:00.062,Visalar
28,22,2022-11-28 01:47:00.062,Visalar
28,22,2022-11-28 01:48:00.062,Visalar
28,22,2022-11-28 01:49:00.004,Visalar
28,22,2022-11-28 01:50:00.004,Visalar
28,22,2022-11-28 01:51:00.062,Visalar
28,22,2022-11-28 01:52:00.003,Visalar
28,22,2022-11-28 01:53:00.052,Visalar
28,22,2022-11-28 01:54:00.028,Visalar
28,22,2022-11-28 01:55:00.012,Visalar
28,22,2022-11-28 01:56:00.061,Visalar
29,22,2022-11-28 01:57:00.062,Visalar
29,22,2022-11-28 01:58:00.062,Visalar
29,22,2022-11-28 01:59:00.062,Visalar
29,22,2022-11-28 02:00:00.062,Visalar
29,22,2022-11-28 02:01:00.062,Visalar
29,22,2022-11-28 02:02:00.062,Visalar
29,22,2022-11-28 02:03:00.046,Visalar
29,22,2022-11-28 02:04:00.062,Visalar
29,22,2022-11-28 02:05:00.062,Visalar
29,22,2022-11-28 02:06:00.012,Visalar
29,22,2022-11-28 02:07:00.004,Visalar
29,22,2022-11-28 02:08:00.004,Visalar
29,22,2022-11-28 02:09:00.062,Visalar
29,22,2022-11-28 02:10:00.062,Visalar
29,22,2022-11-28 02:11:00.012,Visalar
29,22,2022-11-28 02:12:00.012,Visalar
29,22,2022-11-28 02:13:00.062,Visalar
29,22,2022-11-28 02:14:00.062,Visalar
29,22,2022-11-28 02:15:00.062,Visalar
29,22,2022-11-28 02:16:00.004,Visalar
29,22,2022-11-28 02:18:00.062,Visalar
29,22,2022-11-28 02:19:00.062,Visalar
29,22,2022-11-28 02:20:00.002,Visalar
29,22,2022-11-28 02:21:00.018,Visalar
29,22,2022-11-28 02:22:00.009,Visalar
29,22,2022-11-28 02:23:00.012,Visalar
29,22,2022-11-28 02:24:00.012,Visalar
29,22,2022-11-28 02:25:00.004,Visalar
29,22,2022-11-28 02:26:00.062,Visalar
29,22,2022-11-28 02:27:00.062,Visalar
29,22,2022-11-28 02:28:00.062,Visalar
29,22,2022-11-28 02:29:00.062,Visalar
29,22,2022-11-28 02:30:00.062,Visalar
29,22,2022-11-28 02:31:00.004,Visalar
29,22,2022-11-28 02:32:00.062,Visalar
29,22,2022-11-28 02:33:00.019,Visalar
29,22,2022-11-28 02:34:00.062,Visalar
29,22,2022-11-28 02:35:00.062,Visalar
29,22,2022-11-28 02:36:00.004,Visalar
29,22,2022-11-28 02:37:00.062,Visalar
29,22,2022-11-28 02:38:00.062,Visalar
29,22,2022-11-28 02:39:00.062,Visalar
29,22,2022-11-28 02:40:00.062,Visalar
29,22,2022-11-28 02:41:00.062,Visalar
29,22,2022-11-28 02:42:00.043,Visalar
29,22,2022-11-28 02:43:00.012,Visalar
29,22,2022-11-28 02:44:00.062,Visalar
28,22,2022-11-28 02:45:00.062,Visalar
28,22,2022-11-28 02:46:00.062,Visalar
28,22,2022-11-28 02:47:00.062,Visalar
28,22,2022-11-28 02:48:00.062,Visalar
28,22,2022-11-28 02:49:00.004,Visalar
28,22,2022-11-28 02:50:00.062,Visalar
28,22,2022-11-28 02:51:00.062,Visalar
28,22,2022-11-28 02:52:00.012,Visalar
28,22,2022-11-28 02:53:00.062,Visalar
28,22,2022-11-28 02:54:00.062,Visalar
28,22,2022-11-28 02:55:00.012,Visalar
28,22,2022-11-28 02:56:00.062,Visalar
28,22,2022-11-28 02:57:00.062,Visalar
28,22,2022-11-28 02:58:00.062,Visalar
28,22,2022-11-28 02:59:00.062,Visalar
28,22,2022-11-28 03:00:00.062,Visalar
28,22,2022-11-28 03:01:00.004,Visalar
28,22,2022-11-28 03:02:00.062,Visalar
28,22,2022-11-28 03:03:00.062,Visalar
28,22,2022-11-28 03:04:00.004,Visalar
28,22,2022-11-28 03:05:00.062,Visalar
28,22,2022-11-28 03:06:00.062,Visalar
28,22,2022-11-28 03:07:00.052,Visalar
28,22,2022-11-28 03:08:00.060,Visalar
28,22,2022-11-28 03:09:00.012,Visalar
28,22,2022-11-28 03:10:00.012,Visalar
28,22,2022-11-28 03:11:00.062,Visalar
28,22,2022-11-28 03:12:00.012,Visalar
28,22,2022-11-28 03:13:00.012,Visalar
28,22,2022-11-28 03:14:00.062,Visalar
28,22,2022-11-28 03:15:00.062,Visalar
28,22,2022-11-28 03:16:00.062,Visalar
28,22,2022-11-28 03:17:00.061,Visalar
28,22,2022-11-28 03:18:00.049,Visalar
28,22,2022-11-28 03:19:00.062,Visalar
28,22,2022-11-28 03:20:00.062,Visalar
28,22,2022-11-28 03:21:00.062,Visalar
28,22,2022-11-28 03:22:00.062,Visalar
28,22,2022-11-28 03:23:00.062,Visalar
28,22,2022-11-28 03:24:00.062,Visalar
28,22,2022-11-28 03:25:00.062,Visalar
28,22,2022-11-28 03:26:00.002,Visalar
28,22,2022-11-28 03:27:00.005,Visalar
28,22,2022-11-28 03:28:00.053,Visalar
28,22,2022-11-28 03:29:00.062,Visalar
28,22,2022-11-28 03:30:00.062,Visalar
28,22,2022-11-28 03:31:00.062,Visalar
28,22,2022-11-28 03:32:00.062,Visalar
28,22,2022-11-28 03:33:00.062,Visalar
28,22,2022-11-28 03:34:00.017,Visalar
28,22,2022-11-28 03:35:00.062,Visalar
28,22,2022-11-28 03:36:00.039,Visalar
28,22,2022-11-28 03:37:00.061,Visalar
28,22,2022-11-28 03:38:00.062,Visalar
28,22,2022-11-28 03:39:00.056,Visalar
28,22,2022-11-28 03:40:00.058,Visalar
28,22,2022-11-28 03:41:00.012,Visalar
28,22,2022-11-28 03:42:00.004,Visalar
28,22,2022-11-28 03:43:00.002,Visalar
28,22,2022-11-28 03:44:00.062,Visalar
28,22,2022-11-28 03:45:00.062,Visalar
28,22,2022-11-28 03:46:00.012,Visalar
28,22,2022-11-28 03:47:00.062,Visalar
28,22,2022-11-28 03:48:00.062,Visalar
28,22,2022-11-28 03:49:00.062,Visalar
28,22,2022-11-28 03:50:00.062,Visalar
28,22,2022-11-28 03:51:00.062,Visalar
28,22,2022-11-28 03:52:00.062,Visalar
28,22,2022-11-28 03:53:00.062,Visalar
28,22,2022-11-28 03:54:00.062,Visalar
28,22,2022-11-28 03:55:00.062,Visalar
28,22,2022-11-28 03:57:00.062,Visalar
28,22,2022-11-28 03:58:00.062,Visalar
28,22,2022-11-28 03:59:00.062,Visalar
28,22,2022-11-28 04:00:00.012,Visalar
28,22,2022-11-28 04:01:00.062,Visalar
28,22,2022-11-28 04:02:00.062,Visalar
28,22,2022-11-28 04:03:00.062,Visalar
28,22,2022-11-28 04:04:00.062,Visalar
28,22,2022-11-28 04:05:00.062,Visalar
28,22,2022-11-28 04:06:00.062,Visalar
28,22,2022-11-28 04:07:00.062,Visalar
28,22,2022-11-28 04:08:00.061,Visalar
28,22,2022-11-28 04:09:00.012,Visalar
28,22,2022-11-28 04:10:00.062,Visalar
28,22,2022-11-28 04:11:00.062,Visalar
28,22,2022-11-28 04:12:00.004,Visalar
28,22,2022-11-28 04:13:00.012,Visalar
28,22,2022-11-28 04:14:00.062,Visalar
28,22,2022-11-28 04:15:00.062,Visalar
28,22,2022-11-28 04:16:00.062,Visalar
28,22,2022-11-28 04:17:00.062,Visalar
28,22,2022-11-28 04:18:00.062,Visalar
28,22,2022-11-28 04:19:00.062,Visalar
28,22,2022-11-28 04:20:00.062,Visalar
28,22,2022-11-28 04:21:00.062,Visalar
28,22,2022-11-28 04:22:00.062,Visalar
28,22,2022-11-28 04:23:00.020,Visalar
28,22,2022-11-28 04:24:00.024,Visalar
28,22,2022-11-28 04:25:00.062,Visalar
28,22,2022-11-28 04:26:00.062,Visalar
28,22,2022-11-28 04:27:00.002,Visalar
28,22,2022-11-28 04:28:00.062,Visalar
28,22,2022-11-28 04:29:00.062,Visalar
28,22,2022-11-28 04:30:00.062,Visalar
28,22,2022-11-28 04:31:00.062,Visalar
28,22,2022-11-28 04:32:00.062,Visalar
28,22,2022-11-28 04:33:00.062,Visalar
28,22,2022-11-28 04:34:00.042,Visalar
28,22,2022-11-28 04:35:00.062,Visalar
28,22,2022-11-28 04:36:00.047,Visalar
28,22,2022-11-28 04:37:00.062,Visalar
28,22,2022-11-28 04:38:00.062,Visalar
28,22,2022-11-28 04:39:00.018,Visalar
28,22,2022-11-28 04:40:00.062,Visalar
28,22,2022-11-28 04:41:00.062,Visalar
28,22,2022-11-28 04:42:00.051,Visalar
28,22,2022-11-28 04:43:00.062,Visalar
28,22,2022-11-28 04:44:00.060,Visalar
27,22,2022-11-28 04:45:00.062,Visalar
27,22,2022-11-28 04:46:00.062,Visalar
27,22,2022-11-28 04:47:00.062,Visalar
27,22,2022-11-28 04:48:00.062,Visalar
27,22,2022-11-28 04:49:00.002,Visalar
27,22,2022-11-28 04:50:00.020,Visalar
27,22,2022-11-28 04:51:00.062,Visalar
27,22,2022-11-28 04:52:00.062,Visalar
27,22,2022-11-28 04:53:00.062,Visalar
27,22,2022-11-28 04:54:00.061,Visalar
27,22,2022-11-28 04:55:00.012,Visalar
27,22,2022-11-28 04:56:00.062,Visalar
27,22,2022-11-28 04:57:00.062,Visalar
27,22,2022-11-28 04:58:00.062,Visalar
27,22,2022-11-28 04:59:00.062,Visalar
27,22,2022-11-28 05:00:00.062,Visalar
27,22,2022-11-28 05:01:00.062,Visalar
27,22,2022-11-28 05:02:00.062,Visalar
27,22,2022-11-28 05:03:00.062,Visalar
27,22,2022-11-28 05:04:00.062,Visalar
27,22,2022-11-28 05:05:00.062,Visalar
27,22,2022-11-28 05:06:00.062,Visalar
27,22,2022-11-28 05:07:00.016,Visalar
27,22,2022-11-28 05:08:00.052,Visalar
28,22,2022-11-28 05:09:00.012,Visalar
28,22,2022-11-28 05:10:00.062,Visalar
28,22,2022-11-28 05:11:00.012,Visalar
28,22,2022-11-28 05:12:00.062,Visalar
28,22,2022-11-28 05:13:00.003,Visalar
28,22,2022-11-28 05:14:00.060,Visalar
28,22,2022-11-28 05:15:00.062,Visalar
28,22,2022-11-28 05:16:00.004,Visalar
28,22,2022-11-28 05:17:00.062,Visalar
28,22,2022-11-28 05:18:00.021,Visalar
28,22,2022-11-28 05:19:00.004,Visalar
28,22,2022-11-28 05:20:00.062,Visalar
28,22,2022-11-28 05:21:00.062,Visalar
28,22,2022-11-28 05:22:00.012,Visalar
28,22,2022-11-28 05:23:00.062,Visalar
28,22,2022-11-28 05:24:00.062,Visalar
28,22,2022-11-28 05:25:00.056,Visalar
28,22,2022-11-28 05:26:00.062,Visalar
28,22,2022-11-28 05:27:00.044,Visalar
28,22,2022-11-28 05:28:00.050,Visalar
28,22,2022-11-28 05:29:00.061,Visalar
28,22,2022-11-28 05:30:00.055,Visalar
28,22,2022-11-28 05:31:00.059,Visalar
29,22,2022-11-28 05:33:00.044,Visalar
29,22,2022-11-28 05:34:00.024,Visalar
29,22,2022-11-28 05:35:00.027,Visalar
29,22,2022-11-28 05:36:00.062,Visalar
29,22,2022-11-28 05:37:00.062,Visalar
29,22,2022-11-28 05:38:00.062,Visalar
29,22,2022-11-28 05:39:00.062,Visalar
29,22,2022-11-28 05:40:00.062,Visalar
29,22,2022-11-28 05:41:00.062,Visalar
29,22,2022-11-28 05:42:00.062,Visalar
29,22,2022-11-28 05:43:00.053,Visalar
29,22,2022-11-28 05:44:00.011,Visalar
29,22,2022-11-28 05:45:00.004,Visalar
29,22,2022-11-28 05:46:00.004,Visalar
29,22,2022-11-28 05:47:00.004,Visalar
29,22,2022-11-28 05:48:00.049,Visalar
29,22,2022-11-28 05:49:00.008,Visalar
29,22,2022-11-28 05:50:00.062,Visalar
29,22,2022-11-28 05:51:00.062,Visalar
29,22,2022-11-28 05:52:00.062,Visalar
29,22,2022-11-28 05:53:00.062,Visalar
29,22,2022-11-28 05:54:00.061,Visalar
29,22,2022-11-28 05:55:00.021,Visalar
29,22,2022-11-28 05:56:00.062,Visalar
29,22,2022-11-28 05:57:00.062,Visalar
29,22,2022-11-28 05:58:00.062,Visalar
29,22,2022-11-28 05:59:00.062,Visalar
29,22,2022-11-28 06:00:00.062,Visalar
29,22,2022-11-28 06:01:00.002,Visalar
29,22,2022-11-28 06:02:00.002,Visalar
29,22,2022-11-28 06:03:00.062,Visalar
29,22,2022-11-28 06:04:00.062,Visalar
29,22,2022-11-28 06:05:00.062,Visalar
29,22,2022-11-28 06:06:00.062,Visalar
29,22,2022-11-28 06:07:00.056,Visalar
29,22,2022-11-28 06:08:00.054,Visalar
29,22,2022-11-28 06:09:00.004,Visalar
29,22,2022-11-28 06:10:00.053,Visalar
29,22,2022-11-28 06:11:00.062,Visalar
29,22,2022-11-28 06:12:00.062,Visalar
29,22,2022-11-28 06:13:00.062,Visalar
29,22,2022-11-28 06:14:00.012,Visalar
29,22,2022-11-28 06:15:00.012,Visalar
29,22,2022-11-28 06:16:00.012,Visalar
29,22,2022-11-28 06:17:00.012,Visalar
29,22,2022-11-28 06:18:00.062,Visalar
29,22,2022-11-28 06:19:00.062,Visalar
30,22,2022-11-28 06:20:00.061,Visalar
30,22,2022-11-28 06:21:00.062,Visalar
30,22,2022-11-28 06:22:00.062,Visalar
30,22,2022-11-28 06:23:00.062,Visalar
30,22,2022-11-28 06:24:00.062,Visalar
30,22,2022-11-28 06:25:00.062,Visalar
30,22,2022-11-28 06:26:00.062,Visalar
30,22,2022-11-28 06:27:00.062,Visalar
30,22,2022-11-28 06:28:00.062,Visalar
30,22,2022-11-28 06:29:00.062,Visalar
30,22,2022-11-28 06:30:00.062,Visalar
30,22,2022-11-28 06:31:00.062,Visalar
30,22,2022-11-28 06:32:00.062,Visalar
30,22,2022-11-28 06:33:00.062,Visalar
30,22,2022-11-28 06:34:00.062,Visalar
30,22,2022-11-28 06:35:00.062,Visalar
30,22,2022-11-28 06:36:00.012,Visalar
30,22,2022-11-28 06:37:00.011,Visalar
30,22,2022-11-28 06:38:00.062,Visalar
30,22,2022-11-28 06:39:00.062,Visalar
30,22,2022-11-28 06:40:00.062,Visalar
30,22,2022-11-28 06:41:00.062,Visalar
30,22,2022-11-28 06:42:00.062,Visalar
28,22,2022-11-28 06:44:00.002,Visalar
28,22,2022-11-28 06:45:00.062,Visalar
28,22,2022-11-28 06:46:00.029,Visalar
28,22,2022-11-28 06:47:00.005,Visalar
28,22,2022-11-28 06:48:00.005,Visalar
28,22,2022-11-28 06:49:00.062,Visalar
28,22,2022-11-28 06:50:00.062,Visalar
28,22,2022-11-28 06:51:00.062,Visalar
28,22,2022-11-28 06:52:00.062,Visalar
28,22,2022-11-28 06:53:00.062,Visalar
28,22,2022-11-28 06:54:00.062,Visalar
28,22,2022-11-28 06:55:00.052,Visalar
28,22,2022-11-28 06:56:00.062,Visalar
28,22,2022-11-28 06:57:00.062,Visalar
28,22,2022-11-28 06:58:00.062,Visalar
28,22,2022-11-28 06:59:00.062,Visalar
28,22,2022-11-28 07:00:00.063,Visalar
28,22,2022-11-28 07:01:00.062,Visalar
28,22,2022-11-28 07:02:00.062,Visalar
28,22,2022-11-28 07:03:00.062,Visalar
28,22,2022-11-28 07:04:00.012,Visalar
28,22,2022-11-28 07:05:00.062,Visalar
28,22,2022-11-28 07:06:00.062,Visalar
28,22,2022-11-28 07:07:00.062,Visalar
28,22,2022-11-28 07:08:00.062,Visalar
28,22,2022-11-28 07:09:00.062,Visalar
28,22,2022-11-28 07:10:00.062,Visalar
28,22,2022-11-28 07:11:00.062,Visalar
28,22,2022-11-28 07:12:00.062,Visalar
28,22,2022-11-28 07:13:00.062,Visalar
28,22,2022-11-28 07:14:00.012,Visalar
28,22,2022-11-28 07:15:00.062,Visalar
28,22,2022-11-28 07:16:00.004,Visalar
28,22,2022-11-28 07:17:00.062,Visalar
28,22,2022-11-28 07:18:00.025,Visalar
28,22,2022-11-28 07:19:00.062,Visalar
28,22,2022-11-28 07:20:00.004,Visalar
28,22,2022-11-28 07:21:00.062,Visalar
28,22,2022-11-28 07:22:00.002,Visalar
28,22,2022-11-28 07:23:00.062,Visalar
28,22,2022-11-28 07:24:00.059,Visalar
28,22,2022-11-28 07:25:00.002,Visalar
28,22,2022-11-28 07:26:00.062,Visalar
28,22,2022-11-28 07:27:00.062,Visalar
28,22,2022-11-28 07:28:00.062,Visalar
28,22,2022-11-28 07:29:00.062,Visalar
28,22,2022-11-28 07:30:00.062,Visalar
28,22,2022-11-28 07:31:00.062,Visalar
28,22,2022-11-28 07:33:00.062,Visalar
28,22,2022-11-28 07:34:00.062,Visalar
28,22,2022-11-28 07:35:00.062,Visalar
28,22,2022-11-28 07:36:00.062,Visalar
28,22,2022-11-28 07:37:00.023,Visalar
28,22,2022-11-28 07:38:00.062,Visalar
28,22,2022-11-28 07:39:00.062,Visalar
28,22,2022-11-28 07:40:00.062,Visalar
28,22,2022-11-28 07:41:00.062,Visalar
28,22,2022-11-28 07:42:00.062,Visalar
28,22,2022-11-28 07:43:00.062,Visalar
28,22,2022-11-28 07:44:00.062,Visalar
28,22,2022-11-28 07:45:00.062,Visalar
28,22,2022-11-28 07:46:00.062,Visalar
28,22,2022-11-28 07:47:00.063,Visalar
28,22,2022-11-28 07:48:00.063,Visalar
28,22,2022-11-28 07:49:00.025,Visalar
28,22,2022-11-28 07:50:00.024,Visalar
28,22,2022-11-28 07:51:00.063,Visalar
28,22,2022-11-28 07:52:00.063,Visalar
28,22,2022-11-28 07:53:00.063,Visalar
28,22,2022-11-28 07:54:00.063,Visalar
28,22,2022-11-28 07:55:00.012,Visalar
28,22,2022-11-28 07:56:00.060,Visalar
28,22,2022-11-28 07:57:00.062,Visalar
28,22,2022-11-28 07:58:00.013,Visalar
28,22,2022-11-28 07:59:00.062,Visalar
28,22,2022-11-28 08:00:00.062,Visalar
28,22,2022-11-28 08:01:00.062,Visalar
28,22,2022-11-28 08:02:00.062,Visalar
28,22,2022-11-28 08:03:00.055,Visalar
28,22,2022-11-28 08:04:00.002,Visalar
28,22,2022-11-28 08:05:00.012,Visalar
28,22,2022-11-28 08:06:00.062,Visalar
28,22,2022-11-28 08:07:00.062,Visalar
28,22,2022-11-28 08:08:00.062,Visalar
28,22,2022-11-28 08:09:00.002,Visalar
28,22,2022-11-28 08:10:00.062,Visalar
28,22,2022-11-28 08:11:00.062,Visalar
28,22,2022-11-28 08:12:00.062,Visalar
28,22,2022-11-28 08:13:00.062,Visalar
28,22,2022-11-28 08:14:00.062,Visalar
28,22,2022-11-28 08:15:00.062,Visalar
28,22,2022-11-28 08:16:00.056,Visalar
28,22,2022-11-28 08:17:00.062,Visalar
28,22,2022-11-28 08:18:00.062,Visalar
28,22,2022-11-28 08:19:00.062,Visalar
28,22,2022-11-28 08:20:00.061,Visalar
28,22,2022-11-28 08:21:00.062,Visalar
28,22,2022-11-28 08:22:00.062,Visalar
28,22,2022-11-28 08:23:00.062,Visalar
28,22,2022-11-28 08:24:00.002,Visalar
28,22,2022-11-28 08:25:00.062,Visalar
28,22,2022-11-28 08:26:00.062,Visalar
28,22,2022-11-28 08:27:00.062,Visalar
28,22,2022-11-28 08:28:00.012,Visalar
28,22,2022-11-28 08:29:00.062,Visalar
28,22,2022-11-28 08:30:00.012,Visalar
28,22,2022-11-28 08:31:00.062,Visalar
28,22,2022-11-28 08:32:00.062,Visalar
28,22,2022-11-28 08:33:00.056,Visalar
28,22,2022-11-28 08:34:00.062,Visalar
28,22,2022-11-28 08:35:00.062,Visalar
28,22,2022-11-28 08:36:00.062,Visalar
28,22,2022-11-28 08:37:00.062,Visalar
28,22,2022-11-28 08:38:00.012,Visalar
28,22,2022-11-28 08:39:00.004,Visalar
28,22,2022-11-28 08:40:00.062,Visalar
28,22,2022-11-28 08:41:00.012,Visalar
28,22,2022-11-28 08:42:00.062,Visalar
28,22,2022-11-28 08:43:00.062,Visalar
28,22,2022-11-28 08:44:00.061,Visalar
28,22,2022-11-28 08:45:00.062,Visalar
28,22,2022-11-28 08:46:00.012,Visalar
28,22,2022-11-28 08:47:00.012,Visalar
28,22,2022-11-28 08:48:00.012,Visalar
28,22,2022-11-28 08:49:00.012,Visalar
28,22,2022-11-28 08:50:00.012,Visalar
28,22,2022-11-28 08:51:00.012,Visalar
28,22,2022-11-28 08:52:00.002,Visalar
28,22,2022-11-28 08:53:00.004,Visalar
28,22,2022-11-28 08:54:00.012,Visalar
28,22,2022-11-28 08:55:00.062,Visalar
28,22,2022-11-28 08:56:00.060,Visalar
28,22,2022-11-28 08:57:00.056,Visalar
28,22,2022-11-28 08:58:00.002,Visalar
28,22,2022-11-28 08:59:00.062,Visalar
28,22,2022-11-28 09:00:00.062,Visalar
28,22,2022-11-28 09:01:00.062,Visalar
28,22,2022-11-28 09:02:00.062,Visalar
28,22,2022-11-28 09:03:00.014,Visalar
28,22,2022-11-28 09:04:00.002,Visalar
28,22,2022-11-28 09:05:00.062,Visalar
28,22,2022-11-28 09:06:00.062,Visalar
28,22,2022-11-28 09:07:00.062,Visalar
28,22,2022-11-28 09:08:00.019,Visalar
28,22,2022-11-28 09:09:00.062,Visalar
28,22,2022-11-28 09:10:00.062,Visalar
28,22,2022-11-28 09:11:00.062,Visalar
28,22,2022-11-28 09:12:00.062,Visalar
28,22,2022-11-28 09:13:00.002,Visalar
28,22,2022-11-28 09:14:00.035,Visalar
28,22,2022-11-28 09:15:00.062,Visalar
28,22,2022-11-28 09:16:00.016,Visalar
28,22,2022-11-28 09:17:00.062,Visalar
28,22,2022-11-28 09:18:00.061,Visalar
28,22,2022-11-28 09:19:00.062,Visalar
28,22,2022-11-28 09:20:00.061,Visalar
28,22,2022-11-28 09:21:00.062,Visalar
28,22,2022-11-28 09:22:00.059,Visalar
28,22,2022-11-28 09:23:00.062,Visalar
28,22,2022-11-28 09:24:00.012,Visalar
28,22,2022-11-28 09:25:00.062,Visalar
28,22,2022-11-28 09:26:00.062,Visalar
28,22,2022-11-28 09:27:00.062,Visalar
28,22,2022-11-28 09:28:00.062,Visalar
28,22,2022-11-28 09:29:00.062,Visalar
28,22,2022-11-28 09:30:00.062,Visalar
28,22,2022-11-28 09:31:00.012,Visalar
28,22,2022-11-28 09:32:00.023,Visalar
31,22,2022-11-28 09:33:00.062,Visalar
31,22,2022-11-28 09:34:00.062,Visalar
31,22,2022-11-28 09:35:00.062,Visalar
31,22,2022-11-28 09:36:00.062,Visalar
31,22,2022-11-28 09:37:00.062,Visalar
31,22,2022-11-28 09:38:00.048,Visalar
31,22,2022-11-28 09:39:00.004,Visalar
31,22,2022-11-28 09:40:00.056,Visalar
31,22,2022-11-28 09:41:00.018,Visalar
31,22,2022-11-28 09:42:00.062,Visalar
31,22,2022-11-28 09:43:00.027,Visalar
31,22,2022-11-28 09:44:00.055,Visalar
31,22,2022-11-28 09:45:00.062,Visalar
31,22,2022-11-28 09:46:00.012,Visalar
31,22,2022-11-28 09:47:00.062,Visalar
31,22,2022-11-28 09:48:00.062,Visalar
31,22,2022-11-28 09:49:00.027,Visalar
31,22,2022-11-28 09:50:00.062,Visalar
31,22,2022-11-28 09:51:00.004,Visalar
31,22,2022-11-28 09:52:00.062,Visalar
31,22,2022-11-28 09:53:00.062,Visalar
31,22,2022-11-28 09:54:00.062,Visalar
31,22,2022-11-28 09:55:00.062,Visalar
28,22,2022-11-28 09:57:00.059,Visalar
28,22,2022-11-28 09:58:00.012,Visalar
28,22,2022-11-28 09:59:00.062,Visalar
28,22,2022-11-28 10:00:00.062,Visalar
28,22,2022-11-28 10:01:00.062,Visalar
28,22,2022-11-28 10:02:00.062,Visalar
28,22,2022-11-28 10:03:00.062,Visalar
28,22,2022-11-28 10:04:00.062,Visalar
28,22,2022-11-28 10:05:00.062,Visalar
28,22,2022-11-28 10:06:00.004,Visalar
28,22,2022-11-28 10:07:00.051,Visalar
28,22,2022-11-28 10:08:00.062,Visalar
28,22,2022-11-28 10:09:00.062,Visalar
28,22,2022-11-28 10:10:00.062,Visalar
28,22,2022-11-28 10:11:00.062,Visalar
28,22,2022-11-28 10:12:00.062,Visalar
28,22,2022-11-28 10:13:00.062,Visalar
28,22,2022-11-28 10:14:00.062,Visalar
28,22,2022-11-28 10:15:00.062,Visalar
28,22,2022-11-28 10:16:00.062,Visalar
28,22,2022-11-28 10:17:00.062,Visalar
28,22,2022-11-28 10:18:00.062,Visalar
28,22,2022-11-28 10:19:00.062,Visalar
28,22,2022-11-28 10:20:00.002,Visalar
29,22,2022-11-28 10:21:00.006,Visalar
29,22,2022-11-28 10:22:00.002,Visalar
29,22,2022-11-28 10:23:00.011,Visalar
29,22,2022-11-28 10:24:00.062,Visalar
29,22,2022-11-28 10:25:00.062,Visalar
29,22,2022-11-28 10:26:00.062,Visalar
29,22,2022-11-28 10:27:00.062,Visalar
29,22,2022-11-28 10:28:00.062,Visalar
29,22,2022-11-28 10:29:00.012,Visalar
29,22,2022-11-28 10:30:00.062,Visalar
29,22,2022-11-28 10:31:00.061,Visalar
29,22,2022-11-28 10:32:00.061,Visalar
29,22,2022-11-28 10:33:00.062,Visalar
29,22,2022-11-28 10:34:00.062,Visalar
29,22,2022-11-28 10:35:00.012,Visalar
29,22,2022-11-28 10:36:00.002,Visalar
29,22,2022-11-28 10:37:00.011,Visalar
29,22,2022-11-28 10:38:00.061,Visalar
29,22,2022-11-28 10:39:00.062,Visalar
29,22,2022-11-28 10:40:00.062,Visalar
29,22,2022-11-28 10:41:00.002,Visalar
29,22,2022-11-28 10:42:00.062,Visalar
29,22,2022-11-28 10:43:00.028,Visalar
29,22,2022-11-28 10:44:00.060,Visalar
30,22,2022-11-28 10:45:00.062,Visalar
30,22,2022-11-28 10:46:00.062,Visalar
29,22,2022-11-28 10:47:00.062,Visalar
29,22,2022-11-28 10:48:00.062,Visalar
29,22,2022-11-28 10:49:00.062,Visalar
29,22,2022-11-28 10:50:00.062,Visalar
29,22,2022-11-28 10:51:00.062,Visalar
29,22,2022-11-28 10:52:00.062,Visalar
29,22,2022-11-28 10:53:00.062,Visalar
29,22,2022-11-28 10:54:00.062,Visalar
29,22,2022-11-28 10:55:00.062,Visalar
29,22,2022-11-28 10:56:00.002,Visalar
29,22,2022-11-28 10:57:00.062,Visalar
29,22,2022-11-28 10:58:00.012,Visalar
29,22,2022-11-28 10:59:00.022,Visalar
29,22,2022-11-28 11:00:00.022,Visalar
29,22,2022-11-28 11:01:00.022,Visalar
29,22,2022-11-28 11:02:00.057,Visalar
29,22,2022-11-28 11:03:00.012,Visalar
29,22,2022-11-28 11:04:00.012,Visalar
29,22,2022-11-28 11:05:00.012,Visalar
29,22,2022-11-28 11:06:00.012,Visalar
29,22,2022-11-28 11:07:00.062,Visalar
29,22,2022-11-28 11:08:00.012,Visalar
30,22,2022-11-28 11:09:00.062,Visalar
30,22,2022-11-28 11:10:00.045,Visalar
30,22,2022-11-28 11:11:00.062,Visalar
30,22,2022-11-28 11:12:00.062,Visalar
30,22,2022-11-28 11:13:00.062,Visalar
30,22,2022-11-28 11:14:00.062,Visalar
30,22,2022-11-28 11:15:00.062,Visalar
30,22,2022-11-28 11:16:00.004,Visalar
30,22,2022-11-28 11:17:00.062,Visalar
30,22,2022-11-28 11:18:00.062,Visalar
30,22,2022-11-28 11:19:00.056,Visalar
30,22,2022-11-28 11:20:00.062,Visalar
30,22,2022-11-28 11:21:00.062,Visalar
30,22,2022-11-28 11:22:00.012,Visalar
30,22,2022-11-28 11:23:00.012,Visalar
30,22,2022-11-28 11:24:00.062,Visalar
30,22,2022-11-28 11:25:00.062,Visalar
30,22,2022-11-28 11:26:00.062,Visalar
30,22,2022-11-28 11:27:00.062,Visalar
30,22,2022-11-28 11:28:00.020,Visalar
30,22,2022-11-28 11:30:00.062,Visalar
30,22,2022-11-28 11:31:00.062,Visalar
30,22,2022-11-28 11:32:00.060,Visalar
30,22,2022-11-28 11:33:00.062,Visalar
30,22,2022-11-28 11:34:00.062,Visalar
30,22,2022-11-28 11:35:00.062,Visalar
30,22,2022-11-28 11:36:00.062,Visalar
30,22,2022-11-28 11:37:00.062,Visalar
30,22,2022-11-28 11:38:00.062,Visalar
30,22,2022-11-28 11:39:00.012,Visalar
30,22,2022-11-28 11:40:00.063,Visalar
30,22,2022-11-28 11:41:00.062,Visalar
30,22,2022-11-28 11:42:00.062,Visalar
30,22,2022-11-28 11:43:00.062,Visalar
30,22,2022-11-28 11:44:00.062,Visalar
30,22,2022-11-28 11:45:00.062,Visalar
30,22,2022-11-28 11:46:00.022,Visalar
30,22,2022-11-28 11:47:00.062,Visalar
30,22,2022-11-28 11:48:00.004,Visalar
30,22,2022-11-28 11:49:00.017,Visalar
30,22,2022-11-28 11:50:00.062,Visalar
30,22,2022-11-28 11:51:00.058,Visalar
30,22,2022-11-28 11:52:00.012,Visalar
30,22,2022-11-28 11:53:00.022,Visalar
30,22,2022-11-28 11:54:00.012,Visalar
30,22,2022-11-28 11:55:00.062,Visalar
30,22,2022-11-28 11:56:00.013,Visalar
30,22,2022-11-28 11:57:00.012,Visalar
30,22,2022-11-28 11:58:00.062,Visalar
30,22,2022-11-28 11:59:00.062,Visalar
30,22,2022-11-28 12:00:00.022,Visalar
30,22,2022-11-28 12:01:00.022,Visalar
30,22,2022-11-28 12:02:00.004,Visalar
30,22,2022-11-28 12:03:00.012,Visalar
30,22,2022-11-28 12:04:00.012,Visalar
30,22,2022-11-28 12:05:00.022,Visalar
30,22,2022-11-28 12:06:00.022,Visalar
30,22,2022-11-28 12:07:00.022,Visalar
30,22,2022-11-28 12:08:00.062,Visalar
30,22,2022-11-28 12:09:00.062,Visalar
30,22,2022-11-28 12:10:00.062,Visalar
30,22,2022-11-28 12:11:00.062,Visalar
30,22,2022-11-28 12:12:00.062,Visalar
30,22,2022-11-28 12:13:00.062,Visalar
30,22,2022-11-28 12:14:00.062,Visalar
30,22,2022-11-28 12:15:00.004,Visalar
30,22,2022-11-28 12:16:00.062,Visalar
30,22,2022-11-28 12:17:00.062,Visalar
30,22,2022-11-28 12:18:00.062,Visalar
30,22,2022-11-28 12:19:00.062,Visalar
30,22,2022-11-28 12:20:00.062,Visalar
30,22,2022-11-28 12:21:00.062,Visalar
30,22,2022-11-28 12:22:00.062,Visalar
30,22,2022-11-28 12:23:00.002,Visalar
30,22,2022-11-28 12:24:00.008,Visalar
30,22,2022-11-28 12:25:00.062,Visalar
30,22,2022-11-28 12:26:00.011,Visalar
30,22,2022-11-28 12:27:00.062,Visalar
30,22,2022-11-28 12:28:00.062,Visalar
30,22,2022-11-28 12:29:00.062,Visalar
30,22,2022-11-28 12:30:00.062,Visalar
30,22,2022-11-28 12:31:00.062,Visalar
30,22,2022-11-28 12:32:00.062,Visalar
30,22,2022-11-28 12:33:00.062,Visalar
30,22,2022-11-28 12:34:00.061,Visalar
30,22,2022-11-28 12:35:00.062,Visalar
30,22,2022-11-28 12:36:00.062,Visalar
30,22,2022-11-28 12:37:00.062,Visalar
30,22,2022-11-28 12:38:00.062,Visalar
30,22,2022-11-28 12:39:00.062,Visalar
30,22,2022-11-28 12:40:00.062,Visalar
30,22,2022-11-28 12:41:00.062,Visalar
30,22,2022-11-28 12:42:00.063,Visalar
30,22,2022-11-28 12:43:00.051,Visalar
30,22,2022-11-28 12:44:00.062,Visalar
30,22,2022-11-28 12:45:00.012,Visalar
30,22,2022-11-28 12:46:00.062,Visalar
30,22,2022-11-28 12:47:00.014,Visalar
30,22,2022-11-28 12:48:00.007,Visalar
30,22,2022-11-28 12:49:00.062,Visalar
30,22,2022-11-28 12:50:00.062,Visalar
30,22,2022-11-28 12:51:00.062,Visalar
30,22,2022-11-28 12:52:00.062,Visalar
30,22,2022-11-28 12:53:00.050,Visalar
30,22,2022-11-28 12:54:00.062,Visalar
30,22,2022-11-28 12:55:00.062,Visalar
30,22,2022-11-28 12:56:00.062,Visalar
30,22,2022-11-28 12:57:00.062,Visalar
30,22,2022-11-28 12:58:00.062,Visalar
30,22,2022-11-28 12:59:00.004,Visalar
30,22,2022-11-28 13:00:00.062,Visalar
30,22,2022-11-28 13:01:00.062,Visalar
30,22,2022-11-28 13:03:00.062,Visalar
30,22,2022-11-28 13:04:00.062,Visalar
30,22,2022-11-28 13:05:00.010,Visalar
30,22,2022-11-28 13:06:00.062,Visalar
30,22,2022-11-28 13:07:00.062,Visalar
30,22,2022-11-28 13:08:00.062,Visalar
30,22,2022-11-28 13:09:00.004,Visalar
30,22,2022-11-28 13:10:00.012,Visalar
30,22,2022-11-28 13:11:00.060,Visalar
30,22,2022-11-28 13:12:00.012,Visalar
30,22,2022-11-28 13:13:00.062,Visalar
30,22,2022-11-28 13:14:00.062,Visalar
30,22,2022-11-28 13:15:00.062,Visalar
30,22,2022-11-28 13:16:00.029,Visalar
30,22,2022-11-28 13:17:00.062,Visalar
30,22,2022-11-28 13:18:00.004,Visalar
30,22,2022-11-28 13:19:00.056,Visalar
30,22,2022-11-28 13:20:00.062,Visalar
30,22,2022-11-28 13:21:00.004,Visalar
30,22,2022-11-28 13:22:00.062,Visalar
30,22,2022-11-28 13:23:00.062,Visalar
30,22,2022-11-28 13:24:00.062,Visalar
30,22,2022-11-28 13:25:00.062,Visalar
30,22,2022-11-28 13:27:00.062,Visalar
30,22,2022-11-28 13:28:00.062,Visalar
30,22,2022-11-28 13:29:00.060,Visalar
30,22,2022-11-28 13:30:00.062,Visalar
30,22,2022-11-28 13:31:00.062,Visalar
30,22,2022-11-28 13:32:00.062,Visalar
30,22,2022-11-28 13:33:00.056,Visalar
30,22,2022-11-28 13:34:00.002,Visalar
30,22,2022-11-28 13:35:00.062,Visalar
30,22,2022-11-28 13:36:00.062,Visalar
30,22,2022-11-28 13:37:00.061,Visalar
30,22,2022-11-28 13:38:00.062,Visalar
30,22,2022-11-28 13:39:00.062,Visalar
30,22,2022-11-28 13:40:00.004,Visalar
30,22,2022-11-28 13:41:00.061,Visalar
30,22,2022-11-28 13:42:00.062,Visalar
30,22,2022-11-28 13:43:00.061,Visalar
30,22,2022-11-28 13:44:00.012,Visalar
30,22,2022-11-28 13:45:00.062,Visalar
30,22,2022-11-28 13:46:00.062,Visalar
30,22,2022-11-28 13:47:00.062,Visalar
30,22,2022-11-28 13:48:00.062,Visalar
30,22,2022-11-28 13:49:00.002,Visalar
30,22,2022-11-28 13:50:00.061,Visalar
30,22,2022-11-28 13:51:00.062,Visalar
30,22,2022-11-28 13:52:00.062,Visalar
30,22,2022-11-28 13:53:00.062,Visalar
30,22,2022-11-28 13:54:00.012,Visalar
30,22,2022-11-28 13:55:00.048,Visalar
30,22,2022-11-28 13:56:00.002,Visalar
29,22,2022-11-28 13:57:00.062,Visalar
29,22,2022-11-28 13:58:00.062,Visalar
29,22,2022-11-28 13:59:00.062,Visalar
29,22,2022-11-28 14:00:00.062,Visalar
29,22,2022-11-28 14:01:00.062,Visalar
29,22,2022-11-28 14:02:00.062,Visalar
29,22,2022-11-28 14:03:00.028,Visalar
29,22,2022-11-28 14:04:00.012,Visalar
29,22,2022-11-28 14:05:00.062,Visalar
29,22,2022-11-28 14:06:00.062,Visalar
29,22,2022-11-28 14:07:00.027,Visalar
29,22,2022-11-28 14:08:00.062,Visalar
29,22,2022-11-28 14:09:00.062,Visalar
29,22,2022-11-28 14:10:00.062,Visalar
29,22,2022-11-28 14:11:00.062,Visalar
29,22,2022-11-28 14:12:00.062,Visalar
29,22,2022-11-28 14:13:00.062,Visalar
29,22,2022-11-28 14:14:00.062,Visalar
29,22,2022-11-28 14:15:00.062,Visalar
29,22,2022-11-28 14:16:00.062,Visalar
29,22,2022-11-28 14:17:00.060,Visalar
30,22,2022-11-28 14:18:00.062,Visalar
30,22,2022-11-28 14:19:00.062,Visalar
30,22,2022-11-28 14:20:00.062,Visalar
30,22,2022-11-28 14:21:00.062,Visalar
30,22,2022-11-28 14:22:00.062,Visalar
30,22,2022-11-28 14:23:00.012,Visalar
30,22,2022-11-28 14:24:00.061,Visalar
30,22,2022-11-28 14:25:00.011,Visalar
30,22,2022-11-28 14:26:00.062,Visalar
30,22,2022-11-28 14:27:00.033,Visalar
30,22,2022-11-28 14:28:00.062,Visalar
30,22,2022-11-28 14:29:00.062,Visalar
30,22,2022-11-28 14:30:00.062,Visalar
30,22,2022-11-28 14:31:00.062,Visalar
30,22,2022-11-28 14:32:00.062,Visalar
30,22,2022-11-28 14:33:00.062,Visalar
30,22,2022-11-28 14:34:00.004,Visalar
30,22,2022-11-28 14:35:00.004,Visalar
30,22,2022-11-28 14:36:00.062,Visalar
30,22,2022-11-28 14:37:00.062,Visalar
30,22,2022-11-28 14:38:00.055,Visalar
30,22,2022-11-28 14:39:00.061,Visalar
30,22,2022-11-28 14:40:00.049,Visalar
30,22,2022-11-28 14:41:00.046,Visalar
30,22,2022-11-28 14:42:00.002,Visalar
30,22,2022-11-28 14:43:00.062,Visalar
30,22,2022-11-28 14:44:00.062,Visalar
30,22,2022-11-28 14:45:00.062,Visalar
30,22,2022-11-28 14:46:00.062,Visalar
30,22,2022-11-28 14:47:00.062,Visalar
30,22,2022-11-28 14:48:00.010,Visalar
30,22,2022-11-28 14:49:00.002,Visalar
30,22,2022-11-28 14:50:00.062,Visalar
30,22,2022-11-28 14:51:00.062,Visalar
30,22,2022-11-28 14:52:00.045,Visalar
30,22,2022-11-28 14:53:00.062,Visalar
30,22,2022-11-28 14:54:00.062,Visalar
30,22,2022-11-28 14:55:00.012,Visalar
30,22,2022-11-28 14:56:00.062,Visalar
30,22,2022-11-28 14:57:00.062,Visalar
30,22,2022-11-28 14:58:00.062,Visalar
30,22,2022-11-28 14:59:00.062,Visalar
30,22,2022-11-28 15:00:00.062,Visalar
30,22,2022-11-28 15:02:00.062,Visalar
30,22,2022-11-28 15:03:00.004,Visalar
30,22,2022-11-28 15:04:00.060,Visalar
30,22,2022-11-28 15:05:00.062,Visalar
30,22,2022-11-28 15:06:00.062,Visalar
30,22,2022-11-28 15:07:00.062,Visalar
30,22,2022-11-28 15:08:00.062,Visalar
30,22,2022-11-28 15:09:00.061,Visalar
30,22,2022-11-28 15:10:00.062,Visalar
30,22,2022-11-28 15:11:00.024,Visalar
30,22,2022-11-28 15:12:00.012,Visalar
30,22,2022-11-28 15:13:00.062,Visalar
30,22,2022-11-28 15:14:00.062,Visalar
30,22,2022-11-28 15:15:00.062,Visalar
30,22,2022-11-28 15:16:00.041,Visalar
30,22,2022-11-28 15:17:00.062,Visalar
30,22,2022-11-28 15:18:00.062,Visalar
30,22,2022-11-28 15:19:00.004,Visalar
30,22,2022-11-28 15:20:00.004,Visalar
30,22,2022-11-28 15:21:00.062,Visalar
30,22,2022-11-28 15:22:00.062,Visalar
30,22,2022-11-28 15:23:00.004,Visalar
30,22,2022-11-28 15:24:00.062,Visalar
30,22,2022-11-28 15:25:00.062,Visalar
30,22,2022-11-28 15:26:00.061,Visalar
30,22,2022-11-28 15:27:00.062,Visalar
30,22,2022-11-28 15:28:00.061,Visalar
30,22,2022-11-28 15:29:00.004,Visalar
30,22,2022-11-28 15:30:00.009,Visalar
30,22,2022-11-28 15:31:00.062,Visalar
30,22,2022-11-28 15:32:00.062,Visalar
30,22,2022-11-28 15:33:00.062,Visalar
30,22,2022-11-28 15:34:00.062,Visalar
30,22,2022-11-28 15:35:00.062,Visalar
30,22,2022-11-28 15:36:00.062,Visalar
30,22,2022-11-28 15:37:00.062,Visalar
30,22,2022-11-28 15:38:00.062,Visalar
30,22,2022-11-28 15:39:00.062,Visalar
30,22,2022-11-28 15:40:00.062,Visalar
30,22,2022-11-28 15:41:00.061,Visalar
30,22,2022-11-28 15:42:00.012,Visalar
30,22,2022-11-28 15:43:00.062,Visalar
30,22,2022-11-28 15:44:00.062,Visalar
30,22,2022-11-28 15:45:00.023,Visalar
30,22,2022-11-28 15:46:00.062,Visalar
30,22,2022-11-28 15:47:00.062,Visalar
30,22,2022-11-28 15:48:00.062,Visalar
30,22,2022-11-28 15:49:00.062,Visalar
30,22,2022-11-28 15:50:00.062,Visalar
30,22,2022-11-28 15:51:00.062,Visalar
30,22,2022-11-28 15:52:00.002,Visalar
30,22,2022-11-28 15:53:00.062,Visalar
30,22,2022-11-28 15:54:00.062,Visalar
30,22,2022-11-28 15:55:00.057,Visalar
30,22,2022-11-28 15:56:00.061,Visalar
30,22,2022-11-28 15:57:00.061,Visalar
30,22,2022-11-28 15:58:00.062,Visalar
30,22,2022-11-28 15:59:00.012,Visalar
30,22,2022-11-28 16:00:00.062,Visalar
30,22,2022-11-28 16:01:00.061,Visalar
30,22,2022-11-28 16:02:00.061,Visalar
30,22,2022-11-28 16:03:00.033,Visalar
30,22,2022-11-28 16:04:00.012,Visalar
30,22,2022-11-28 16:05:00.062,Visalar
30,22,2022-11-28 16:06:00.012,Visalar
30,22,2022-11-28 16:07:00.062,Visalar
30,22,2022-11-28 16:08:00.062,Visalar
30,22,2022-11-28 16:09:00.031,Visalar
30,22,2022-11-28 16:10:00.012,Visalar
30,22,2022-11-28 16:11:00.062,Visalar
30,22,2022-11-28 16:12:00.063,Visalar
30,22,2022-11-28 16:13:00.062,Visalar
30,22,2022-11-28 16:14:00.012,Visalar
30,22,2022-11-28 16:15:00.062,Visalar
30,22,2022-11-28 16:16:00.062,Visalar
30,22,2022-11-28 16:17:00.062,Visalar
30,22,2022-11-28 16:18:00.004,Visalar
30,22,2022-11-28 16:19:00.062,Visalar
30,22,2022-11-28 16:20:00.062,Visalar
30,22,2022-11-28 16:21:00.062,Visalar
30,22,2022-11-28 16:22:00.012,Visalar
30,22,2022-11-28 16:23:00.004,Visalar
30,22,2022-11-28 16:24:00.004,Visalar
30,22,2022-11-28 16:25:00.062,Visalar
30,22,2022-11-28 16:26:00.062,Visalar
30,22,2022-11-28 16:27:00.004,Visalar
30,22,2022-11-28 16:28:00.062,Visalar
30,22,2022-11-28 16:29:00.062,Visalar
30,22,2022-11-28 16:30:00.062,Visalar
30,22,2022-11-28 16:31:00.062,Visalar
30,22,2022-11-28 16:32:00.062,Visalar
30,22,2022-11-28 16:33:00.062,Visalar
30,22,2022-11-28 16:34:00.062,Visalar
30,22,2022-11-28 16:35:00.062,Visalar
30,22,2022-11-28 16:36:00.062,Visalar
30,22,2022-11-28 16:38:00.036,Visalar
30,22,2022-11-28 16:39:00.031,Visalar
30,22,2022-11-28 16:40:00.002,Visalar
29,22,2022-11-28 16:41:00.062,Visalar
29,22,2022-11-28 16:42:00.062,Visalar
29,22,2022-11-28 16:43:00.062,Visalar
29,22,2022-11-28 16:44:00.062,Visalar
29,22,2022-11-28 16:45:00.062,Visalar
29,22,2022-11-28 16:46:00.062,Visalar
29,22,2022-11-28 16:47:00.062,Visalar
29,22,2022-11-28 16:48:00.004,Visalar
29,22,2022-11-28 16:49:00.012,Visalar
29,22,2022-11-28 16:50:00.062,Visalar
29,22,2022-11-28 16:51:00.004,Visalar
29,22,2022-11-28 16:52:00.062,Visalar
29,22,2022-11-28 16:53:00.062,Visalar
29,22,2022-11-28 16:54:00.062,Visalar
29,22,2022-11-28 16:55:00.062,Visalar
29,22,2022-11-28 16:56:00.062,Visalar
29,22,2022-11-28 16:57:00.062,Visalar
29,22,2022-11-28 16:58:00.062,Visalar
29,22,2022-11-28 16:59:00.044,Visalar
29,22,2022-11-28 17:00:00.024,Visalar
29,22,2022-11-28 17:01:00.008,Visalar
29,22,2022-11-28 17:02:00.062,Visalar
29,22,2022-11-28 17:03:00.062,Visalar
29,22,2022-11-28 17:04:00.004,Visalar
29,22,2022-11-28 17:05:00.062,Visalar
29,22,2022-11-28 17:06:00.024,Visalar
29,22,2022-11-28 17:07:00.030,Visalar
29,22,2022-11-28 17:08:00.062,Visalar
29,22,2022-11-28 17:09:00.016,Visalar
29,22,2022-11-28 17:10:00.061,Visalar
29,22,2022-11-28 17:11:00.002,Visalar
29,22,2022-11-28 17:12:00.060,Visalar
29,22,2022-11-28 17:13:00.062,Visalar
29,22,2022-11-28 17:14:00.062,Visalar
29,22,2022-11-28 17:15:00.062,Visalar
29,22,2022-11-28 17:16:00.062,Visalar
29,22,2022-11-28 17:17:00.004,Visalar
29,22,2022-11-28 17:18:00.062,Visalar
29,22,2022-11-28 17:19:00.062,Visalar
29,22,2022-11-28 17:20:00.062,Visalar
29,22,2022-11-28 17:21:00.062,Visalar
29,22,2022-11-28 17:22:00.062,Visalar
29,22,2022-11-28 17:23:00.062,Visalar
29,22,2022-11-28 17:24:00.062,Visalar
29,22,2022-11-28 17:25:00.062,Visalar
29,22,2022-11-28 17:26:00.012,Visalar
29,22,2022-11-28 17:27:00.062,Visalar
29,22,2022-11-28 17:29:00.012,Visalar
29,22,2022-11-28 17:30:00.002,Visalar
29,22,2022-11-28 17:31:00.012,Visalar
29,22,2022-11-28 17:32:00.012,Visalar
29,22,2022-11-28 17:33:00.039,Visalar
29,22,2022-11-28 17:34:00.062,Visalar
29,22,2022-11-28 17:35:00.056,Visalar
29,22,2022-11-28 17:36:00.062,Visalar
29,22,2022-11-28 17:37:00.062,Visalar
29,22,2022-11-28 17:38:00.062,Visalar
29,22,2022-11-28 17:39:00.062,Visalar
29,22,2022-11-28 17:40:00.062,Visalar
29,22,2022-11-28 17:41:00.039,Visalar
29,22,2022-11-28 17:42:00.062,Visalar
29,22,2022-11-28 17:43:00.012,Visalar
29,22,2022-11-28 17:44:00.062,Visalar
29,22,2022-11-28 17:45:00.062,Visalar
29,22,2022-11-28 17:46:00.062,Visalar
29,22,2022-11-28 17:47:00.062,Visalar
29,22,2022-11-28 17:48:00.062,Visalar
29,22,2022-11-28 17:49:00.062,Visalar
29,22,2022-11-28 17:50:00.020,Visalar
29,22,2022-11-28 17:51:00.062,Visalar
29,22,2022-11-28 17:52:00.062,Visalar
30,22,2022-11-28 17:53:00.002,Visalar
30,22,2022-11-28 17:54:00.012,Visalar
30,22,2022-11-28 17:55:00.062,Visalar
30,22,2022-11-28 17:56:00.062,Visalar
30,22,2022-11-28 17:57:00.012,Visalar
30,22,2022-11-28 17:58:00.046,Visalar
30,22,2022-11-28 17:59:00.061,Visalar
30,22,2022-11-28 18:00:00.012,Visalar
30,22,2022-11-28 18:01:00.012,Visalar
30,22,2022-11-28 18:02:00.061,Visalar
30,22,2022-11-28 18:03:00.062,Visalar
30,22,2022-11-28 18:04:00.062,Visalar
30,22,2022-11-28 18:05:00.062,Visalar
30,22,2022-11-28 18:06:00.062,Visalar
30,22,2022-11-28 18:07:00.012,Visalar
30,22,2022-11-28 18:08:00.012,Visalar
30,22,2022-11-28 18:09:00.012,Visalar
30,22,2022-11-28 18:10:00.012,Visalar
30,22,2022-11-28 18:11:00.062,Visalar
30,22,2022-11-28 18:12:00.062,Visalar
30,22,2022-11-28 18:13:00.012,Visalar
30,22,2022-11-28 18:14:00.062,Visalar
30,22,2022-11-28 18:15:00.062,Visalar
30,2,2022-11-28 18:16:00.060,Visalar
30,22,2022-11-28 18:17:00.053,Visalar
30,22,2022-11-28 18:18:00.062,Visalar
30,22,2022-11-28 18:19:00.062,Visalar
30,22,2022-11-28 18:20:00.037,Visalar
30,22,2022-11-28 18:21:00.012,Visalar
30,22,2022-11-28 18:22:00.012,Visalar
30,22,2022-11-28 18:23:00.062,Visalar
30,22,2022-11-28 18:24:00.062,Visalar
30,22,2022-11-28 18:25:00.032,Visalar
30,22,2022-11-28 18:26:00.054,Visalar
30,22,2022-11-28 18:27:00.062,Visalar
30,22,2022-11-28 18:28:00.061,Visalar
30,22,2022-11-28 18:29:00.012,Visalar
30,22,2022-11-28 18:30:00.062,Visalar
30,22,2022-11-28 18:31:00.012,Visalar
30,22,2022-11-28 18:32:00.012,Visalar
30,22,2022-11-28 18:33:00.062,Visalar
30,22,2022-11-28 18:34:00.024,Visalar
30,22,2022-11-28 18:35:00.062,Visalar
30,22,2022-11-28 18:36:00.062,Visalar
30,22,2022-11-28 18:37:00.062,Visalar
30,22,2022-11-28 18:38:00.062,Visalar
30,22,2022-11-28 18:39:00.062,Visalar
30,22,2022-11-28 18:40:00.062,Visalar
29,22,2022-11-28 18:41:00.062,Visalar
29,22,2022-11-28 18:42:00.002,Visalar
29,22,2022-11-28 18:43:00.012,Visalar
29,22,2022-11-28 18:44:00.062,Visalar
29,22,2022-11-28 18:45:00.062,Visalar
29,22,2022-11-28 18:46:00.062,Visalar
29,22,2022-11-28 18:47:00.062,Visalar
29,22,2022-11-28 18:48:00.023,Visalar
29,22,2022-11-28 18:49:00.062,Visalar
29,22,2022-11-28 18:50:00.062,Visalar
29,22,2022-11-28 18:51:00.062,Visalar
29,22,2022-11-28 18:52:00.062,Visalar
29,22,2022-11-28 18:53:00.062,Visalar
29,22,2022-11-28 18:54:00.062,Visalar
29,22,2022-11-28 18:55:00.004,Visalar
29,22,2022-11-28 18:56:00.062,Visalar
29,22,2022-11-28 18:57:00.062,Visalar
29,22,2022-11-28 18:58:00.002,Visalar
29,22,2022-11-28 18:59:00.061,Visalar
29,22,2022-11-28 19:00:00.062,Visalar
29,22,2022-11-28 19:01:00.062,Visalar
29,22,2022-11-28 19:02:00.062,Visalar
29,22,2022-11-28 19:03:00.062,Visalar
29,2,2022-11-28 19:04:00.060,Visalar
30,22,2022-11-28 19:05:00.012,Visalar
30,22,2022-11-28 19:06:00.062,Visalar
30,22,2022-11-28 19:07:00.062,Visalar
30,22,2022-11-28 19:08:00.062,Visalar
30,22,2022-11-28 19:09:00.062,Visalar
30,22,2022-11-28 19:10:00.004,Visalar
30,22,2022-11-28 19:11:00.006,Visalar
30,22,2022-11-28 19:12:00.062,Visalar
30,22,2022-11-28 19:13:00.062,Visalar
30,22,2022-11-28 19:14:00.034,Visalar
30,22,2022-11-28 19:15:00.062,Visalar
30,22,2022-11-28 19:16:00.062,Visalar
30,22,2022-11-28 19:17:00.062,Visalar
30,22,2022-11-28 19:18:00.062,Visalar
30,22,2022-11-28 19:19:00.013,Visalar
30,22,2022-11-28 19:20:00.023,Visalar
30,22,2022-11-28 19:21:00.012,Visalar
30,22,2022-11-28 19:22:00.012,Visalar
30,22,2022-11-28 19:23:00.006,Visalar
30,22,2022-11-28 19:24:00.062,Visalar
30,22,2022-11-28 19:25:00.005,Visalar
30,22,2022-11-28 19:26:00.026,Visalar
30,22,2022-11-28 19:27:00.062,Visalar
30,22,2022-11-28 19:28:00.034,Visalar
29,22,2022-11-28 19:29:00.012,Visalar
29,22,2022-11-28 19:30:00.062,Visalar
29,22,2022-11-28 19:31:00.013,Visalar
29,22,2022-11-28 19:32:00.061,Visalar
29,22,2022-11-28 19:33:00.039,Visalar
29,22,2022-11-28 19:34:00.012,Visalar
29,22,2022-11-28 19:35:00.062,Visalar
29,22,2022-11-28 19:36:00.062,Visalar
29,22,2022-11-28 19:37:00.062,Visalar
29,22,2022-11-28 19:38:00.056,Visalar
29,22,2022-11-28 19:39:00.062,Visalar
29,22,2022-11-28 19:40:00.061,Visalar
29,22,2022-11-28 19:41:00.039,Visalar
29,22,2022-11-28 19:42:00.061,Visalar
29,22,2022-11-28 19:43:00.056,Visalar
29,22,2022-11-28 19:44:00.012,Visalar
29,22,2022-11-28 19:45:00.033,Visalar
29,22,2022-11-28 19:46:00.062,Visalar
29,22,2022-11-28 19:47:00.062,Visalar
29,22,2022-11-28 19:48:00.062,Visalar
29,22,2022-11-28 19:49:00.062,Visalar
29,22,2022-11-28 19:50:00.062,Visalar
29,22,2022-11-28 19:51:00.062,Visalar
29,22,2022-11-28 19:52:00.062,Visalar
29,22,2022-11-28 19:54:00.062,Visalar
29,22,2022-11-28 19:55:00.062,Visalar
29,22,2022-11-28 19:56:00.062,Visalar
29,22,2022-11-28 19:57:00.006,Visalar
29,22,2022-11-28 19:58:00.011,Visalar
29,22,2022-11-28 19:59:00.062,Visalar
29,22,2022-11-28 20:00:00.012,Visalar
29,22,2022-11-28 20:01:00.011,Visalar
29,22,2022-11-28 20:02:00.044,Visalar
29,22,2022-11-28 20:03:00.062,Visalar
29,22,2022-11-28 20:04:00.062,Visalar
29,22,2022-11-28 20:05:00.062,Visalar
29,22,2022-11-28 20:06:00.012,Visalar
29,22,2022-11-28 20:07:00.062,Visalar
29,22,2022-11-28 20:08:00.028,Visalar
29,22,2022-11-28 20:09:00.062,Visalar
29,22,2022-11-28 20:10:00.006,Visalar
29,22,2022-11-28 20:11:00.062,Visalar
29,22,2022-11-28 20:12:00.025,Visalar
29,22,2022-11-28 20:13:00.062,Visalar
29,22,2022-11-28 20:14:00.062,Visalar
29,22,2022-11-28 20:15:00.062,Visalar
29,22,2022-11-28 20:16:00.062,Visalar
29,22,2022-11-28 20:17:00.062,Visalar
29,22,2022-11-28 20:18:00.062,Visalar
29,22,2022-11-28 20:19:00.062,Visalar
29,22,2022-11-28 20:20:00.014,Visalar
29,22,2022-11-28 20:21:00.062,Visalar
29,22,2022-11-28 20:22:00.062,Visalar
29,22,2022-11-28 20:23:00.062,Visalar
29,22,2022-11-28 20:24:00.062,Visalar
29,22,2022-11-28 20:25:00.061,Visalar
29,22,2022-11-28 20:26:00.062,Visalar
29,22,2022-11-28 20:27:00.062,Visalar
29,22,2022-11-28 20:28:00.062,Visalar
29,22,2022-11-28 20:29:00.052,Visalar
29,22,2022-11-28 20:30:00.062,Visalar
29,22,2022-11-28 20:31:00.062,Visalar
29,22,2022-11-28 20:32:00.062,Visalar
29,22,2022-11-28 20:33:00.062,Visalar
29,22,2022-11-28 20:34:00.062,Visalar
29,22,2022-11-28 20:35:00.048,Visalar
29,22,2022-11-28 20:36:00.062,Visalar
29,22,2022-11-28 20:37:00.062,Visalar
29,22,2022-11-28 20:39:00.062,Visalar
29,22,2022-11-28 20:40:00.062,Visalar
29,22,2022-11-28 20:41:00.060,Visalar
29,22,2022-11-28 20:42:00.062,Visalar
29,22,2022-11-28 20:43:00.012,Visalar
29,22,2022-11-28 20:44:00.062,Visalar
29,22,2022-11-28 20:45:00.062,Visalar
29,22,2022-11-28 20:46:00.004,Visalar
29,22,2022-11-28 20:47:00.062,Visalar
29,22,2022-11-28 20:48:00.062,Visalar
29,22,2022-11-28 20:49:00.036,Visalar
29,22,2022-11-28 20:50:00.062,Visalar
29,22,2022-11-28 20:51:00.062,Visalar
29,22,2022-11-28 20:52:00.062,Visalar
29,22,2022-11-28 20:53:00.062,Visalar
29,22,2022-11-28 20:54:00.004,Visalar
29,22,2022-11-28 20:55:00.062,Visalar
29,22,2022-11-28 20:56:00.002,Visalar
29,22,2022-11-28 20:57:00.062,Visalar
29,22,2022-11-28 20:58:00.062,Visalar
29,22,2022-11-28 20:59:00.062,Visalar
29,22,2022-11-28 21:00:00.009,Visalar
29,22,2022-11-28 21:01:00.062,Visalar
29,22,2022-11-28 21:02:00.062,Visalar
29,22,2022-11-28 21:03:00.062,Visalar
29,22,2022-11-28 21:04:00.020,Visalar
29,22,2022-11-28 21:05:00.062,Visalar
28,22,2022-11-28 21:06:00.062,Visalar
28,22,2022-11-28 21:07:00.062,Visalar
28,22,2022-11-28 21:08:00.023,Visalar
28,22,2022-11-28 21:09:00.062,Visalar
28,22,2022-11-28 21:10:00.005,Visalar
28,22,2022-11-28 21:11:00.062,Visalar
28,22,2022-11-28 21:12:00.011,Visalar
28,22,2022-11-28 21:13:00.029,Visalar
28,22,2022-11-28 21:14:00.062,Visalar
28,22,2022-11-28 21:15:00.051,Visalar
28,22,2022-11-28 21:16:00.062,Visalar
28,22,2022-11-28 21:17:00.062,Visalar
28,22,2022-11-28 21:18:00.019,Visalar
28,22,2022-11-28 21:19:00.062,Visalar
28,22,2022-11-28 21:20:00.062,Visalar
28,22,2022-11-28 21:21:00.062,Visalar
28,22,2022-11-28 21:22:00.062,Visalar
28,22,2022-11-28 21:23:00.061,Visalar
28,22,2022-11-28 21:24:00.044,Visalar
28,22,2022-11-28 21:25:00.056,Visalar
29,22,2022-11-28 21:27:00.008,Visalar
29,22,2022-11-28 21:28:00.062,Visalar
29,22,2022-11-28 21:29:00.046,Visalar
28,22,2022-11-28 21:30:00.062,Visalar
28,22,2022-11-28 21:31:00.062,Visalar
28,22,2022-11-28 21:32:00.062,Visalar
28,22,2022-11-28 21:33:00.062,Visalar
28,22,2022-11-28 21:34:00.062,Visalar
28,22,2022-11-28 21:35:00.062,Visalar
28,22,2022-11-28 21:36:00.056,Visalar
28,22,2022-11-28 21:37:00.036,Visalar
28,22,2022-11-28 21:38:00.012,Visalar
28,22,2022-11-28 21:39:00.062,Visalar
28,22,2022-11-28 21:40:00.062,Visalar
28,22,2022-11-28 21:41:00.062,Visalar
28,22,2022-11-28 21:42:00.062,Visalar
28,22,2022-11-28 21:43:00.012,Visalar
28,22,2022-11-28 21:44:00.012,Visalar
28,22,2022-11-28 21:45:00.062,Visalar
28,22,2022-11-28 21:46:00.062,Visalar
28,22,2022-11-28 21:47:00.062,Visalar
28,22,2022-11-28 21:48:00.062,Visalar
28,22,2022-11-28 21:49:00.023,Visalar
28,22,2022-11-28 21:50:00.036,Visalar
28,22,2022-11-28 21:51:00.012,Visalar
28,22,2022-11-28 21:52:00.062,Visalar
28,22,2022-11-28 21:53:00.018,Visalar
28,22,2022-11-28 21:54:00.062,Visalar
28,22,2022-11-28 21:55:00.062,Visalar
28,22,2022-11-28 21:56:00.062,Visalar
28,22,2022-11-28 21:57:00.062,Visalar
28,22,2022-11-28 21:58:00.062,Visalar
28,22,2022-11-28 21:59:00.062,Visalar
28,22,2022-11-28 22:00:00.040,Visalar
28,22,2022-11-28 22:01:00.062,Visalar
28,22,2022-11-28 22:02:00.062,Visalar
28,22,2022-11-28 22:03:00.062,Visalar
28,22,2022-11-28 22:04:00.004,Visalar
28,22,2022-11-28 22:05:00.062,Visalar
28,22,2022-11-28 22:06:00.005,Visalar
28,22,2022-11-28 22:07:00.005,Visalar
28,22,2022-11-28 22:08:00.012,Visalar
28,22,2022-11-28 22:09:00.062,Visalar
28,22,2022-11-28 22:10:00.041,Visalar
28,22,2022-11-28 22:11:00.062,Visalar
28,22,2022-11-28 22:12:00.062,Visalar
28,22,2022-11-28 22:13:00.062,Visalar
28,22,2022-11-28 22:15:00.062,Visalar
28,22,2022-11-28 22:16:00.062,Visalar
28,22,2022-11-28 22:17:00.060,Visalar
28,22,2022-11-28 22:18:00.012,Visalar
28,22,2022-11-28 22:19:00.062,Visalar
28,22,2022-11-28 22:20:00.062,Visalar
28,22,2022-11-28 22:21:00.062,Visalar
28,22,2022-11-28 22:22:00.012,Visalar
28,22,2022-11-28 22:23:00.062,Visalar
28,22,2022-11-28 22:24:00.044,Visalar
28,22,2022-11-28 22:25:00.062,Visalar
28,22,2022-11-28 22:26:00.023,Visalar
28,22,2022-11-28 22:27:00.062,Visalar
28,22,2022-11-28 22:28:00.062,Visalar
28,22,2022-11-28 22:29:00.030,Visalar
28,22,2022-11-28 22:30:00.062,Visalar
28,22,2022-11-28 22:31:00.002,Visalar
28,22,2022-11-28 22:32:00.010,Visalar
28,22,2022-11-28 22:33:00.062,Visalar
28,22,2022-11-28 22:34:00.062,Visalar
28,22,2022-11-28 22:35:00.062,Visalar
28,22,2022-11-28 22:36:00.002,Visalar
28,22,2022-11-28 22:37:00.061,Visalar
28,22,2022-11-28 22:38:00.062,Visalar
28,22,2022-11-28 22:39:00.062,Visalar
28,22,2022-11-28 22:40:00.057,Visalar
28,22,2022-11-28 22:41:00.061,Visalar
29,22,2022-11-28 22:42:00.062,Visalar
29,22,2022-11-28 22:43:00.005,Visalar
29,22,2022-11-28 22:44:00.062,Visalar
29,22,2022-11-28 22:45:00.062,Visalar
29,22,2022-11-28 22:46:00.062,Visalar
29,22,2022-11-28 22:47:00.056,Visalar
29,22,2022-11-28 22:48:00.062,Visalar
29,22,2022-11-28 22:49:00.062,Visalar
29,22,2022-11-28 22:50:00.062,Visalar
29,22,2022-11-28 22:51:00.020,Visalar
29,22,2022-11-28 22:52:00.060,Visalar
29,22,2022-11-28 22:53:00.062,Visalar
29,22,2022-11-28 22:54:00.041,Visalar
29,22,2022-11-28 22:55:00.062,Visalar
29,22,2022-11-28 22:56:00.062,Visalar
29,22,2022-11-28 22:57:00.062,Visalar
29,22,2022-11-28 22:58:00.048,Visalar
29,22,2022-11-28 22:59:00.062,Visalar
29,22,2022-11-28 23:00:00.062,Visalar
29,22,2022-11-28 23:01:00.062,Visalar
29,22,2022-11-28 23:03:00.062,Visalar
29,22,2022-11-28 23:04:00.062,Visalar
29,22,2022-11-28 23:05:00.060,Visalar
29,22,2022-11-28 23:06:00.062,Visalar
29,22,2022-11-28 23:07:00.043,Visalar
29,22,2022-11-28 23:08:00.062,Visalar
29,22,2022-11-28 23:09:00.062,Visalar
29,22,2022-11-28 23:10:00.004,Visalar
29,22,2022-11-28 23:11:00.062,Visalar
29,22,2022-11-28 23:12:00.062,Visalar
29,22,2022-11-28 23:13:00.062,Visalar
29,22,2022-11-28 23:14:00.062,Visalar
29,22,2022-11-28 23:15:00.062,Visalar
29,22,2022-11-28 23:16:00.061,Visalar
29,22,2022-11-28 23:17:00.062,Visalar
29,22,2022-11-28 23:18:00.062,Visalar
29,22,2022-11-28 23:19:00.061,Visalar
29,22,2022-11-28 23:20:00.062,Visalar
29,22,2022-11-28 23:21:00.061,Visalar
29,22,2022-11-28 23:22:00.062,Visalar
29,22,2022-11-28 23:23:00.062,Visalar
29,22,2022-11-28 23:24:00.012,Visalar
29,22,2022-11-28 23:25:00.061,Visalar
29,22,2022-11-28 23:26:00.062,Visalar
29,22,2022-11-28 23:27:00.062,Visalar
29,22,2022-11-28 23:28:00.062,Visalar
29,22,2022-11-28 23:29:00.047,Visalar
30,22,2022-11-28 23:30:00.062,Visalar
30,22,2022-11-28 23:31:00.062,Visalar
30,22,2022-11-28 23:32:00.062,Visalar
30,22,2022-11-28 23:33:00.062,Visalar
30,22,2022-11-28 23:34:00.062,Visalar
30,22,2022-11-28 23:35:00.062,Visalar
30,22,2022-11-28 23:36:00.021,Visalar
30,22,2022-11-28 23:37:00.062,Visalar
30,22,2022-11-28 23:38:00.062,Visalar
30,22,2022-11-28 23:39:00.011,Visalar
30,22,2022-11-28 23:40:00.062,Visalar
30,22,2022-11-28 23:41:00.055,Visalar
30,22,2022-11-28 23:42:00.004,Visalar
30,22,2022-11-28 23:43:00.062,Visalar
30,22,2022-11-28 23:44:00.062,Visalar
30,22,2022-11-28 23:45:00.024,Visalar
30,22,2022-11-28 23:46:00.011,Visalar
30,22,2022-11-28 23:47:00.060,Visalar
30,22,2022-11-28 23:48:00.061,Visalar
30,22,2022-11-28 23:49:00.040,Visalar
30,22,2022-11-28 23:50:00.058,Visalar
30,22,2022-11-28 23:51:00.024,Visalar
30,22,2022-11-28 23:52:00.003,Visalar
30,22,2022-11-28 23:53:00.062,Visalar
30,22,2022-11-28 23:54:00.012,Visalar
30,22,2022-11-28 23:55:00.012,Visalar
30,22,2022-11-28 23:56:00.012,Visalar
30,22,2022-11-28 23:57:00.012,Visalar
30,22,2022-11-28 23:58:00.012,Visalar
30,22,2022-11-28 23:59:00.012,Visalar
